#FIG 3.2
Landscape
Center
Metric
A4      
100.00
Single
-2
1200 2
6 2880 1890 4680 2205
2 1 0 2 -1 -1 0 0 -1 0.000 0 0 -1 0 0 2
	 2925 2160 4635 2160
4 1 -1 0 0 18 14 0.0000 4 210 1365 3765 2085 Tree Settings\001
-6
2 1 0 1 -1 -1 0 0 -1 0.000 0 0 -1 0 0 1
	 1200 1200
4 0 -1 0 0 18 12 0.0000 4 135 570 1425 1575 $close\001
4 0 -1 0 0 18 12 0.0000 4 135 645 1425 3015 $button\001
4 2 -1 0 0 18 12 0.0000 4 150 465 5985 1575 $help\001
4 0 -1 0 0 18 12 0.0000 4 150 630 5220 2205 $config\001
