#FIG 3.2
Landscape
Center
Metric
A4      
100.00
Single
-2
1200 2
6 8190 2835 9225 4815
4 2 -1 0 0 18 13 0.0000 4 165 990 9210 3570 $minus_opts\001
4 2 -1 0 0 18 13 0.0000 4 165 900 9210 4170 $rest_opts\001
4 2 -1 0 0 18 13 0.0000 4 165 990 9210 4770 $lower_opts\001
4 2 -1 0 0 18 13 0.0000 4 165 990 9210 2970 $point_opts\001
-6
2 2 0 1 -1 -1 0 0 -1 0.000 0 0 0 0 0 5
	 9585 5130 9585 300 765 300 765 5130 9585 5130
4 0 -1 0 0 18 13 0.0000 4 135 540 975 750 $close\001
4 0 -1 0 0 18 13 0.0000 4 165 1710 5100 1785 Maximal similarity:\001
4 0 -1 0 0 18 13 0.0000 4 165 1350 5400 1260 Stop at column:\001
4 0 -1 0 0 18 13 0.0000 4 150 1440 1200 1260 Start at column:\001
4 0 -1 0 0 18 13 0.0000 4 135 810 3000 1350 $startcol\001
4 0 -1 0 0 18 13 0.0000 4 165 720 7200 1350 $stopcol\001
4 0 -1 0 0 18 13 0.0000 4 135 630 3000 1875 $minhom\001
4 0 -1 0 0 18 13 0.0000 4 135 630 7200 1875 $maxhom\001
4 0 -1 0 0 18 13 0.0000 4 165 1710 975 2295 Special characters:\001
4 0 -1 0 0 18 13 0.0000 4 165 1710 975 1785 Minimal similarity:\001
