#FIG 3.2  Produced by xfig version 3.2.5
Landscape
Center
Metric
A4      
100.00
Single
-2
1200 2
6 3285 4725 6075 5220
2 1 0 1 0 7 50 -1 -1 0.000 0 0 -1 0 0 1
	 6075 5220
4 1 -1 0 0 18 12 0.0000 4 225 390 3510 4905 $go\001
-6
2 1 0 2 -1 -1 0 0 -1 0.000 0 0 -1 0 0 2
	 1590 1425 5535 1425
2 1 0 1 0 7 50 -1 -1 0.000 0 0 -1 0 0 1
	 1260 675
4 0 -1 0 0 18 13 0.0000 4 210 675 1350 900 $close\001
4 2 -1 0 0 18 13 0.0000 4 225 570 5850 900 $help\001
4 0 -1 0 0 18 13 0.0000 4 210 885 1350 2025 $marked\001
4 0 -1 0 0 18 12 0.0000 4 225 1185 1350 3555 $SAI_chars\001
4 1 -1 0 0 18 12 0.0000 4 210 480 3510 2970 $SAI\001
4 0 -1 0 0 18 12 0.0000 4 210 3360 1350 2520 Change only columns where SAI\001
4 1 -1 0 0 18 12 0.0000 4 210 4080 3600 1350 Insert dots at potentially missing bases\001
4 0 -1 0 0 18 12 0.0000 4 225 1065 1350 4185 $cons_def\001
