#FIG 3.2
Landscape
Center
Metric
A4      
100.00
Single
-2
1200 2
6 4950 2925 7785 3195
4 0 -1 0 0 18 12 0.0000 4 165 720 4950 3150 $percent\001
4 0 -1 0 0 18 12 0.0000 4 135 1170 6525 3075 % Nucleotides\001
-6
6 1350 3690 6030 4680
4 0 -1 0 0 18 12 0.0000 4 165 720 5100 4620 $seq_seq\001
4 0 -1 0 0 18 12 0.0000 4 165 900 5100 4170 $seq_helix\001
4 0 -1 0 0 18 12 0.0000 4 165 2250 1800 4635 Sequence-sequence spacing\001
4 0 -1 0 0 18 12 0.0000 4 165 1980 1800 4185 Sequence-helix spacing\001
4 0 -1 0 0 18 12 0.0000 4 165 630 1350 3825 Layout:\001
-6
6 1350 5085 5940 6525
4 0 -1 0 0 18 12 0.0000 4 150 810 5100 5550 $scroll_x\001
4 0 -1 0 0 18 12 0.0000 4 165 810 5100 6000 $scroll_y\001
4 0 -1 0 0 18 12 0.0000 4 165 1440 1800 5565 Horizontal speed\001
4 0 -1 0 0 18 12 0.0000 4 165 1260 1800 6015 Vertical speed\001
4 0 -1 0 0 18 12 0.0000 4 165 630 5100 6480 $margin\001
4 0 -1 0 0 18 12 0.0000 4 165 990 1800 6480 Auto margin\001
4 0 -1 0 0 18 12 0.0000 4 165 900 1350 5220 Scrolling:\001
-6
6 1350 6885 4410 8550
4 0 -1 0 0 18 12 0.0000 4 165 630 1800 8160 $repeat\001
4 0 -1 0 0 18 12 0.0000 4 135 450 1800 7785 $fast\001
4 0 -1 0 0 18 12 0.0000 4 135 810 1800 8550 $checksum\001
4 0 -1 0 0 18 12 0.0000 4 165 1350 1800 7335 Gap characters:\001
4 0 -1 0 0 18 12 0.0000 4 165 810 3600 7335 $gapchars\001
4 0 -1 0 0 18 12 0.0000 4 165 720 1350 7020 Editing:\001
-6
2 1 0 3 -1 -1 0 0 -1 0.000 0 0 -1 0 0 2
	 3975 3300 3975 2025
2 1 0 3 -1 -1 0 0 -1 0.000 0 0 -1 0 0 2
	 3975 2025 4200 2025
2 1 0 3 -1 -1 0 0 -1 0.000 0 0 -1 0 0 2
	 3975 3300 4200 3300
2 1 0 3 -1 -1 0 0 -1 0.000 0 0 -1 0 0 2
	 3675 3150 3975 3150
2 1 0 2 -1 -1 0 0 -1 0.000 0 0 -1 0 0 2
	 1350 3555 8415 3555
2 1 0 2 -1 -1 0 0 -1 0.000 0 0 -1 0 0 2
	 1350 4950 8415 4950
2 1 0 2 -1 -1 0 0 -1 0.000 0 0 -1 0 0 2
	 1350 6750 8415 6750
2 1 0 1 0 7 50 -1 -1 0.000 0 0 -1 0 0 1
	 1260 945
2 1 0 1 0 7 50 -1 -1 0.000 0 0 -1 0 0 1
	 8550 8685
4 0 -1 0 0 18 12 0.0000 4 180 5850 1350 1725 Online Sequence Compression ( Don't Show Columns With Only Gaps )\001
4 0 -1 0 0 18 12 0.0000 4 165 450 1500 2325 $gaps\001
4 0 -1 0 0 18 12 0.0000 4 135 450 4125 2325 $hide\001
4 2 -1 0 0 18 12 0.0000 4 165 450 8505 1200 $help\001
4 0 -1 0 0 18 12 0.0000 4 135 540 1350 1200 $close\001
