#FIG 3.2  Produced by xfig version 3.2.5b
Landscape
Center
Metric
A4      
100.00
Single
-2
1200 2
6 8820 5310 10080 7650
4 0 -1 0 0 18 13 0.0000 4 225 1110 8850 5475 $doquery2\001
4 0 -1 0 0 18 12 0.0000 4 225 1440 8850 7575 $openparser2\001
4 0 -1 0 0 18 13 0.0000 4 210 1245 8850 5925 $dorefresh2\001
4 0 -1 0 0 18 13 0.0000 4 210 1140 8850 6300 $dodelete2\001
4 0 -1 0 0 18 13 0.0000 4 210 825 8850 6900 $doset2\001
-6
6 2835 1035 11700 1260
4 0 -1 0 0 18 13 0.0000 4 225 495 2850 1200 $by1\001
4 0 -1 0 0 18 13 0.0000 4 225 495 11250 1200 $by2\001
-6
6 1935 2430 14535 2610
6 10350 2430 14535 2610
4 0 -1 0 0 18 12 0.0000 4 165 1230 10350 2580 Search field\001
4 0 -1 0 0 18 12 0.0000 4 210 1410 13365 2580 Search string\001
-6
6 1935 2430 6120 2610
4 0 -1 0 0 18 12 0.0000 4 165 1230 1950 2580 Search field\001
4 0 -1 0 0 18 12 0.0000 4 210 1410 4950 2580 Search string\001
-6
-6
6 405 4185 5295 4605
4 0 -1 0 0 16 12 0.0000 4 210 2295 405 4560 in source- and target-DB\001
4 0 -1 0 0 16 12 0.0000 4 210 4890 405 4350 empty expression means: search for fields that exist\001
-6
6 8685 4245 14325 4680
4 0 -1 0 0 16 12 0.0000 4 210 5115 8685 4410 empty expression means: search for fields that exist in\001
4 0 -1 0 0 16 12 0.0000 4 210 5640 8685 4635 source- and target-DB and are displayed in the source-hitlist\001
-6
2 1 0 2 -1 -1 0 0 -1 0.000 0 0 -1 0 0 2
	 6675 1500 6675 10725
2 1 0 1 -1 -1 0 0 -1 0.000 0 0 -1 0 0 2
	 8700 8100 14775 8100
2 1 0 1 -1 -1 0 0 -1 0.000 0 0 -1 0 0 2
	 8700 4725 14775 4725
2 1 0 1 -1 -1 0 0 -1 0.000 0 0 -1 0 0 2
	 8700 2250 14775 2250
2 1 0 1 -1 -1 0 0 -1 0.000 0 0 -1 0 0 2
	 300 8100 6375 8100
2 1 0 1 -1 -1 0 0 -1 0.000 0 0 -1 0 0 2
	 300 4725 6375 4725
2 1 0 1 -1 -1 0 0 -1 0.000 0 0 -1 0 0 2
	 300 2250 6375 2250
2 1 0 2 -1 -1 0 0 -1 0.000 0 0 -1 0 0 2
	 8475 1500 8475 10725
2 1 0 1 -1 -1 0 0 -1 0.000 0 0 -1 0 0 1
	 75 75
2 1 0 1 -1 -1 0 0 -1 0.000 0 0 -1 0 0 1
	 15075 10875
4 0 -1 0 0 18 13 0.0000 4 210 675 300 450 $close\001
4 2 -1 0 0 18 12 0.0000 4 225 570 14175 450 $help\001
4 2 -1 0 0 18 12 0.0000 4 225 855 13125 450 $reopen\001
4 0 -1 0 0 18 13 0.0000 4 210 570 300 1200 $ere1\001
4 0 -1 0 0 18 12 0.0000 4 165 1410 225 750 QUERY TYPE\001
4 0 -1 0 0 18 12 0.0000 4 165 855 11400 5025 HITLIST:\001
4 0 -1 0 0 18 12 0.0000 4 165 1980 8625 5025 PERFORM QUERY\001
4 0 -1 0 0 18 12 0.0000 4 165 795 8625 2550 QUERY\001
4 0 -1 0 0 18 12 0.0000 4 165 1005 8625 8400 INFOBOX\001
4 0 -1 0 0 18 12 0.0000 4 210 615 525 8850 $box1\001
4 0 -1 0 0 18 12 0.0000 4 165 855 3000 5025 HITLIST:\001
4 0 -1 0 0 18 12 0.0000 4 165 1980 225 5025 PERFORM QUERY\001
4 0 -1 0 0 18 12 0.0000 4 165 795 225 2550 QUERY\001
4 0 -1 0 0 18 12 0.0000 4 165 1005 225 8400 INFOBOX\001
4 2 -1 0 0 18 13 0.0000 4 210 1125 6450 7650 $to:result1\001
4 0 -1 0 0 18 13 0.0000 4 210 840 11250 5475 $result2\001
4 0 -1 0 0 18 12 0.0000 4 210 615 8925 8850 $box2\001
4 0 -1 0 0 18 13 0.0000 4 210 570 8775 1200 $ere2\001
4 0 -1 0 0 18 12 0.0000 4 165 1410 8625 750 QUERY TYPE\001
4 1 -1 0 0 18 12 0.0000 4 210 570 7575 675 $icon\001
4 2 -1 0 0 18 12 0.0000 4 210 1125 6525 10725 $to:Y:box1\001
4 2 -1 0 0 18 12 0.0000 4 210 1260 14925 10725 $to:XY:box2\001
4 2 -1 0 0 18 13 0.0000 4 210 1335 14850 7650 $to:X:result2\001
4 0 -1 0 0 18 13 0.0000 4 225 1110 450 5475 $doquery1\001
4 0 -1 0 0 18 13 0.0000 4 210 1245 450 5925 $dorefresh1\001
4 0 -1 0 0 18 13 0.0000 4 210 1140 450 6300 $dodelete1\001
4 0 -1 0 0 18 13 0.0000 4 210 825 450 6900 $doset1\001
4 0 -1 0 0 18 12 0.0000 4 225 1440 450 7575 $openparser1\001
4 1 -1 0 0 18 12 0.0000 4 225 1215 7575 5775 $translspec\001
4 1 -1 0 0 18 12 0.0000 4 225 1275 7575 4125 $transsspec\001
4 1 -1 0 0 18 12 0.0000 4 210 1095 7575 7500 $transfield\001
4 1 -1 0 0 18 12 0.0000 4 210 1170 7575 9900 $checkfield\001
4 2 -1 0 0 18 12 0.0000 4 210 1380 8325 3600 $to:reference\001
4 0 -1 0 0 18 12 0.0000 4 210 1095 6825 2700 $reference\001
4 0 -1 0 0 18 12 0.0000 4 210 1515 6825 2250 using species:\001
4 0 -1 0 0 18 12 0.0000 4 225 705 6825 1950 $adapt\001
4 0 -1 0 0 18 13 0.0000 4 225 1155 855 7695 $doconfig1\001
4 0 -1 0 0 18 13 0.0000 4 225 1155 9225 7695 $doconfig2\001
4 0 -1 0 0 18 13 0.0000 4 210 840 2850 5475 $result1\001
4 0 -1 0 0 18 13 0.0000 4 210 945 2850 8490 $rescan1\001
4 0 -1 0 0 18 13 0.0000 4 210 945 11250 8490 $rescan2\001
4 0 -1 0 0 18 12 0.0000 4 225 1005 7335 1950 $pres_sel\001
4 0 -1 0 0 18 13 0.0000 4 210 840 2850 7995 $count1\001
4 0 -1 0 0 18 13 0.0000 4 210 840 11250 7995 $count2\001
4 1 -1 0 0 18 12 0.0000 4 210 1695 7515 1500 Adapt alignment\001
4 0 -1 0 0 18 13 0.0000 4 210 1035 4605 3030 $content1\001
4 0 -1 0 0 18 13 0.0000 4 210 1035 13005 3030 $content2\001
4 2 -1 0 0 18 13 0.0000 4 210 1530 14895 3150 $to:X:content2\001
4 0 -1 0 0 18 13 0.0000 4 225 750 300 3045 $qbox1\001
4 0 -1 0 0 18 13 0.0000 4 225 750 8700 3045 $qbox2\001
4 2 -1 0 0 18 13 0.0000 4 210 1320 6390 3030 $to:content1\001
