#FIG 3.2
Landscape
Center
Metric
A4      
100.00
Single
-2
1200 2
2 1 0 2 -1 -1 0 0 -1 0.000 0 0 -1 0 0 2
	 1725 1200 5775 1200
2 1 0 1 -1 -1 0 0 -1 0.000 0 0 -1 0 0 1
	 600 300
2 1 0 1 -1 -1 0 0 -1 0.000 0 0 -1 0 0 1
	 6675 8400
4 0 -1 0 0 18 13 0.0000 4 180 390 900 1800 $list\001
4 0 -1 0 0 18 13 0.0000 4 180 855 4800 2175 $X:delete\001
4 0 -1 0 0 18 13 0.0000 4 180 990 4800 2550 $X:rename\001
4 0 -1 0 0 18 13 0.0000 4 195 750 4800 2925 $X:copy\001
4 0 -1 0 0 18 13 0.0000 4 180 465 825 5625 $info\001
4 2 -1 0 0 18 13 0.0000 4 180 1095 6600 2175 $to:X:delete\001
4 2 -1 0 0 18 13 0.0000 4 180 1230 6600 2550 $to:X:rename\001
4 2 -1 0 0 18 12 0.0000 4 165 1140 6600 3375 $to:X:remark\001
4 2 -1 0 0 18 13 0.0000 4 180 1035 6600 8325 $to:XY:info\001
4 0 -1 0 0 18 13 0.0000 4 195 855 4800 3750 $X:group\001
4 2 -1 0 0 18 13 0.0000 4 195 1095 6600 3825 $to:X:group\001
4 0 -1 0 0 18 13 0.0000 4 195 1230 4800 4200 $X:makespec\001
4 2 -1 0 0 18 13 0.0000 4 195 1470 6600 4350 $to:X:makespec\001
4 0 -1 0 0 18 13 0.0000 4 135 780 825 5250 Info Box\001
4 0 -1 0 0 18 13 0.0000 4 180 600 900 750 $close\001
4 2 -1 0 0 18 13 0.0000 4 195 705 6615 750 $X:help\001
4 2 -1 0 0 18 13 0.0000 4 195 990 6600 2925 $to:X:copy\001
4 0 -1 0 0 18 12 0.0000 4 165 915 4800 3375 $X:remark\001
4 1 -1 0 0 18 15 0.0000 4 225 3660 3750 1125 Sequence Associated Information\001
4 2 -1 0 0 18 13 0.0000 4 180 825 4575 4800 $to:X:list\001
