#FIG 3.2
Landscape
Center
Metric
A4      
100.00
Single
-2
1200 2
6 1710 5445 6030 6705
4 0 -1 0 0 2 10 0.0000 4 105 840 5175 5580 MAXIMUM\001
4 0 -1 0 0 2 10 0.0000 4 105 975 3330 5580 MINIMUM\001
4 0 -1 0 0 18 12 0.0000 4 165 600 4950 6075 $maxX\001
4 0 -1 0 0 18 12 0.0000 4 165 600 4950 6660 $maxY\001
4 0 -1 0 0 18 12 0.0000 4 165 540 3105 6075 $minX\001
4 0 -1 0 0 18 12 0.0000 4 165 540 3105 6660 $minY\001
4 0 -1 0 0 2 14 0.0000 4 195 810 1710 6570 Y Range\001
4 0 -1 0 0 2 14 0.0000 4 195 810 1710 6030 X Range\001
-6
2 1 0 1 0 7 50 0 -1 0.000 0 0 -1 0 0 1
	 1125 630
2 1 0 1 0 7 50 0 -1 0.000 0 0 -1 0 0 7
	 2430 1845 1170 1845 1170 4905 7200 4905 7200 1845 4860 1845
	 4905 1845
2 1 0 1 0 7 50 0 -1 0.000 0 0 -1 0 0 7
	 2970 5130 1125 5130 1125 8235 7200 8235 7200 5130 4680 5130
	 4725 5130
2 1 0 1 0 7 50 0 -1 0.000 0 0 -1 0 0 1
	 7245 8775
4 0 -1 0 0 18 12 0.0000 4 165 570 1350 975 $close\001
4 0 -1 0 0 2 14 0.0000 4 195 2400 1425 1425 Base Frequency FILTER\001
4 2 -1 0 0 18 12 0.0000 4 180 465 7155 945 $help\001
4 0 -1 0 0 2 14 0.0000 4 150 900 1440 4590 Filename\001
4 0 -1 0 0 2 14 0.0000 4 195 1620 1485 8100 Display Positions\001
4 0 -1 0 0 18 12 0.0000 4 165 765 2835 7605 $smooth\001
4 0 -1 0 0 18 12 0.0000 4 165 420 1440 2700 $box\001
4 0 -1 0 0 18 12 0.0000 4 180 675 2835 7155 $legend\001
4 0 -1 0 0 2 14 0.0000 4 195 1065 1530 7605 Smoothing \001
4 0 -1 0 0 2 14 0.0000 4 195 675 1530 7110 Legend\001
4 0 -1 0 0 18 12 0.0000 4 180 795 3330 8145 $dispPos\001
4 0 -1 0 0 2 14 0.0000 4 195 1665 3060 5175 GRAPH Settings \001
4 0 -1 0 0 18 12 0.0000 4 180 960 2610 4590 $file_name\001
4 0 -1 0 0 18 12 0.0000 4 180 1140 4185 1440 $baseFreqFlt\001
4 0 -1 0 0 18 12 0.0000 4 180 1380 6660 1440 $to:baseFreqFlt\001
4 0 -1 0 0 2 10 0.0000 4 105 2265 2520 1890 SAVE  EXPORTED  VALUES  IN\001
4 2 -1 0 0 18 12 0.0000 4 165 840 7065 4230 $to:X:box\001
4 2 -1 0 0 18 12 0.0000 4 180 1380 6930 4770 $to:X:file_name\001
4 0 -1 0 0 2 10 0.0000 4 150 2625 1485 2295 DIRECTORIES  (D)  AND  FILES  (F)\001
4 0 -1 0 0 18 12 0.0000 4 180 915 6750 7110 $to:legend\001
4 1 -1 0 0 18 12 0.0000 4 180 1035 2250 8685 $dispProfile\001
4 1 -1 0 0 18 12 0.0000 4 180 1275 6615 8685 $to:dispProfile\001
