#FIG 3.2
Landscape
Center
Metric
A4      
100.00
Single
-2
1200 2
2 2 0 1 -1 -1 0 0 -1 0.000 0 0 0 0 0 5
	 6840 3375 6840 600 630 600 630 3375 6840 3375
2 2 0 1 0 7 50 0 -1 0.000 0 0 -1 0 0 5
	 720 1035 6750 1035 6750 2790 720 2790 720 1035
4 2 -1 0 0 18 12 0.0000 4 180 465 6660 855 $help\001
4 0 0 50 0 26 14 0.0000 4 210 5640 990 1440 Select Database Field to Merge SIMILAR Species \001
4 0 -1 0 0 18 12 0.0000 4 180 1125 2520 1890 $field_select\001
4 0 -1 0 0 18 12 0.0000 4 180 1200 2520 2655 $store_sp_no\001
4 0 0 50 0 26 12 0.0000 4 180 5025 1125 2205 Enter the field name to store no of species merged \001
4 0 -1 0 0 18 12 0.0000 4 165 570 810 900 $close\001
4 0 -1 0 0 18 12 0.0000 4 165 810 2520 900 $to:close\001
4 0 -1 0 0 18 12 0.0000 4 180 660 2520 3240 $merge\001
4 0 -1 0 0 18 12 0.0000 4 180 900 5265 3240 $to:merge\001
