#FIG 3.2  Produced by xfig version 3.2.5b
Landscape
Center
Metric
A4      
100.00
Single
-2
1200 2
2 1 0 1 0 7 50 0 -1 0.000 0 0 -1 0 0 1
	 630 540
2 1 0 1 0 7 50 0 -1 0.000 0 0 -1 0 0 1
	 7110 5670
4 0 -1 0 0 18 14 0.0000 4 210 480 900 1875 $list\001
4 0 -1 0 0 18 13 0.0000 4 210 675 825 975 $close\001
4 1 -1 0 0 18 14 0.0000 4 180 1245 1500 1425 Selections\001
4 2 -1 0 0 18 12 0.0000 4 225 780 6975 975 $X:help\001
4 2 -1 0 0 18 13 0.0000 4 210 1035 6975 2190 $X:extract\001
4 2 -1 0 0 18 13 0.0000 4 210 840 6975 2565 $X:mark\001
4 2 -1 0 0 18 13 0.0000 4 210 1110 6975 2970 $X:unmark\001
4 2 -1 0 0 18 13 0.0000 4 210 930 6975 3375 $X:invert\001
4 2 -1 0 0 18 13 0.0000 4 210 870 6975 1800 $X:store\001
4 2 -1 0 0 18 13 0.0000 4 210 960 6975 4155 $X:delete\001
4 2 -1 0 0 18 13 0.0000 4 210 1095 6975 4530 $X:rename\001
4 2 -1 0 0 18 13 0.0000 4 210 1215 6975 3750 $X:combine\001
4 2 -1 0 0 18 14 0.0000 4 210 1200 5355 5400 $to:XY:list\001
