#FIG 3.2
Landscape
Center
Metric
A4      
100.00
Single
-2
1200 2
0 32 #424142
0 33 #848284
0 34 #bdc3bd
0 35 #8c8e8c
0 36 #bdc3bd
0 37 #848284
0 38 #8c8e8c
0 39 #424142
0 40 #848284
0 41 #bdc3bd
0 42 #dee3de
0 43 #c6b694
0 44 #effbff
0 45 #decba5
0 46 #adaaad
0 47 #5a555a
0 48 #8c8e8c
0 49 #424142
0 50 #848284
0 51 #bdc3bd
0 52 #dee3de
0 53 #424142
0 54 #848284
0 55 #bdc3bd
0 56 #dee3de
0 57 #848284
0 58 #bdc3bd
0 59 #dee3de
0 60 #424142
0 61 #848284
0 62 #bdc3bd
0 63 #424142
0 64 #bdc3bd
0 65 #dee3de
0 66 #424142
0 67 #848284
0 68 #bdc3bd
0 69 #8c8e8c
0 70 #424142
0 71 #848284
0 72 #bdc3bd
0 73 #dee3de
0 74 #424142
0 75 #848284
0 76 #bdc3bd
0 77 #dee3de
0 78 #424142
0 79 #848284
0 80 #bdc3bd
0 81 #dee3de
0 82 #00007b
0 83 #00007b
0 84 #ff8200
0 85 #007d00
0 86 #007d00
0 87 #0000bd
0 88 #00007b
0 89 #007d00
0 90 #cecfce
0 91 #cecfce
0 92 #cecfce
0 93 #848284
0 94 #bdc3bd
0 95 #dee3de
0 96 #8c8e8c
0 97 #8c8e8c
0 98 #8c8e8c
0 99 #8c8e8c
0 100 #4a454a
0 101 #8c8e8c
0 102 #8c8e8c
0 103 #848284
0 104 #c6c3c6
0 105 #8c8e8c
0 106 #8c8e8c
0 107 #424142
0 108 #c6c3c6
0 109 #e7e3e7
0 110 #effbff
0 111 #e7e3e7
0 112 #8c8e8c
0 113 #4a454a
0 114 #adaaad
0 115 #8c8e8c
0 116 #4a454a
0 117 #adaaad
0 118 #5a555a
0 119 #8c8e8c
0 120 #4a454a
0 121 #bdc3bd
0 122 #dee3de
0 123 #8c8e8c
0 124 #4a454a
0 125 #8c8e8c
0 126 #4a454a
0 127 #8c8e8c
0 128 #4a454a
0 129 #848284
0 130 #bdc3bd
0 131 #dee3de
0 132 #bdc3bd
0 133 #dee3de
0 134 #424142
0 135 #848284
0 136 #bdc3bd
0 137 #848284
0 138 #bdc3bd
0 139 #dee3de
0 140 #8c8e8c
0 141 #8c8e8c
0 142 #424142
0 143 #848284
0 144 #bdc3bd
0 145 #dee3de
0 146 #c6b694
0 147 #effbff
0 148 #decba5
0 149 #adaaad
0 150 #5a555a
0 151 #8c8e8c
0 152 #424142
0 153 #848284
0 154 #bdc3bd
0 155 #dee3de
0 156 #424142
0 157 #848284
0 158 #bdc3bd
0 159 #dee3de
0 160 #848284
0 161 #bdc3bd
0 162 #dee3de
0 163 #424142
0 164 #848284
0 165 #bdc3bd
0 166 #424142
0 167 #bdc3bd
0 168 #dee3de
0 169 #424142
0 170 #848284
0 171 #bdc3bd
0 172 #8c8e8c
0 173 #424142
0 174 #848284
0 175 #bdc3bd
0 176 #dee3de
0 177 #424142
0 178 #848284
0 179 #bdc3bd
0 180 #dee3de
0 181 #424142
0 182 #848284
0 183 #bdc3bd
0 184 #dee3de
0 185 #4a454a
0 186 #8c8e8c
0 187 #4a454a
0 188 #8c8e8c
0 189 #4a454a
0 190 #8c8e8c
0 191 #4a454a
0 192 #8c8e8c
0 193 #4a454a
0 194 #8c8e8c
0 195 #4a454a
0 196 #8c8e8c
0 197 #4a454a
0 198 #8c8e8c
0 199 #4a454a
0 200 #8c8e8c
0 201 #4a454a
0 202 #8c8e8c
0 203 #00007b
0 204 #00007b
0 205 #ff8200
0 206 #007d00
0 207 #007d00
0 208 #0000bd
0 209 #00007b
0 210 #007d00
6 630 810 6705 1035
4 0 -1 0 0 18 13 0.0000 4 135 360 630 1035 $mol\001
4 0 -1 0 0 0 13 0.0000 4 165 3780 2925 945 : General display options for the molecule\001
-6
6 1350 1305 1890 2655
4 0 -1 0 0 18 13 0.0000 4 135 540 1350 2655 $color\001
4 0 -1 0 0 18 13 0.0000 4 165 360 1350 2265 $map\001
4 0 -1 0 0 18 13 0.0000 4 135 540 1350 1845 $helix\001
4 0 -1 0 0 18 13 0.0000 4 135 450 1350 1440 $base\001
-6
6 990 6885 7020 7110
4 2 -1 0 0 18 12 0.0000 4 165 450 7020 7065 $help\001
4 0 -1 0 0 2 14 0.0000 4 165 5400 990 7020 For detailed help regarding respective display buttons click \001
-6
2 1 0 1 0 7 50 0 -1 0.000 0 0 -1 0 0 1
	 405 45
2 1 0 1 0 7 50 0 -1 0.000 0 0 -1 0 0 1
	 7425 45
2 1 0 1 0 7 50 -1 -1 0.000 0 0 -1 0 0 2
	 450 585 7380 585
2 1 0 1 0 7 50 -1 -1 0.000 0 0 -1 0 0 2
	 450 4995 7380 4995
2 1 0 1 0 7 50 -1 -1 0.000 0 0 -1 0 0 2
	 450 6660 7380 6660
2 1 0 1 0 7 50 0 -1 0.000 0 0 -1 0 0 1
	 7425 7695
2 1 0 1 0 7 50 0 -1 0.000 0 0 -1 0 0 1
	 450 7740
2 2 0 1 0 7 50 -1 -1 0.000 0 0 -1 0 0 5
	 450 90 7380 90 7380 7650 450 7650 450 90
4 0 -1 0 0 0 13 0.0000 4 165 2160 2925 4770 : Closes the application\001
4 0 -1 0 0 0 13 0.0000 4 165 4410 2925 4365 : Redraws the structure with new settings/changes\001
4 0 -1 0 0 0 13 0.0000 4 165 3960 2925 4005 : Removes the cut / Displays entire molecule\001
4 0 -1 0 0 0 13 0.0000 4 150 4320 2925 3645 : Cuts the molecule at the center for clear view\001
4 0 -1 0 0 0 13 0.0000 4 165 3600 2925 3285 : DISABLEs the respective display option\001
4 0 -1 0 0 0 13 0.0000 4 165 3510 2925 2925 : ENABLEs the respective display option\001
4 0 -1 0 0 0 13 0.0000 4 165 2520 2925 2565 : Changes the color settings\001
4 0 -1 0 0 0 13 0.0000 4 165 4230 2925 2175 : Superimposes selected rRNA gene, SAI & probes\001
4 0 -1 0 0 0 13 0.0000 4 165 3510 2925 1755 : Displays the secondary structure mask\001
4 0 -1 0 0 0 13 0.0000 4 165 4140 2925 1350 : Displays actual nucleotides in the structure\001
4 0 -1 0 0 0 13 0.0000 4 150 3420 2925 5625 : Zoom IN to / OUT of the 3D molecule \001
4 0 -1 0 0 0 13 0.0000 4 165 2880 2925 5985 : Rotates the 3D molecule freely\001
4 0 -1 0 0 0 13 0.0000 4 150 3870 2925 6390 : Moves molecule to LEFT, RIGHT, TOP & DOWN\001
4 0 -1 0 0 0 13 0.0000 4 165 4320 2925 5310 : Toggles ON/OFF the automatic molecule rotation\001
4 0 -1 0 0 2 14 0.0000 4 165 2880 2340 405 Display Options and Key Bindings\001
4 0 -1 0 0 18 13 0.0000 4 135 540 3600 7470 $close\001
4 0 -1 0 0 18 13 0.0000 4 135 450 1620 4860 $exit\001
4 0 -1 0 0 18 13 0.0000 4 135 630 1620 4455 $reload\001
4 0 -1 0 0 18 13 0.0000 4 135 450 1620 4095 $mask\001
4 0 -1 0 0 18 13 0.0000 4 135 630 1620 3735 $unmask\001
4 0 -1 0 0 18 13 0.0000 4 135 720 1620 3375 $uncheck\001
4 0 -1 0 0 18 13 0.0000 4 135 540 1620 3015 $check\001
4 0 -1 0 0 2 12 0.0000 4 135 450 1575 5355 SPACE\001
4 0 -1 0 0 2 12 0.0000 4 135 990 1350 5670 MOUSE WHEEL\001
4 0 -1 0 0 2 12 0.0000 4 135 900 1395 6390 ARROW KEYS\001
4 0 -1 0 0 2 10 0.0000 4 135 2160 585 5985 MOUSE LEFT BUTTON + MOVE\001
