#FIG 3.2  Produced by xfig version 3.2.5b
Landscape
Center
Metric
A4      
100.00
Single
-2
1200 2
6 6030 1125 7065 1350
4 0 -1 0 0 18 13 0.0000 4 210 585 6030 1305 $filter\001
4 2 -1 0 0 18 13 0.0000 4 210 870 7065 1305 $to:filter\001
-6
6 1935 6525 4635 6750
4 0 -1 0 0 18 13 0.0000 4 210 945 1950 6705 $Y:save2\001
4 0 -1 0 0 18 13 0.0000 4 210 1140 3465 6705 $Y:cancel2\001
-6
2 1 0 1 -1 -1 0 0 -1 0.000 0 0 -1 0 0 1
	 1800 450
2 1 0 1 0 7 50 -1 -1 0.000 0 0 -1 0 0 1
	 9180 6885
4 0 -1 0 0 18 13 0.0000 4 210 675 1950 900 $close\001
4 0 -1 0 0 18 12 0.0000 4 210 2805 1935 1260 Directories (D) and Files (f)\001
4 0 -1 0 0 18 13 0.0000 4 210 495 1950 1725 $box\001
4 0 -1 0 0 18 12 0.0000 4 210 810 1950 6075 $Y:user\001
4 2 -1 0 0 18 13 0.0000 4 225 1740 8895 5715 $to:XY:file_name\001
4 2 -1 0 0 18 12 0.0000 4 210 1230 8895 6255 $to:XY:user\001
4 0 -1 0 0 18 13 0.0000 4 210 780 5055 855 $format\001
4 0 -1 0 0 18 12 0.0000 4 165 1245 1950 5535 Y:File Name\001
4 2 -1 0 0 18 13 0.0000 4 210 1140 8895 4995 $to:XY:box\001
4 0 -1 0 0 18 12 0.0000 4 165 570 5130 1260 Suffix\001
4 0 -1 0 0 18 13 0.0000 4 225 1320 3195 5550 $Y:file_name\001
