#FIG 3.2
Landscape
Center
Metric
A4      
100.00
Single
-2
1200 2
0 32 #dedfde
0 33 #efebde
0 34 #c6c3c6
0 35 #dec7a5
0 36 #dedfde
0 37 #ced3ce
0 38 #efebef
0 39 #d67918
0 40 #efe318
0 41 #847dc6
0 42 #d6d7d6
0 43 #8c8aa5
0 44 #4a494a
0 45 #5a595a
0 46 #636163
0 47 #8c8e8c
0 48 #b59a73
0 49 #4292ff
0 50 #bd7139
0 51 #de7500
0 52 #d6b600
0 53 #006500
0 54 #5a6939
0 55 #d6d3d6
0 56 #adaaad
0 57 #8c8ea5
0 58 #efba5a
0 59 #8c9a6b
0 60 #4a494a
0 61 #636563
0 62 #d6d7d6
0 63 #8c8aa5
0 64 #5a595a
0 65 #636163
0 66 #b5e7ff
0 67 #84beef
0 68 #bdbebd
0 69 #d69652
0 70 #8c8e8c
0 71 #94d3ff
0 72 #8c8e8c
0 73 #d6d7d6
0 74 #8c8aa5
0 75 #8c696b
0 76 #5a595a
0 77 #636163
0 78 #8c9a6b
0 79 #f76900
0 80 #5a6939
0 81 #8c9a6b
0 82 #4a494a
0 83 #d6d7d6
0 84 #8c8aa5
0 85 #8c696b
0 86 #5a595a
0 87 #636163
0 88 #8c9a6b
0 89 #f76900
0 90 #8c9a7b
0 91 #4a494a
0 92 #184918
0 93 #5a6939
0 94 #d6d7d6
0 95 #adaead
0 96 #8c8aa5
0 97 #f7be5a
0 98 #8c9a6b
0 99 #4a494a
0 100 #636163
0 101 #63699c
0 102 #8c696b
0 103 #f7f7f7
0 104 #de0000
0 105 #5a595a
0 106 #8c9a6b
0 107 #4a494a
0 108 #636163
0 109 #5a6939
0 110 #d6d7d6
0 111 #adaead
0 112 #8c8aa5
0 113 #f7be5a
0 114 #8c9a6b
0 115 #4a494a
0 116 #636163
0 117 #5a6939
0 118 #d6d7d6
0 119 #adaead
0 120 #8c8aa5
0 121 #f7be5a
0 122 #8c9a6b
0 123 #4a494a
0 124 #636163
0 125 #63699c
0 126 #526929
0 127 #636163
0 128 #5a6939
0 129 #949294
0 130 #636163
0 131 #006100
0 132 #8c8aa5
0 133 #8c8aa5
0 134 #8c8aa5
0 135 #00614a
0 136 #7b824a
0 137 #e7be7b
0 138 #8c9a7b
0 139 #a5b6c6
0 140 #6b6994
0 141 #84696b
0 142 #529a4a
0 143 #d6e7e7
0 144 #526163
0 145 #18694a
0 146 #9ca6b5
0 147 #ff9200
0 148 #ff9200
0 149 #8c696b
0 150 #00614a
0 151 #7b824a
0 152 #636163
0 153 #d6d7d6
0 154 #adaead
0 155 #8c8aa5
0 156 #4a494a
0 157 #636163
0 158 #8c696b
0 159 #5a595a
0 160 #4a494a
0 161 #636163
0 162 #adaead
0 163 #636163
0 164 #8c9a6b
0 165 #4a494a
0 166 #5a6939
0 167 #adaead
0 168 #4a494a
0 169 #006500
0 170 #5a6939
0 171 #d6d3d6
0 172 #adaaad
0 173 #8c8ea5
0 174 #efba5a
0 175 #8c9a6b
0 176 #4a494a
0 177 #636563
0 178 #d6d7d6
0 179 #8c8aa5
0 180 #5a595a
0 181 #636163
0 182 #d6d7d6
0 183 #5a6939
0 184 #8c8aa5
0 185 #8c696b
0 186 #5a595a
0 187 #636163
0 188 #8c9a6b
0 189 #4a494a
0 190 #d6d7d6
0 191 #8c8aa5
0 192 #8c696b
0 193 #5a595a
0 194 #636163
0 195 #8c9a7b
0 196 #4a494a
0 197 #006100
0 198 #5a6939
0 199 #dedfde
0 200 #adaead
0 201 #8c8aa5
0 202 #f7be5a
0 203 #8c9a6b
0 204 #4a494a
0 205 #636163
0 206 #63699c
0 207 #d6d7d6
0 208 #8c696b
0 209 #5a595a
0 210 #006500
0 211 #5a6939
0 212 #d6d3d6
0 213 #adaaad
0 214 #8c8ea5
0 215 #efba5a
0 216 #8c9a6b
0 217 #4a494a
0 218 #636563
0 219 #5a6939
0 220 #d6d3d6
0 221 #adaaad
0 222 #8c8ea5
0 223 #efba5a
0 224 #8c9a6b
0 225 #4a494a
0 226 #636563
0 227 #5a6939
0 228 #d6d3d6
0 229 #adaaad
0 230 #8c8ea5
0 231 #efba5a
0 232 #8c9a6b
0 233 #4a494a
0 234 #636563
0 235 #5a6939
0 236 #d6d3d6
0 237 #adaaad
0 238 #8c8ea5
0 239 #efba5a
0 240 #8c9a6b
0 241 #4a494a
0 242 #636563
0 243 #5a6939
0 244 #d6d3d6
0 245 #adaaad
0 246 #8c8ea5
0 247 #efba5a
0 248 #8c9a6b
0 249 #4a494a
0 250 #636563
0 251 #d6d7d6
0 252 #8c8aa5
0 253 #5a595a
0 254 #636163
0 255 #006500
0 256 #5a6939
0 257 #d6d3d6
0 258 #adaaad
0 259 #8c8ea5
0 260 #efba5a
0 261 #8c9a6b
0 262 #4a494a
0 263 #636563
0 264 #5a6939
0 265 #d6d3d6
0 266 #adaaad
0 267 #8c8ea5
0 268 #efba5a
0 269 #8c9a6b
0 270 #4a494a
0 271 #636563
0 272 #5a6939
0 273 #d6d3d6
0 274 #adaaad
0 275 #8c8ea5
0 276 #efba5a
0 277 #8c9a6b
0 278 #4a494a
0 279 #636563
0 280 #5a6939
0 281 #d6d3d6
0 282 #adaaad
0 283 #8c8ea5
0 284 #efba5a
0 285 #8c9a6b
0 286 #4a494a
0 287 #636563
0 288 #d6d7d6
0 289 #8c8aa5
0 290 #5a595a
0 291 #636163
0 292 #efefd6
0 293 #f7ae5a
0 294 #94cf9c
0 295 #adaaad
0 296 #b5147b
0 297 #efefef
0 298 #848284
0 299 #006100
0 300 #5a6939
0 301 #d6d7d6
0 302 #adaead
0 303 #8c8aa5
0 304 #f7be5a
0 305 #8c9a6b
0 306 #4a494a
0 307 #636163
0 308 #63699c
0 309 #7b797b
0 310 #005900
0 311 #e77173
0 312 #ffcb31
0 313 #29794a
0 314 #de2821
0 315 #2159c6
0 316 #f7f7f7
0 317 #efefef
0 318 #e7e7e7
0 319 #00614a
0 320 #7b824a
0 321 #d6d7d6
0 322 #adaead
0 323 #63717b
0 324 #e7be7b
0 325 #8c9a7b
0 326 #4a494a
0 327 #a5b6c6
0 328 #6b6994
0 329 #84696b
0 330 #529a4a
0 331 #526163
0 332 #18694a
0 333 #9ca6b5
0 334 #21825a
0 335 #006100
0 336 #5a6939
0 337 #8c8aa5
0 338 #f7be5a
0 339 #8c9a6b
0 340 #636163
0 341 #63699c
0 342 #636163
0 343 #5a6939
0 344 #d6d7d6
0 345 #adaead
0 346 #8c8aa5
0 347 #f7be5a
0 348 #8c9a6b
0 349 #4a494a
0 350 #636163
0 351 #8c696b
0 352 #5a595a
0 353 #9c0000
0 354 #8c8a8c
0 355 #424142
0 356 #8c8a8c
0 357 #424142
0 358 #8c8a8c
0 359 #424142
0 360 #8c8a8c
0 361 #424142
0 362 #8c8a8c
0 363 #424142
0 364 #8c8a8c
0 365 #424142
0 366 #8c8a8c
0 367 #424142
0 368 #8c8a8c
0 369 #424142
0 370 #8c8a8c
0 371 #424142
0 372 #8c8a8c
0 373 #424142
0 374 #8c8a8c
0 375 #424142
0 376 #8c8a8c
0 377 #424142
0 378 #8c8a8c
0 379 #424142
0 380 #8c8a8c
0 381 #424142
0 382 #8c8a8c
0 383 #424142
0 384 #8c8a8c
0 385 #424142
0 386 #8c8a8c
0 387 #424142
0 388 #8c8a8c
0 389 #424142
0 390 #c6c3c6
0 391 #6b6d6b
0 392 #c6c3c6
0 393 #6b6d6b
0 394 #424542
0 395 #8c8e8c
0 396 #6b6d6b
0 397 #8c8e8c
0 398 #737173
0 399 #adaead
0 400 #313431
0 401 #949294
0 402 #737173
0 403 #525552
0 404 #b5b2b5
0 405 #c6c3c6
0 406 #424542
0 407 #6b6d6b
0 408 #424542
0 409 #6b6d6b
0 410 #c6c3c6
0 411 #6b6d6b
0 412 #424542
0 413 #8c8e8c
0 414 #c6c3c6
0 415 #6b6d6b
0 416 #c6c3c6
0 417 #424542
0 418 #8c8e8c
0 419 #dee3ef
0 420 #94929c
0 421 #dedbde
0 422 #a5a2b5
0 423 #efebef
0 424 #dedfde
0 425 #84aaff
0 426 #7371ff
0 427 #c6b694
0 428 #eff7ff
0 429 #decba5
0 430 #424142
0 431 #848284
0 432 #bdbebd
0 433 #dedfde
0 434 #8c8e8c
0 435 #adaaad
0 436 #525552
0 437 #424142
0 438 #848284
0 439 #bdbebd
0 440 #848284
0 441 #bdbebd
0 442 #dedfde
0 443 #8c8e8c
0 444 #8c8e8c
0 445 #424142
0 446 #848284
0 447 #bdbebd
0 448 #dedfde
0 449 #424142
0 450 #848284
0 451 #bdbebd
0 452 #dedfde
0 453 #848284
0 454 #bdbebd
0 455 #dedfde
0 456 #c6b694
0 457 #eff7ff
0 458 #decba5
0 459 #c6b694
0 460 #eff7ff
0 461 #decba5
0 462 #adaaad
0 463 #525552
0 464 #8c8e8c
0 465 #d6d7d6
0 466 #8c8e8c
0 467 #424142
0 468 #848284
0 469 #bdbebd
0 470 #dedfde
0 471 #adaead
0 472 #424142
0 473 #848284
0 474 #bdbebd
0 475 #dedfde
0 476 #848284
0 477 #bdbebd
0 478 #dedfde
0 479 #424142
0 480 #848284
0 481 #bdbebd
0 482 #adaead
0 483 #8c8e8c
0 484 #8c8e8c
0 485 #8c8e8c
0 486 #424142
0 487 #bdbebd
0 488 #dedfde
0 489 #424142
0 490 #848284
0 491 #bdbebd
0 492 #8c8e8c
0 493 #424142
0 494 #848284
0 495 #bdbebd
0 496 #dedfde
0 497 #424142
0 498 #848284
0 499 #bdbebd
0 500 #dedfde
0 501 #bdbebd
0 502 #525152
0 503 #e7e3e7
0 504 #00004a
0 505 #525152
0 506 #bdbebd
0 507 #7b797b
0 508 #313431
0 509 #525152
0 510 #bdbebd
0 511 #7b797b
0 512 #313431
0 513 #525152
0 514 #424142
0 515 #c6b694
0 516 #bdbebd
0 517 #7b797b
0 518 #313431
0 519 #525152
0 520 #313431
0 521 #525152
0 522 #8c8e8c
0 523 #424542
0 524 #8c8e8c
0 525 #bdbebd
0 526 #7b797b
0 527 #313431
0 528 #525152
0 529 #bdbebd
0 530 #7b797b
0 531 #313431
0 532 #525152
0 533 #7b797b
0 534 #313431
0 535 #525152
0 536 #424142
0 537 #848284
0 538 #bdbebd
0 539 #dedfde
0 540 #cecbce
0 541 #cecbce
0 542 #cecbce
6 2475 9075 2850 9375
6 2535 9135 2805 9315
2 1 0 2 -1 -1 0 0 -1 0.000 0 0 -1 0 0 2
	 2790 9225 2550 9225
2 1 0 2 -1 -1 0 0 -1 0.000 0 0 -1 0 0 2
	 2565 9210 2655 9300
2 1 0 2 -1 -1 0 0 -1 0.000 0 0 -1 0 0 2
	 2565 9240 2655 9150
-6
-6
6 2685 1305 3015 1485
2 1 0 2 -1 -1 0 0 -1 0.000 0 0 -1 0 0 2
	 2700 1395 3000 1395
2 1 0 2 -1 -1 0 0 -1 0.000 0 0 -1 0 0 2
	 2985 1380 2895 1470
2 1 0 2 -1 -1 0 0 -1 0.000 0 0 -1 0 0 2
	 2985 1410 2895 1320
-6
6 3975 9060 4155 9600
6 3975 9345 4155 9600
2 1 0 2 -1 -1 0 0 -1 0.000 0 0 -1 0 0 2
	 4065 9360 4065 9585
2 1 0 2 -1 -1 0 0 -1 0.000 0 0 -1 0 0 2
	 4050 9570 4140 9480
2 1 0 2 -1 -1 0 0 -1 0.000 0 0 -1 0 0 2
	 4080 9570 3990 9480
-6
2 1 0 2 -1 -1 0 0 -1 0.000 0 0 -1 0 0 2
	 4065 9375 4065 9075
-6
6 5070 9060 5250 9600
6 5070 9345 5250 9600
2 1 0 2 -1 -1 0 0 -1 0.000 0 0 -1 0 0 2
	 5160 9360 5160 9585
2 1 0 2 -1 -1 0 0 -1 0.000 0 0 -1 0 0 2
	 5145 9570 5235 9480
2 1 0 2 -1 -1 0 0 -1 0.000 0 0 -1 0 0 2
	 5175 9570 5085 9480
-6
2 1 0 2 -1 -1 0 0 -1 0.000 0 0 -1 0 0 2
	 5160 9375 5160 9075
-6
6 4530 9060 4710 9600
6 4530 9345 4710 9600
2 1 0 2 -1 -1 0 0 -1 0.000 0 0 -1 0 0 2
	 4620 9360 4620 9585
2 1 0 2 -1 -1 0 0 -1 0.000 0 0 -1 0 0 2
	 4605 9570 4695 9480
2 1 0 2 -1 -1 0 0 -1 0.000 0 0 -1 0 0 2
	 4635 9570 4545 9480
-6
2 1 0 2 -1 -1 0 0 -1 0.000 0 0 -1 0 0 2
	 4620 9375 4620 9075
-6
6 4485 9615 4725 9855
2 1 0 1 -1 -1 0 0 -1 0.000 0 0 -1 0 0 2
	 4545 9615 4665 9615
2 1 0 1 -1 -1 0 0 -1 0.000 0 0 -1 0 0 2
	 4665 9615 4725 9675
2 1 0 1 -1 -1 0 0 -1 0.000 0 0 -1 0 0 2
	 4725 9675 4725 9795
2 1 0 1 -1 -1 0 0 -1 0.000 0 0 -1 0 0 2
	 4725 9795 4665 9855
2 1 0 1 -1 -1 0 0 -1 0.000 0 0 -1 0 0 2
	 4665 9855 4545 9855
2 1 0 1 -1 -1 0 0 -1 0.000 0 0 -1 0 0 2
	 4545 9855 4485 9795
2 1 0 1 -1 -1 0 0 -1 0.000 0 0 -1 0 0 2
	 4485 9795 4485 9675
2 1 0 1 -1 -1 0 0 -1 0.000 0 0 -1 0 0 2
	 4485 9675 4545 9615
-6
6 5055 9615 5295 9855
2 1 0 1 -1 -1 0 0 -1 0.000 0 0 -1 0 0 2
	 5115 9615 5235 9615
2 1 0 1 -1 -1 0 0 -1 0.000 0 0 -1 0 0 2
	 5235 9615 5295 9675
2 1 0 1 -1 -1 0 0 -1 0.000 0 0 -1 0 0 2
	 5295 9675 5295 9795
2 1 0 1 -1 -1 0 0 -1 0.000 0 0 -1 0 0 2
	 5295 9795 5235 9855
2 1 0 1 -1 -1 0 0 -1 0.000 0 0 -1 0 0 2
	 5235 9855 5115 9855
2 1 0 1 -1 -1 0 0 -1 0.000 0 0 -1 0 0 2
	 5115 9855 5055 9795
2 1 0 1 -1 -1 0 0 -1 0.000 0 0 -1 0 0 2
	 5055 9795 5055 9675
2 1 0 1 -1 -1 0 0 -1 0.000 0 0 -1 0 0 2
	 5055 9675 5115 9615
-6
6 3735 4710 4425 4890
2 1 0 2 -1 -1 0 0 -1 0.000 0 0 -1 0 0 1
	 3900 4740
2 1 0 2 -1 -1 0 0 -1 0.000 0 0 -1 0 0 2
	 3750 4800 4410 4800
2 1 0 2 -1 -1 0 0 -1 0.000 0 0 -1 0 0 2
	 4395 4815 4305 4725
2 1 0 2 -1 -1 0 0 -1 0.000 0 0 -1 0 0 2
	 4395 4785 4305 4875
-6
6 4305 5850 4485 6540
2 1 0 2 -1 -1 0 0 -1 0.000 0 0 -1 0 0 1
	 4455 6015
2 1 0 2 -1 -1 0 0 -1 0.000 0 0 -1 0 0 2
	 4395 5865 4395 6525
2 1 0 2 -1 -1 0 0 -1 0.000 0 0 -1 0 0 2
	 4380 6510 4470 6420
2 1 0 2 -1 -1 0 0 -1 0.000 0 0 -1 0 0 2
	 4410 6510 4320 6420
-6
6 4380 6015 5070 6195
2 1 0 2 -1 -1 0 0 -1 0.000 0 0 -1 0 0 1
	 4905 6045
2 1 0 2 -1 -1 0 0 -1 0.000 0 0 -1 0 0 2
	 5055 6105 4395 6105
2 1 0 2 -1 -1 0 0 -1 0.000 0 0 -1 0 0 2
	 4410 6120 4500 6030
2 1 0 2 -1 -1 0 0 -1 0.000 0 0 -1 0 0 2
	 4410 6090 4500 6180
-6
6 5745 5145 5895 5295
2 1 0 1 -1 -1 0 0 -1 0.000 0 0 -1 0 0 2
	 5895 5145 5745 5295
2 1 0 1 -1 -1 0 0 -1 0.000 0 0 -1 0 0 2
	 5895 5295 5745 5145
-6
6 6645 5175 6795 5325
2 1 0 1 -1 -1 0 0 -1 0.000 0 0 -1 0 0 2
	 6795 5175 6645 5325
2 1 0 1 -1 -1 0 0 -1 0.000 0 0 -1 0 0 2
	 6795 5325 6645 5175
-6
6 3945 9615 4185 9855
2 1 0 1 -1 -1 0 0 -1 0.000 0 0 7 0 0 2
	 4005 9615 4125 9615
2 1 0 1 -1 -1 0 0 -1 0.000 0 0 7 0 0 2
	 4125 9615 4185 9675
2 1 0 1 -1 -1 0 0 -1 0.000 0 0 7 0 0 2
	 4185 9675 4185 9795
2 1 0 1 -1 -1 0 0 -1 0.000 0 0 7 0 0 2
	 4185 9795 4125 9855
2 1 0 1 -1 -1 0 0 -1 0.000 0 0 7 0 0 2
	 4125 9855 4005 9855
2 1 0 1 -1 -1 0 0 -1 0.000 0 0 7 0 0 2
	 4005 9855 3945 9795
2 1 0 1 -1 -1 0 0 -1 0.000 0 0 7 0 0 2
	 3945 9795 3945 9675
2 1 0 1 -1 -1 0 0 -1 0.000 0 0 7 0 0 2
	 3945 9675 4005 9615
-6
6 4860 1440 7245 3285
6 6120 1755 6480 2700
2 2 0 1 -1 -1 0 0 -1 0.000 0 0 0 0 0 5
	 6450 2700 6450 1770 6150 1770 6150 2700 6450 2700
-6
6 6165 3015 6435 3285
6 6195 3030 6435 3270
2 1 0 1 -1 -1 0 0 -1 0.000 0 0 -1 0 0 2
	 6255 3030 6375 3030
2 1 0 1 -1 -1 0 0 -1 0.000 0 0 -1 0 0 2
	 6375 3030 6435 3090
2 1 0 1 -1 -1 0 0 -1 0.000 0 0 -1 0 0 2
	 6435 3090 6435 3210
2 1 0 1 -1 -1 0 0 -1 0.000 0 0 -1 0 0 2
	 6435 3210 6375 3270
2 1 0 1 -1 -1 0 0 -1 0.000 0 0 -1 0 0 2
	 6375 3270 6255 3270
2 1 0 1 -1 -1 0 0 -1 0.000 0 0 -1 0 0 2
	 6255 3270 6195 3210
2 1 0 1 -1 -1 0 0 -1 0.000 0 0 -1 0 0 2
	 6195 3210 6195 3090
2 1 0 1 -1 -1 0 0 -1 0.000 0 0 -1 0 0 2
	 6195 3090 6255 3030
-6
4 1 -1 0 0 18 13 0.0000 4 30 60 6315 3210 -\001
-6
6 6210 2610 6390 3015
2 1 0 2 -1 -1 0 0 -1 0.000 0 0 -1 0 0 2
	 6285 2970 6375 2880
2 1 0 2 -1 -1 0 0 -1 0.000 0 0 -1 0 0 2
	 6315 2970 6225 2880
2 1 0 2 -1 -1 0 0 -1 0.000 0 0 -1 0 0 2
	 6300 2655 6300 2985
-6
6 6390 2610 6705 2790
2 1 0 1 -1 -1 0 0 -1 0.000 0 0 -1 0 0 2
	 6705 2700 6630 2775
2 1 0 1 -1 -1 0 0 -1 0.000 0 0 -1 0 0 3
	 6390 2700 6705 2700 6630 2625
-6
2 1 0 1 -1 -1 0 0 -1 0.000 0 0 -1 0 0 4
	 5400 1500 5400 2700 6225 2700 6300 2700
2 1 0 1 -1 -1 0 0 -1 0.000 0 0 -1 0 0 2
	 5325 1500 5475 1500
2 1 0 1 -1 -1 0 0 -1 0.000 0 0 -1 0 0 2
	 5325 2100 5475 2100
2 2 0 1 -1 -1 0 0 -1 0.000 0 0 0 0 0 5
	 5955 2700 5955 2220 5685 2220 5685 2700 5955 2700
2 1 0 2 -1 -1 0 0 -1 0.000 0 0 -1 0 0 2
	 5805 2895 5805 2625
2 1 0 2 -1 -1 0 0 -1 0.000 0 0 -1 0 0 2
	 5805 2640 5805 2610
4 2 -1 0 0 18 11 0.0000 4 120 420 5310 1575 100%\001
4 2 -1 0 0 18 11 0.0000 4 120 330 5325 2175 50%\001
4 2 -1 0 0 18 11 0.0000 4 120 240 5370 2685 0%\001
4 1 -1 0 0 18 11 0.0000 4 15 60 5835 2445 -\001
4 1 -1 0 0 18 11 0.0000 4 15 60 6315 2430 -\001
4 0 -1 0 0 18 13 0.0000 4 150 585 5455 3210 result:\001
4 0 -1 0 0 18 11 0.0000 4 120 690 6525 2925 columns\001
-6
6 3510 2115 5850 3330
6 4110 2115 4800 2295
2 1 0 2 -1 -1 0 0 -1 0.000 0 0 -1 0 0 1
	 4275 2145
2 1 0 2 -1 -1 0 0 -1 0.000 0 0 -1 0 0 2
	 4125 2205 4785 2205
2 1 0 2 -1 -1 0 0 -1 0.000 0 0 -1 0 0 2
	 4770 2220 4680 2130
2 1 0 2 -1 -1 0 0 -1 0.000 0 0 -1 0 0 2
	 4770 2190 4680 2280
-6
6 4680 2625 4860 3315
2 1 0 2 -1 -1 0 0 -1 0.000 0 0 -1 0 0 1
	 4830 2790
2 1 0 2 -1 -1 0 0 -1 0.000 0 0 -1 0 0 2
	 4770 2640 4770 3300
2 1 0 2 -1 -1 0 0 -1 0.000 0 0 -1 0 0 2
	 4755 3285 4845 3195
2 1 0 2 -1 -1 0 0 -1 0.000 0 0 -1 0 0 2
	 4785 3285 4695 3195
-6
6 4755 2805 5445 2985
2 1 0 2 -1 -1 0 0 -1 0.000 0 0 -1 0 0 1
	 5280 2835
2 1 0 2 -1 -1 0 0 -1 0.000 0 0 -1 0 0 2
	 5430 2895 4770 2895
2 1 0 2 -1 -1 0 0 -1 0.000 0 0 -1 0 0 2
	 4785 2910 4875 2820
2 1 0 2 -1 -1 0 0 -1 0.000 0 0 -1 0 0 2
	 4785 2880 4875 2970
-6
2 1 0 2 -1 -1 0 0 -1 0.000 0 0 -1 0 0 4
	 3975 2565 4770 2565 4770 2895 5820 2895
4 0 -1 0 0 18 13 0.0000 4 195 1080 3510 2325 $countgaps\001
-6
6 3105 3015 3375 3285
6 3135 3030 3375 3270
2 1 0 1 -1 -1 0 0 -1 0.000 0 0 -1 0 0 2
	 3195 3030 3315 3030
2 1 0 1 -1 -1 0 0 -1 0.000 0 0 -1 0 0 2
	 3315 3030 3375 3090
2 1 0 1 -1 -1 0 0 -1 0.000 0 0 -1 0 0 2
	 3375 3090 3375 3210
2 1 0 1 -1 -1 0 0 -1 0.000 0 0 -1 0 0 2
	 3375 3210 3315 3270
2 1 0 1 -1 -1 0 0 -1 0.000 0 0 -1 0 0 2
	 3315 3270 3195 3270
2 1 0 1 -1 -1 0 0 -1 0.000 0 0 -1 0 0 2
	 3195 3270 3135 3210
2 1 0 1 -1 -1 0 0 -1 0.000 0 0 -1 0 0 2
	 3135 3210 3135 3090
2 1 0 1 -1 -1 0 0 -1 0.000 0 0 -1 0 0 2
	 3135 3090 3195 3030
-6
4 1 -1 0 0 18 13 0.0000 4 75 120 3255 3210 =\001
-6
6 6660 1215 7605 1755
4 1 -1 0 0 18 13 0.0000 4 180 765 7140 1680 for gaps\001
4 1 -1 0 0 18 13 0.0000 4 150 885 7140 1380 threshold\001
-6
2 1 0 2 -1 -1 0 0 -1 0.000 0 0 -1 0 0 4
	 3225 9750 2850 9750 2850 9225 2700 9225
2 1 0 1 -1 -1 0 0 -1 0.000 0 0 -1 0 0 2
	 450 6375 2700 6375
2 1 0 2 -1 -1 0 0 -1 0.000 0 0 -1 0 0 1
	 2100 8385
2 1 0 1 -1 -1 0 0 -1 0.000 0 0 -1 0 0 2
	 450 3015 2700 3015
2 1 0 2 -1 -1 0 0 -1 0.000 0 0 -1 0 0 1
	 2490 1515
2 2 0 1 -1 -1 0 0 -1 0.000 0 0 0 0 0 5
	 7875 10725 300 10725 300 150 7875 150 7875 10725
2 2 0 2 -1 -1 0 0 -1 0.000 0 0 7 0 0 5
	 2700 9975 2700 5100 450 5100 450 9975 2700 9975
2 1 0 2 0 7 100 0 -1 0.000 0 0 -1 0 0 3
	 2430 4860 2250 4950 2430 5040
2 1 0 2 0 7 100 0 -1 0.000 0 0 -1 0 0 7
	 2250 4950 2430 4950 2610 4860 2700 4680 2610 4500 2430 4410
	 2250 4410
2 2 0 2 -1 -1 0 0 -1 0.000 0 0 7 0 0 5
	 2700 4305 2700 900 450 900 450 4305 2700 4305
2 1 0 1 -1 -1 0 0 -1 0.000 0 0 -1 0 0 2
	 3555 7290 3705 7290
2 1 0 1 -1 -1 0 0 -1 0.000 0 0 -1 0 0 2
	 3555 8205 3705 8205
2 1 0 1 -1 -1 0 0 -1 0.000 0 0 -1 0 0 2
	 3660 7470 5790 7470
2 1 0 1 -1 -1 0 0 -1 0.000 0 0 -1 0 0 2
	 3660 7785 5790 7785
2 1 0 1 -1 -1 0 0 -1 0.000 0 0 -1 0 0 2
	 5715 9165 5790 9165
2 1 0 1 -1 -1 0 0 -1 0.000 0 0 -1 0 0 2
	 5790 9165 5625 9075
2 1 0 1 -1 -1 0 0 -1 0.000 0 0 -1 0 0 2
	 5850 7800 6075 7950
2 1 0 1 -1 -1 0 0 -1 0.000 0 0 -1 0 0 2
	 5850 7500 6075 7500
2 2 0 1 -1 -1 0 0 -1 0.000 0 0 0 0 0 5
	 4215 9165 4215 8130 3900 8130 3900 9165 4215 9165
2 2 0 1 -1 -1 0 0 -1 0.000 0 0 0 0 0 5
	 4785 9165 4785 7665 4455 7665 4455 9165 4785 9165
2 2 0 1 -1 -1 0 0 -1 0.000 0 0 0 0 0 5
	 5340 9165 5340 7350 4995 7350 4995 9165 5340 9165
2 1 0 1 -1 -1 0 0 -1 0.000 0 0 -1 0 0 2
	 5025 4905 7350 4905
2 2 0 1 -1 -1 0 0 -1 0.000 0 0 0 0 0 5
	 5475 5355 5475 4755 5250 4755 5250 5355 5475 5355
2 2 0 1 -1 -1 0 0 -1 0.000 0 0 0 0 0 5
	 5925 5355 5925 4980 5700 4980 5700 5355 5925 5355
2 2 0 1 -1 -1 0 0 -1 0.000 0 0 0 0 0 5
	 6375 5355 6375 4830 6150 4830 6150 5355 6375 5355
2 2 0 1 -1 -1 0 0 -1 0.000 0 0 0 0 0 5
	 6825 5355 6825 5130 6600 5130 6600 5355 6825 5355
2 1 0 1 -1 -1 0 0 -1 0.000 0 0 -1 0 0 2
	 6525 4305 7275 4830
2 1 0 1 -1 -1 0 0 -1 0.000 0 0 -1 0 0 2
	 5325 5355 5565 5670
2 1 0 1 -1 -1 0 0 -1 0.000 0 0 -1 0 0 2
	 6225 5355 6030 5670
2 1 0 1 -1 -1 0 0 -1 0.000 0 0 -1 0 0 4
	 5025 3855 5025 5355 7425 5355 7275 5280
2 1 0 1 -1 -1 0 0 -1 0.000 0 0 -1 0 0 2
	 7425 5355 7275 5430
2 1 0 1 -1 -1 0 0 -1 0.000 0 0 -1 0 0 2
	 4950 3855 5100 3855
2 1 0 1 -1 -1 0 0 -1 0.000 0 0 -1 0 0 2
	 4935 4575 5085 4575
2 1 0 2 -1 -1 0 0 -1 0.000 0 0 -1 0 0 3
	 5775 5895 5775 6120 5775 6105
2 1 0 2 -1 -1 0 0 -1 0.000 0 0 -1 0 0 2
	 5790 6105 4380 6105
2 1 0 1 -1 -1 0 0 -1 0.000 0 0 -1 0 0 4
	 3000 9450 3000 9975 7725 9975 7725 9450
2 2 0 1 -1 -1 0 0 -1 0.000 0 0 0 0 0 5
	 7725 9450 7725 6525 3000 6525 3000 9450 7725 9450
2 2 0 1 -1 -1 0 0 -1 0.000 0 0 0 0 0 5
	 7725 6255 7725 3300 3000 3300 3000 6255 7725 6255
2 1 0 1 -1 -1 0 0 -1 0.000 0 0 -1 0 0 4
	 3660 7305 3660 9075 3660 9165 5790 9165
2 1 0 1 -1 -1 0 0 -1 0.000 0 0 -1 0 0 2
	 5625 9225 5775 9150
2 1 0 2 -1 -1 0 0 -1 0.000 0 0 -1 0 0 5
	 3735 5220 4395 5220 4395 6105 5775 6105 5775 5910
2 2 0 1 -1 -1 0 0 -1 0.000 0 0 0 0 0 5
	 7740 2985 7740 900 3000 900 3000 2985 7740 2985
2 1 0 1 -1 -1 0 0 -1 0.000 0 0 -1 0 0 2
	 5445 1995 6705 1995
2 1 0 2 -1 -1 0 0 -1 0.000 0 0 -1 0 0 2
	 3240 1530 3240 2985
2 1 0 2 -1 -1 0 0 -1 0.000 0 0 -1 0 0 2
	 3225 2970 3315 2880
2 1 0 2 -1 -1 0 0 -1 0.000 0 0 -1 0 0 2
	 3255 2970 3165 2880
2 1 0 2 -1 -1 0 0 -1 0.000 0 0 -1 0 0 2
	 4005 1530 4005 1770
2 1 0 2 -1 -1 0 0 -1 0.000 0 0 -1 0 0 2
	 3990 1755 4080 1665
2 1 0 2 -1 -1 0 0 -1 0.000 0 0 -1 0 0 2
	 4020 1755 3930 1665
4 0 -1 0 0 18 13 0.0000 4 195 975 525 7050 $save_box\001
4 2 -1 0 0 18 13 0.0000 4 195 1215 2625 8850 $to:save_box\001
4 1 -1 0 0 18 13 0.0000 4 180 630 1425 5775 $result\001
4 0 -1 0 0 18 13 0.0000 4 180 705 450 600 $cancel\001
4 2 -1 0 0 18 12 0.0000 4 150 465 7650 600 $help\001
4 0 -1 0 0 18 13 0.0000 4 195 1695 525 1650 $which_alignment\001
4 2 -1 0 0 18 13 0.0000 4 195 1935 2625 2925 $to:which_alignment\001
4 1 -1 0 0 18 13 0.0000 4 195 1470 1500 3675 $which_species\001
4 0 -1 0 0 18 13 0.0000 4 180 615 600 9750 $name\001
4 2 -1 0 0 18 12 0.0000 4 135 810 2475 9750 $to:name\001
4 1 -1 0 0 18 13 0.0000 4 180 930 1575 10500 $calculate\001
4 0 -1 0 0 18 13 0.0000 4 150 810 600 5325 Result is\001
4 0 -1 0 0 18 13 0.0000 4 195 1260 600 6675 Existing SAIs\001
4 0 -1 0 0 18 13 0.0000 4 135 1605 600 9300 Name of New SAI\001
4 1 -1 0 0 18 13 0.0000 4 195 960 1500 1215 Alignment\001
4 1 -1 0 0 18 13 0.0000 4 180 735 1500 3300 Species\001
4 2 -1 0 0 18 11 0.0000 4 120 240 3495 9120 0%\001
4 2 -1 0 0 18 11 0.0000 4 120 330 3555 8280 50%\001
4 2 -1 0 0 18 11 0.0000 4 120 420 3555 7350 100%\001
4 1 -1 0 0 18 11 0.0000 4 90 90 4080 8520 a\001
4 1 -1 0 0 18 11 0.0000 4 90 90 4620 8520 a\001
4 1 -1 0 0 18 11 0.0000 4 90 90 5190 8520 a\001
4 0 -1 0 0 18 12 0.0000 4 150 600 6825 7575 $upper\001
4 0 -1 0 0 18 13 0.0000 4 135 510 6150 8040 lower\001
4 0 -1 0 0 18 13 0.0000 4 150 540 6150 7575 upper\001
4 0 -1 0 0 18 12 0.0000 4 135 570 6825 8100 $lower\001
4 2 -1 0 0 18 11 0.0000 4 120 690 6525 9375 columns\001
4 1 -1 0 0 18 11 0.0000 4 120 135 6285 5265 G\001
4 1 -1 0 0 18 11 0.0000 4 120 120 5820 5265 C\001
4 1 -1 0 0 18 11 0.0000 4 120 120 5355 5280 A\001
4 1 -1 0 0 18 11 0.0000 4 120 105 6720 5295 T\001
4 1 -1 0 0 18 13 0.0000 4 180 1335 6525 4305 $considbound\001
4 2 -1 0 0 18 11 0.0000 4 120 420 4950 3930 100%\001
4 2 -1 0 0 18 11 0.0000 4 120 330 4965 4650 50%\001
4 2 -1 0 0 18 11 0.0000 4 120 240 4950 5280 0%\001
4 1 -1 0 0 0 12 0.0000 4 75 75 4605 9780 a\001
4 1 -1 0 0 0 12 0.0000 4 105 135 5175 9795 A\001
4 1 -1 0 0 18 13 0.0000 4 180 720 3525 4425 (IUPAC)\001
4 1 -1 0 0 18 13 0.0000 4 180 750 3525 4125 simplify\001
4 0 -1 0 0 18 11 0.0000 4 120 120 5550 6075 R\001
4 0 -1 0 0 18 13 0.0000 4 195 660 3150 4875 $group\001
4 1 -1 0 0 18 13 0.0000 4 180 2040 5175 3555 Simplify Using IUPAC\001
4 1 -1 0 0 18 13 0.0000 4 135 3045 5025 6750 Show as UPPER or lower Case ?\001
4 2 -1 0 0 18 12 0.0000 4 30 45 4095 9750 .\001
4 0 -1 0 0 18 11 0.0000 4 120 120 4450 5765 A\001
4 1 -1 0 0 18 13 0.0000 4 195 1260 7035 5980 $showgroups\001
4 1 -1 0 0 18 11 0.0000 4 90 720 3850 5755 use max:\001
4 1 -1 0 0 18 11 0.0000 4 150 2640 5070 7125 most frequent character or group\001
4 1 -1 0 0 18 13 0.0000 4 195 1050 7197 2158 $gapbound\001
4 0 -1 0 0 18 13 0.0000 4 195 1155 3735 1935 count gaps?\001
4 1 -1 0 0 18 13 0.0000 4 135 495 3285 1440 100%\001
4 1 -1 0 0 18 13 0.0000 4 135 615 4050 1440 <100%\001
4 1 -1 0 0 18 13 0.0000 4 150 2115 6525 3855 threshold for character\001
4 1 -1 0 0 18 13 0.0000 4 195 2190 5355 1125 What to Do with Gaps ?\001
4 0 -1 0 0 18 13 0.0000 4 150 960 6480 5580 characters\001
4 0 -1 0 0 18 13 0.0000 4 150 585 3285 9810 result:\001
4 1 -1 0 0 18 11 0.0000 4 150 990 5850 5850 form groups\001
