#FIG 3.2
Landscape
Center
Metric
A4      
100.00
Single
-2
1200 2
2 1 0 1 -1 -1 0 0 -1 0.000 0 0 -1 0 0 2
	 600 1875 3940 1875
2 1 0 1 -1 -1 0 0 -1 0.000 0 0 -1 0 0 1
	 525 1050
2 1 0 1 -1 -1 0 0 -1 0.000 0 0 -1 0 0 2
	 2731 1875 2731 4275
2 1 0 1 -1 -1 0 0 -1 0.000 0 0 -1 0 0 2
	 2180 1613 2180 4275
2 1 0 1 -1 -1 0 0 -1 0.000 0 0 -1 0 0 2
	 1050 1875 1050 4275
2 2 0 1 0 7 50 -1 -1 0.000 0 0 -1 0 0 5
	 595 1608 3934 1608 3934 4274 595 4274 595 1608
2 1 0 1 0 7 50 -1 -1 0.000 0 0 -1 0 0 1
	 4003 4353
4 1 -1 0 0 18 11 0.0000 4 120 135 825 2100 M\001
4 1 -1 0 0 18 11 0.0000 4 120 120 825 2310 R\001
4 1 -1 0 0 18 11 0.0000 4 120 150 825 2520 W\001
4 1 -1 0 0 18 11 0.0000 4 120 105 825 2730 S\001
4 1 -1 0 0 18 11 0.0000 4 120 105 825 2940 Y\001
4 1 -1 0 0 18 11 0.0000 4 120 120 825 3150 K\001
4 1 -1 0 0 18 11 0.0000 4 120 105 825 3360 V\001
4 1 -1 0 0 18 11 0.0000 4 120 120 825 3570 H\001
4 1 -1 0 0 18 11 0.0000 4 120 120 825 3780 D\001
4 1 -1 0 0 18 11 0.0000 4 120 120 825 3990 B\001
4 1 -1 0 0 18 11 0.0000 4 120 330 1650 2100 A  C\001
4 1 -1 0 0 18 11 0.0000 4 120 345 1650 2310 A  G\001
4 1 -1 0 0 18 11 0.0000 4 120 315 1650 2520 A  T\001
4 1 -1 0 0 18 11 0.0000 4 120 345 1650 2730 C  G\001
4 1 -1 0 0 18 11 0.0000 4 120 315 1650 2940 C  T\001
4 1 -1 0 0 18 11 0.0000 4 120 330 1650 3150 G  T\001
4 1 -1 0 0 18 11 0.0000 4 120 525 1650 3570 A  C  T\001
4 1 -1 0 0 18 11 0.0000 4 120 540 1650 3780 A  G  T\001
4 1 -1 0 0 18 11 0.0000 4 120 540 1650 3990 C  G  T\001
4 1 -1 0 0 18 11 0.0000 4 120 120 825 4200 N\001
4 0 -1 0 0 18 13 0.0000 4 180 330 750 1425 $ok\001
4 1 -1 0 0 18 11 0.0000 4 120 555 1650 3360 A  C  G\001
4 1 -1 0 0 18 11 0.0000 4 120 615 1650 4200 G A T C\001
4 1 -1 0 0 18 13 0.0000 4 135 405 1425 1800 DNA\001
4 1 -1 0 0 18 11 0.0000 4 120 120 2478 2101 A\001
4 1 -1 0 0 18 11 0.0000 4 120 120 2478 2311 D\001
4 1 -1 0 0 18 11 0.0000 4 120 120 2478 2521 H\001
4 1 -1 0 0 18 11 0.0000 4 120 45 2478 2731 I\001
4 1 -1 0 0 18 11 0.0000 4 120 105 2478 2941 F\001
4 1 -1 0 0 18 11 0.0000 4 120 750 3303 2101 P A G S T\001
4 1 -1 0 0 18 11 0.0000 4 120 930 3303 2311 Q N E D B Z\001
4 1 -1 0 0 18 11 0.0000 4 120 450 3303 2521 H K R\001
4 1 -1 0 0 18 11 0.0000 4 120 525 3303 2731 L I V M\001
4 1 -1 0 0 18 11 0.0000 4 120 450 3303 2941 F Y W\001
4 1 -1 0 0 18 13 0.0000 4 135 1170 3078 1801 Amino acids\001
