#FIG 2.1
80 2
5 1 0 40 -1 7 0 0 0.000 0 0 0 404.720 279.720 304 279 333 209 404 179
6 79 279 559 319
4 0 6 23 0 0 3 0.00000 4 30 477 79 319 Development of a phylogenetic environment
-6
1 1 0 0 0 20 0 21 0.00000 1 0.000 459 219 120 60 459 219 579 279
1 1 0 0 0 11 0 1 0.00000 1 0.000 459 220 71 21 459 220 530 241
2 2 0 0 -1 11 0 21 0.000 0 0 0
	 479 199 479 79 439 79 439 199 479 199 9999 9999
2 2 0 0 0 4 0 21 0.000 0 0 0
	 459 279 419 279 419 239 459 239 459 279 9999 9999
2 2 0 0 0 11 0 1 0.000 0 0 0
	 439 299 439 119 319 119 319 299 439 299 9999 9999
2 1 0 1 -1 0 0 21 0.000 -1 0 0
	 64 279 264 159 264 279 224 279 224 224 133 279 64 279 9999 9999
2 2 0 0 0 3 0 1 0.000 0 0 0
	 459 241 419 241 419 214 459 214 459 241 9999 9999
