#FIG 3.2
Landscape
Center
Metric
A4
100.0
Single
-3
1200 2
0 38 #30b0e0
0 39 #ff8800
0 40 #a3b3cf
0 41 #53d3ff
0 42 #808080
0 43 #000000
0 44 #f0c000
0 45 #bb8833
0 46 #622300
0 47 #977a0e
0 48 #000000
0 49 #ffff00
0 50 #ff0000
0 51 #ff00ff
0 52 #00ff00
0 53 #00ffff
0 54 #0000ff
0 55 #808080
0 56 #d50000
0 57 #00c0a0
0 58 #00ff77
0 59 #c700c7
0 60 #0000ff
0 61 #ffce5b
0 62 #ab2323
0 63 #008888
0 64 #008800
0 65 #880088
0 66 #000088
0 67 #888800
2 1 0 2 44 0 0 0 0 0.000 0 1 0 0 0 2
	8520 510 8520 420
2 1 0 2 44 0 0 0 0 0.000 0 1 0 0 0 2
	8520 420 8610 420
2 1 0 2 44 0 0 0 0 0.000 0 1 0 0 0 2
	8610 420 8610 510
2 1 0 2 44 0 0 0 0 0.000 0 1 0 0 0 2
	8610 510 8520 510
2 3 0 2 44 -1 0 0 4 0.000 0 0 -1 0 0 5
   8520 420
   8610 420
   8610 510
   8520 510
   8520 420
4 0 44 0 0 12 8 0.000 4 9 288 8670 525 LacViri2, LACTOBACILLUS VIRIDESCENS, [outer], 12\001
2 1 0 2 44 0 0 0 0 0.000 0 1 0 0 0 2
	8520 645 8520 555
2 1 0 2 44 0 0 0 0 0.000 0 1 0 0 0 2
	8520 555 8610 555
2 1 0 2 44 0 0 0 0 0.000 0 1 0 0 0 2
	8610 555 8610 645
2 1 0 2 44 0 0 0 0 0.000 0 1 0 0 0 2
	8610 645 8520 645
2 3 0 2 44 -1 0 0 4 0.000 0 0 -1 0 0 5
   8520 555
   8610 555
   8610 645
   8520 645
   8520 555
4 0 44 0 0 12 8 0.000 4 9 288 8670 660 LacVirid, LACTOBACILLUS VIRIDESCENS, [outer], 12\001
2 1 0 2 44 0 0 0 0 0.000 0 1 0 0 0 2
	8491 465 8565 465
2 1 0 2 44 0 0 0 0 0.000 0 1 0 0 0 2
	8491 533 8491 465
2 1 0 2 44 0 0 0 0 0.000 0 1 0 0 0 2
	8491 600 8565 600
2 1 0 2 44 0 0 0 0 0.000 0 1 0 0 0 2
	8491 533 8491 600
2 1 0 2 44 0 0 0 0 0.000 0 1 0 0 0 2
	8330 780 8330 690
2 1 0 2 44 0 0 0 0 0.000 0 1 0 0 0 2
	8330 690 8420 690
2 1 0 2 44 0 0 0 0 0.000 0 1 0 0 0 2
	8420 690 8420 780
2 1 0 2 44 0 0 0 0 0.000 0 1 0 0 0 2
	8420 780 8330 780
2 3 0 2 44 -1 0 0 4 0.000 0 0 -1 0 0 5
   8330 690
   8420 690
   8420 780
   8330 780
   8330 690
4 0 44 0 0 12 8 0.000 4 9 282 8475 795 LacBulga, LACTOBACILLUS BULGARICUS, [outer], 12\001
4 0 40 0 0 12 8 0.000 4 9 24 8130 521 100%\001
2 1 0 2 44 0 0 0 0 0.000 0 1 0 0 0 2
	7822 533 8491 533
2 1 0 2 44 0 0 0 0 0.000 0 1 0 0 0 2
	7822 668 7822 533
2 1 0 2 44 0 0 0 0 0.000 0 1 0 0 0 2
	7822 735 8375 735
2 1 0 2 44 0 0 0 0 0.000 0 1 0 0 0 2
	7822 668 7822 735
2 1 0 2 44 0 0 0 0 0.000 0 1 0 0 0 2
	7872 915 7872 825
2 1 0 2 44 0 0 0 0 0.000 0 1 0 0 0 2
	7872 825 7962 825
2 1 0 2 44 0 0 0 0 0.000 0 1 0 0 0 2
	7962 825 7962 915
2 1 0 2 44 0 0 0 0 0.000 0 1 0 0 0 2
	7962 915 7872 915
2 3 0 2 44 -1 0 0 4 0.000 0 0 -1 0 0 5
   7872 825
   7962 825
   7962 915
   7872 915
   7872 825
4 0 44 0 0 12 8 0.000 4 9 276 8010 930 LacPlant, LACTOBACILLUS PLANTARUM, [outer], 12\001
4 0 40 0 0 12 8 0.000 4 9 18 7545 656 19%\001
2 1 0 2 44 0 0 0 0 0.000 0 1 0 0 0 2
	7696 668 7822 668
2 1 0 2 44 0 0 0 0 0.000 0 1 0 0 0 2
	7696 803 7696 668
2 1 0 2 44 0 0 0 0 0.000 0 1 0 0 0 2
	7696 870 7917 870
2 1 0 2 44 0 0 0 0 0.000 0 1 0 0 0 2
	7696 803 7696 870
2 1 0 2 44 0 0 0 0 0.000 0 1 0 0 0 2
	7871 1050 7871 960
2 1 0 2 44 0 0 0 0 0.000 0 1 0 0 0 2
	7871 960 7961 960
2 1 0 2 44 0 0 0 0 0.000 0 1 0 0 0 2
	7961 960 7961 1050
2 1 0 2 44 0 0 0 0 0.000 0 1 0 0 0 2
	7961 1050 7871 1050
2 3 0 2 44 -1 0 0 4 0.000 0 0 -1 0 0 5
   7871 960
   7961 960
   7961 1050
   7871 1050
   7871 960
4 0 44 0 0 12 8 0.000 4 9 258 8010 1065 LacBrevi, LACTOBACILLUS BREVIS, [outer], 12\001
4 0 40 0 0 12 8 0.000 4 9 18 7425 791 36%\001
2 1 0 2 44 0 0 0 0 0.000 0 1 0 0 0 2
	7658 803 7696 803
2 1 0 2 44 0 0 0 0 0.000 0 1 0 0 0 2
	7658 938 7658 803
2 1 0 2 44 0 0 0 0 0.000 0 1 0 0 0 2
	7658 1005 7916 1005
2 1 0 2 44 0 0 0 0 0.000 0 1 0 0 0 2
	7658 938 7658 1005
2 1 0 2 44 0 0 0 0 0.000 0 1 0 0 0 2
	7866 1185 7866 1095
2 1 0 2 44 0 0 0 0 0.000 0 1 0 0 0 2
	7866 1095 7956 1095
2 1 0 2 44 0 0 0 0 0.000 0 1 0 0 0 2
	7956 1095 7956 1185
2 1 0 2 44 0 0 0 0 0.000 0 1 0 0 0 2
	7956 1185 7866 1185
2 3 0 2 44 -1 0 0 4 0.000 0 0 -1 0 0 5
   7866 1095
   7956 1095
   7956 1185
   7866 1185
   7866 1095
4 0 44 0 0 12 8 0.000 4 9 240 8010 1200 EntFaeca, ENTEROCOCCUS FAECALIS, [outer]\001
4 0 40 0 0 12 8 0.000 4 9 18 7395 926 19%\001
2 1 0 2 44 0 0 0 0 0.000 0 1 0 0 0 2
	7543 938 7658 938
2 1 0 2 44 0 0 0 0 0.000 0 1 0 0 0 2
	7543 1073 7543 938
2 1 0 2 44 0 0 0 0 0.000 0 1 0 0 0 2
	7543 1140 7911 1140
2 1 0 2 44 0 0 0 0 0.000 0 1 0 0 0 2
	7543 1073 7543 1140
2 1 0 2 44 0 0 0 0 0.000 0 1 0 0 0 2
	2967 1275 2386 1275
2 1 0 2 44 0 0 0 0 0.000 0 1 0 0 0 2
	2386 1275 2386 1410
2 1 0 2 44 0 0 0 0 0.000 0 1 0 0 0 2
	2386 1410 2899 1410
2 1 0 2 44 0 0 0 0 0.000 0 1 0 0 0 2
	2899 1410 2967 1275
2 3 0 2 44 -1 0 0 4 0.000 0 0 -1 0 0 5
   2386 1275
   2386 1410
   2899 1410
   2967 1275
   2386 1275
4 0 44 0 0 12 8 0.000 4 9 24 3030 1403 [xx]\001
4 0 44 0 0 12 8 0.000 4 9 12 2445 1403  3\001
4 0 40 0 0 12 8 0.000 4 9 24 7185 1061 100%\001
2 1 0 2 44 0 0 0 0 0.000 0 1 0 0 0 2
	2311 1073 7543 1073
2 1 0 2 44 0 0 0 0 0.000 0 1 0 0 0 2
	2311 1208 2311 1073
4 0 40 0 0 12 8 0.000 4 9 18 2115 1331 21%\001
2 1 0 2 44 0 0 0 0 0.000 0 1 0 0 0 2
	2311 1343 2386 1343
2 1 0 2 44 0 0 0 0 0.000 0 1 0 0 0 2
	2311 1208 2311 1343
2 1 0 2 44 0 0 0 0 0.000 0 1 0 0 0 2
	6732 1545 2523 1545
2 1 0 2 44 0 0 0 0 0.000 0 1 0 0 0 2
	2523 1545 2523 1680
2 1 0 2 44 0 0 0 0 0.000 0 1 0 0 0 2
	2523 1680 2557 1680
2 1 0 2 44 0 0 0 0 0.000 0 1 0 0 0 2
	2557 1680 6732 1545
2 3 0 2 44 -1 0 0 4 0.000 0 0 -1 0 0 5
   2523 1545
   2523 1680
   2557 1680
   6732 1545
   2523 1545
4 0 44 0 0 12 8 0.000 4 9 36 6795 1673 [test]\001
4 0 44 0 0 12 8 0.000 4 9 12 2580 1673  4\001
4 0 40 0 0 12 8 0.000 4 9 18 2040 1196 35%\001
2 1 0 2 44 0 0 0 0 0.000 0 1 0 0 0 2
	2267 1208 2311 1208
2 1 0 2 44 0 0 0 0 0.000 0 1 0 0 0 2
	2267 1478 2267 1208
4 0 40 0 0 12 8 0.000 4 9 18 2250 1601 97%\001
2 1 0 2 44 0 0 0 0 0.000 0 1 0 0 0 2
	2267 1613 2523 1613
2 1 0 2 44 0 0 0 0 0.000 0 1 0 0 0 2
	2267 1478 2267 1613
2 1 0 2 44 0 0 0 0 0.000 0 1 0 0 0 2
	2494 1860 2494 1770
2 1 0 2 44 0 0 0 0 0.000 0 1 0 0 0 2
	2494 1770 2584 1770
2 1 0 2 44 0 0 0 0 0.000 0 1 0 0 0 2
	2584 1770 2584 1860
2 1 0 2 44 0 0 0 0 0.000 0 1 0 0 0 2
	2584 1860 2494 1860
2 3 0 2 44 -1 0 0 4 0.000 0 0 -1 0 0 5
   2494 1770
   2584 1770
   2584 1860
   2494 1860
   2494 1770
4 0 44 0 0 12 8 0.000 4 9 246 2640 1875 BacMegat, BACILLUS MEGATERIUM, [outer], 9\001
2 1 0 2 44 0 0 0 0 0.000 0 1 0 0 0 2
	2493 1995 2493 1905
2 1 0 2 44 0 0 0 0 0.000 0 1 0 0 0 2
	2493 1905 2583 1905
2 1 0 2 44 0 0 0 0 0.000 0 1 0 0 0 2
	2583 1905 2583 1995
2 1 0 2 44 0 0 0 0 0.000 0 1 0 0 0 2
	2583 1995 2493 1995
2 3 0 2 44 -1 0 0 4 0.000 0 0 -1 0 0 5
   2493 1905
   2583 1905
   2583 1995
   2493 1995
   2493 1905
4 0 44 0 0 12 8 0.000 4 9 240 2640 2010 BacPaste, BACILLUS PASTEURII, [outer], 9\001
2 1 0 2 44 0 0 0 0 0.000 0 1 0 0 0 2
	2370 1815 2539 1815
2 1 0 2 44 0 0 0 0 0.000 0 1 0 0 0 2
	2370 1883 2370 1815
2 1 0 2 44 0 0 0 0 0.000 0 1 0 0 0 2
	2370 1950 2538 1950
2 1 0 2 44 0 0 0 0 0.000 0 1 0 0 0 2
	2370 1883 2370 1950
2 1 0 2 44 0 0 0 0 0.000 0 1 0 0 0 2
	2169 1748 2267 1650
2 1 0 2 44 0 0 0 0 0.000 0 1 0 0 0 2
	2364 1748 2267 1650
2 1 0 2 44 0 0 0 0 0.000 0 1 0 0 0 2
	2169 1748 2267 1845
2 1 0 2 44 0 0 0 0 0.000 0 1 0 0 0 2
	2364 1748 2267 1845
2 1 0 2 44 0 0 0 0 0.000 0 1 0 0 0 2
	12996 435 13037 435
2 1 0 2 44 0 0 0 0 0.000 0 1 0 0 0 2
	13037 1980 12996 1980
2 1 0 2 44 0 0 0 0 0.000 0 1 0 0 0 2
	13037 1980 13037 435
4 0 44 0 0 12 8 0.000 4 9 42 13095 1268 [outer]\001
4 0 40 0 0 12 8 0.000 4 9 18 1995 1466 <1%\001
2 1 0 2 44 0 0 0 0 0.000 0 1 0 0 0 2
	2267 1478 2267 1478
2 1 0 2 44 0 0 0 0 0.000 0 1 0 0 0 2
	2267 1748 2267 1478
4 0 40 0 0 12 8 0.000 4 9 18 2100 1871 53%\001
2 1 0 2 44 0 0 0 0 0.000 0 1 0 0 0 2
	2267 1883 2370 1883
2 1 0 2 44 0 0 0 0 0.000 0 1 0 0 0 2
	2267 1748 2267 1883
2 1 0 2 44 0 0 0 0 0.000 0 1 0 0 0 2
	2229 2130 2229 2040
2 1 0 2 44 0 0 0 0 0.000 0 1 0 0 0 2
	2229 2040 2319 2040
2 1 0 2 44 0 0 0 0 0.000 0 1 0 0 0 2
	2319 2040 2319 2130
2 1 0 2 44 0 0 0 0 0.000 0 1 0 0 0 2
	2319 2130 2229 2130
2 3 0 2 44 -1 0 0 4 0.000 0 0 -1 0 0 5
   2229 2040
   2319 2040
   2319 2130
   2229 2130
   2229 2040
4 0 44 0 0 12 8 0.000 4 9 216 2370 2145 PlaCitre, PLANOCOCCUS CITREUS, [], 6\001
2 1 0 2 44 0 0 0 0 0.000 0 1 0 0 0 2
	2262 2265 2262 2175
2 1 0 2 44 0 0 0 0 0.000 0 1 0 0 0 2
	2262 2175 2352 2175
2 1 0 2 44 0 0 0 0 0.000 0 1 0 0 0 2
	2352 2175 2352 2265
2 1 0 2 44 0 0 0 0 0.000 0 1 0 0 0 2
	2352 2265 2262 2265
2 3 0 2 44 -1 0 0 4 0.000 0 0 -1 0 0 5
   2262 2175
   2352 2175
   2352 2265
   2262 2265
   2262 2175
4 0 44 0 0 12 8 0.000 4 9 216 2400 2280 PlaKocur, PLANOCOCCUS KOCURII, [], 6\001
2 1 0 2 44 0 0 0 0 0.000 0 1 0 0 0 2
	2240 2085 2274 2085
2 1 0 2 44 0 0 0 0 0.000 0 1 0 0 0 2
	2240 2153 2240 2085
2 1 0 2 44 0 0 0 0 0.000 0 1 0 0 0 2
	2240 2220 2307 2220
2 1 0 2 44 0 0 0 0 0.000 0 1 0 0 0 2
	2240 2153 2240 2220
4 0 40 0 0 12 8 0.000 4 9 24 1905 1736 100%\001
2 1 0 2 44 0 0 0 0 0.000 0 1 0 0 0 2
	1702 1748 2267 1748
2 1 0 2 44 0 0 0 0 0.000 0 1 0 0 0 2
	1702 2018 1702 1748
4 0 40 0 0 12 8 0.000 4 9 24 1875 2141 100%\001
2 1 0 2 44 0 0 0 0 0.000 0 1 0 0 0 2
	1702 2153 2240 2153
2 1 0 2 44 0 0 0 0 0.000 0 1 0 0 0 2
	1702 2018 1702 2153
2 1 0 2 44 0 0 0 0 0.000 0 1 0 0 0 2
	6732 2400 6732 2310
2 1 0 2 44 0 0 0 0 0.000 0 1 0 0 0 2
	6732 2310 6822 2310
2 1 0 2 44 0 0 0 0 0.000 0 1 0 0 0 2
	6822 2310 6822 2400
2 1 0 2 44 0 0 0 0 0.000 0 1 0 0 0 2
	6822 2400 6732 2400
2 3 0 2 44 -1 0 0 4 0.000 0 0 -1 0 0 5
   6732 2310
   6822 2310
   6822 2400
   6732 2400
   6732 2310
4 0 44 0 0 12 8 0.000 4 9 186 6870 2415 BacSpec2, BACILLUS SPEC., [], 9\001
2 1 0 2 44 0 0 0 0 0.000 0 1 0 0 0 2
	7506 2535 7506 2445
2 1 0 2 44 0 0 0 0 0.000 0 1 0 0 0 2
	7506 2445 7596 2445
2 1 0 2 44 0 0 0 0 0.000 0 1 0 0 0 2
	7596 2445 7596 2535
2 1 0 2 44 0 0 0 0 0.000 0 1 0 0 0 2
	7596 2535 7506 2535
2 3 0 2 44 -1 0 0 4 0.000 0 0 -1 0 0 5
   7506 2445
   7596 2445
   7596 2535
   7506 2535
   7506 2445
4 0 44 0 0 12 8 0.000 4 9 204 7650 2550 BacSubt2, BACILLUS SUBTILIS, [], 9\001
2 1 0 2 44 0 0 0 0 0.000 0 1 0 0 0 2
	6556 2355 6777 2355
2 1 0 2 44 0 0 0 0 0.000 0 1 0 0 0 2
	6556 2423 6556 2355
2 1 0 2 44 0 0 0 0 0.000 0 1 0 0 0 2
	6556 2490 7551 2490
2 1 0 2 44 0 0 0 0 0.000 0 1 0 0 0 2
	6556 2423 6556 2490
2 1 0 2 44 0 0 0 0 0.000 0 1 0 0 0 2
	2405 2670 2405 2580
2 1 0 2 44 0 0 0 0 0.000 0 1 0 0 0 2
	2405 2580 2495 2580
2 1 0 2 44 0 0 0 0 0.000 0 1 0 0 0 2
	2495 2580 2495 2670
2 1 0 2 44 0 0 0 0 0.000 0 1 0 0 0 2
	2495 2670 2405 2670
2 3 0 2 44 -1 0 0 4 0.000 0 0 -1 0 0 5
   2405 2580
   2495 2580
   2495 2670
   2405 2670
   2405 2580
4 0 44 0 0 12 8 0.000 4 9 234 2550 2685 BacLich2, BACILLUS LICHENIFORMIS, [], 9\001
4 0 40 0 0 12 8 0.000 4 9 24 6195 2411 100%\001
2 1 0 2 44 0 0 0 0 0.000 0 1 0 0 0 2
	1845 2423 6556 2423
2 1 0 2 44 0 0 0 0 0.000 0 1 0 0 0 2
	1845 2558 1845 2423
2 1 0 2 44 0 0 0 0 0.000 0 1 0 0 0 2
	1845 2625 2450 2625
2 1 0 2 44 0 0 0 0 0.000 0 1 0 0 0 2
	1845 2558 1845 2625
4 0 40 0 0 12 8 0.000 4 9 18 1425 2006 <1%\001
2 1 0 2 44 0 0 0 0 0.000 0 1 0 0 0 2
	1668 2018 1702 2018
2 1 0 2 44 0 0 0 0 0.000 0 1 0 0 0 2
	1668 2288 1668 2018
4 0 40 0 0 12 8 0.000 4 9 18 1575 2546 <1%\001
2 1 0 2 44 0 0 0 0 0.000 0 1 0 0 0 2
	1668 2558 1845 2558
2 1 0 2 44 0 0 0 0 0.000 0 1 0 0 0 2
	1668 2288 1668 2558
2 1 0 2 44 0 0 0 0 0.000 0 1 0 0 0 2
	3050 2760 2213 2760
2 1 0 2 44 0 0 0 0 0.000 0 1 0 0 0 2
	2213 2760 2213 2895
2 1 0 2 44 0 0 0 0 0.000 0 1 0 0 0 2
	2213 2895 2314 2895
2 1 0 2 44 0 0 0 0 0.000 0 1 0 0 0 2
	2314 2895 3050 2760
2 3 0 2 44 -1 0 0 4 0.000 0 0 -1 0 0 5
   2213 2760
   2213 2895
   2314 2895
   3050 2760
   2213 2760
4 0 44 0 0 12 8 0.000 4 9 36 3105 2888 [test]\001
4 0 44 0 0 12 8 0.000 4 9 12 2280 2888  7\001
2 1 0 2 44 0 0 0 0 0.000 0 1 0 0 0 2
	1990 3075 1990 2985
2 1 0 2 44 0 0 0 0 0.000 0 1 0 0 0 2
	1990 2985 2080 2985
2 1 0 2 44 0 0 0 0 0.000 0 1 0 0 0 2
	2080 2985 2080 3075
2 1 0 2 44 0 0 0 0 0.000 0 1 0 0 0 2
	2080 3075 1990 3075
2 3 0 2 44 -1 0 0 4 0.000 0 0 -1 0 0 5
   1990 2985
   2080 2985
   2080 3075
   1990 3075
   1990 2985
4 0 44 0 0 12 8 0.000 4 9 210 2130 3090 SprUreae, SPOROSARCINA UREAE, [], 8\001
4 0 40 0 0 12 8 0.000 4 9 24 1860 2816 100%\001
2 1 0 2 44 0 0 0 0 0.000 0 1 0 0 0 2
	1668 2828 2213 2828
2 1 0 2 44 0 0 0 0 0.000 0 1 0 0 0 2
	1668 2963 1668 2828
2 1 0 2 44 0 0 0 0 0.000 0 1 0 0 0 2
	1668 3030 2035 3030
2 1 0 2 44 0 0 0 0 0.000 0 1 0 0 0 2
	1668 2963 1668 3030
4 0 40 0 0 12 8 0.000 4 9 18 1395 2276 36%\001
2 1 0 2 44 0 0 0 0 0.000 0 1 0 0 0 2
	1634 2288 1668 2288
2 1 0 2 44 0 0 0 0 0.000 0 1 0 0 0 2
	1634 2693 1634 2288
4 0 40 0 0 12 8 0.000 4 9 18 1395 2951 <1%\001
2 1 0 2 44 0 0 0 0 0.000 0 1 0 0 0 2
	1634 2963 1668 2963
2 1 0 2 44 0 0 0 0 0.000 0 1 0 0 0 2
	1634 2693 1634 2963
2 1 0 2 46 0 0 0 0 0.000 0 1 0 0 0 2
	4325 3165 2984 3165
2 1 0 2 46 0 0 0 0 0.000 0 1 0 0 0 2
	2984 3165 2984 3300
2 1 0 2 46 0 0 0 0 0.000 0 1 0 0 0 2
	2984 3300 3851 3300
2 1 0 2 46 0 0 0 0 0.000 0 1 0 0 0 2
	3851 3300 4325 3165
2 3 0 2 46 -1 0 0 4 0.000 0 0 -1 0 0 5
   2984 3165
   2984 3300
   3851 3300
   4325 3165
   2984 3165
4 0 46 0 0 12 8 0.000 4 9 42 4380 3293 [inner]\001
4 0 46 0 0 12 8 0.000 4 9 12 3045 3293  5\001
4 0 57 0 0 12 8 0.000 4 9 252 3000 3495 CloInnoc, CLOSTRIDIUM INNOCUUM, [outer], 2\001
4 0 40 0 0 12 8 0.000 4 9 18 2715 3221 99%\001
2 1 0 2 46 0 0 0 0 0.000 0 1 0 0 0 2
	2223 3233 2984 3233
2 1 0 2 46 0 0 0 0 0.000 0 1 0 0 0 2
	2223 3368 2223 3233
2 1 0 2 57 0 0 0 0 0.000 0 1 0 0 0 2
	2223 3435 2901 3435
2 1 0 2 57 0 0 0 0 0.000 0 1 0 0 0 2
	2223 3368 2223 3435
4 0 56 0 0 12 8 0.000 4 9 264 3105 3630 AnrFurco, ANAERORHABDUS FURCOSUS, [outer], 1\001
4 0 40 0 0 12 8 0.000 4 9 18 1950 3356 33%\001
2 1 0 2 46 0 0 0 0 0.000 0 1 0 0 0 2
	2223 3368 2223 3368
2 1 0 2 46 0 0 0 0 0.000 0 1 0 0 0 2
	2223 3503 2223 3368
2 1 0 2 56 0 0 0 0 0.000 0 1 0 0 0 2
	2223 3570 3003 3570
2 1 0 2 56 0 0 0 0 0.000 0 1 0 0 0 2
	2223 3503 2223 3570
4 0 56 0 0 12 8 0.000 4 9 252 2820 3765 AchModic, ACHOLEPLASMA MODICUM, [outer], 1\001
4 0 40 0 0 12 8 0.000 4 9 18 1950 3491 37%\001
2 1 0 2 46 0 0 0 0 0.000 0 1 0 0 0 2
	2147 3503 2223 3503
2 1 0 2 46 0 0 0 0 0.000 0 1 0 0 0 2
	2147 3638 2147 3503
2 1 0 2 56 0 0 0 0 0.000 0 1 0 0 0 2
	2147 3705 2723 3705
2 1 0 2 56 0 0 0 0 0.000 0 1 0 0 0 2
	2147 3638 2147 3705
4 0 54 0 0 12 8 0.000 4 9 276 3900 3900 McpGalli, MYCOPLASMA GALLISEPTICUM, [outer], 5\001
4 0 46 0 0 12 8 0.000 4 9 246 5025 4035 UreUreal, UREAPLASMA UREALYTICUM, [outer]\001
2 1 0 2 54 0 0 0 0 0.000 0 1 0 0 0 2
	2743 3840 3800 3840
2 1 0 2 54 0 0 0 0 0.000 0 1 0 0 0 2
	2743 3908 2743 3840
2 1 0 2 46 0 0 0 0 0.000 0 1 0 0 0 2
	2743 3975 4924 3975
2 1 0 2 46 0 0 0 0 0.000 0 1 0 0 0 2
	2743 3908 2743 3975
4 0 54 0 0 12 8 0.000 4 9 258 3300 4170 McpPneum, MYCOPLASMA PNEUMONIAE, [outer], 5\001
4 0 40 0 0 12 8 0.000 4 9 12 2565 3896 6%\001
2 1 0 2 46 0 0 0 0 0.000 0 1 0 0 0 2
	2313 3908 2743 3908
2 1 0 2 46 0 0 0 0 0.000 0 1 0 0 0 2
	2313 4043 2313 3908
2 1 0 2 54 0 0 0 0 0.000 0 1 0 0 0 2
	2313 4110 3208 4110
2 1 0 2 54 0 0 0 0 0.000 0 1 0 0 0 2
	2313 4043 2313 4110
2 1 0 2 46 0 0 0 0 0.000 0 1 0 0 0 2
	1897 3773 1994 3675
2 1 0 2 46 0 0 0 0 0.000 0 1 0 0 0 2
	2092 3773 1994 3675
2 1 0 2 46 0 0 0 0 0.000 0 1 0 0 0 2
	1897 3773 1994 3870
2 1 0 2 46 0 0 0 0 0.000 0 1 0 0 0 2
	2092 3773 1994 3870
2 1 0 2 46 0 0 0 0 0.000 0 1 0 0 0 2
	8725 3135 8766 3135
2 1 0 2 46 0 0 0 0 0.000 0 1 0 0 0 2
	8766 4140 8725 4140
2 1 0 2 46 0 0 0 0 0.000 0 1 0 0 0 2
	8766 4140 8766 3135
4 0 46 0 0 12 8 0.000 4 9 42 8820 3698 [outer]\001
4 0 40 0 0 12 8 0.000 4 9 18 1875 3626 60%\001
2 1 0 2 46 0 0 0 0 0.000 0 1 0 0 0 2
	1994 3638 2147 3638
2 1 0 2 46 0 0 0 0 0.000 0 1 0 0 0 2
	1994 3773 1994 3638
4 0 40 0 0 12 8 0.000 4 9 18 2040 4031 83%\001
2 1 0 2 46 0 0 0 0 0.000 0 1 0 0 0 2
	1994 4043 2313 4043
2 1 0 2 46 0 0 0 0 0.000 0 1 0 0 0 2
	1994 3773 1994 4043
4 0 58 0 0 12 8 0.000 4 9 240 4770 4305 FusNucle, FUSOBACTERIUM NUCLEATUM, [], 3\001
4 0 46 0 0 12 8 0.000 4 9 174 6135 4440 SubCremo, #SUBSP CREMORIS, []\001
2 1 0 2 58 0 0 0 0 0.000 0 1 0 0 0 2
	4125 4245 4667 4245
2 1 0 2 58 0 0 0 0 0.000 0 1 0 0 0 2
	4125 4313 4125 4245
2 1 0 2 46 0 0 0 0 0.000 0 1 0 0 0 2
	4125 4380 6041 4380
2 1 0 2 46 0 0 0 0 0.000 0 1 0 0 0 2
	4125 4313 4125 4380
4 0 58 0 0 12 8 0.000 4 9 246 4545 4575 FusMorti, FUSOBACTERIUM MORTIFERUM, [], 3\001
4 0 40 0 0 12 8 0.000 4 9 18 3855 4301 44%\001
2 1 0 2 46 0 0 0 0 0.000 0 1 0 0 0 2
	4040 4313 4125 4313
2 1 0 2 46 0 0 0 0 0.000 0 1 0 0 0 2
	4040 4448 4040 4313
2 1 0 2 58 0 0 0 0 0.000 0 1 0 0 0 2
	4040 4515 4447 4515
2 1 0 2 58 0 0 0 0 0.000 0 1 0 0 0 2
	4040 4448 4040 4515
4 0 58 0 0 12 8 0.000 4 9 222 4155 4710 FusVariu, FUSOBACTERIUM VARIUM, [], 3\001
4 0 40 0 0 12 8 0.000 4 9 12 3855 4436 2%\001
2 1 0 2 46 0 0 0 0 0.000 0 1 0 0 0 2
	3720 4448 4040 4448
2 1 0 2 46 0 0 0 0 0.000 0 1 0 0 0 2
	3720 4583 3720 4448
2 1 0 2 58 0 0 0 0 0.000 0 1 0 0 0 2
	3720 4650 4059 4650
2 1 0 2 58 0 0 0 0 0.000 0 1 0 0 0 2
	3720 4583 3720 4650
4 0 40 0 0 12 8 0.000 4 9 18 1725 3761 82%\001
2 1 0 2 46 0 0 0 0 0.000 0 1 0 0 0 2
	1630 3773 1994 3773
2 1 0 2 46 0 0 0 0 0.000 0 1 0 0 0 2
	1630 4178 1630 3773
4 0 40 0 0 12 8 0.000 4 9 24 3360 4571 100%\001
2 1 0 2 46 0 0 0 0 0.000 0 1 0 0 0 2
	1630 4583 3720 4583
2 1 0 2 46 0 0 0 0 0.000 0 1 0 0 0 2
	1630 4178 1630 4583
4 0 40 0 0 12 8 0.000 4 9 18 1365 2681 74%\001
2 1 0 2 44 0 0 0 0 0.000 0 1 0 0 0 2
	1466 2693 1634 2693
2 1 0 2 44 0 0 0 0 0.000 0 1 0 0 0 2
	1466 3098 1466 2693
4 0 40 0 0 12 8 0.000 4 9 18 1365 4166 55%\001
2 1 0 2 46 0 0 0 0 0.000 0 1 0 0 0 2
	1466 4178 1630 4178
2 1 0 2 46 0 0 0 0 0.000 0 1 0 0 0 2
	1466 3098 1466 4178
4 0 57 0 0 12 8 0.000 4 9 246 2835 4845 CloBifer, CLOSTRIDIUM BIFERMENTANS, [], 2\001
4 0 40 0 0 12 8 0.000 4 9 18 1200 3086 <1%\001
2 1 0 2 45 0 0 0 0 0.000 0 1 0 0 0 2
	1245 3098 1466 3098
2 1 0 2 45 0 0 0 0 0.000 0 1 0 0 0 2
	1245 4718 1245 3098
2 1 0 2 57 0 0 0 0 0.000 0 1 0 0 0 2
	1245 4785 2743 4785
2 1 0 2 57 0 0 0 0 0.000 0 1 0 0 0 2
	1245 4718 1245 4785
4 0 46 0 0 12 8 0.000 4 9 222 3015 4980 DeiRadio, DEINOCOCCUS RADIODURANS, []\001
4 0 46 0 0 12 8 0.000 4 9 168 2550 5115 OctSprin, OCTOPUS SPRING, []\001
2 1 0 2 46 0 0 0 0 0.000 0 1 0 0 0 2
	1937 4920 2919 4920
2 1 0 2 46 0 0 0 0 0.000 0 1 0 0 0 2
	1937 4988 1937 4920
2 1 0 2 46 0 0 0 0 0.000 0 1 0 0 0 2
	1937 5055 2452 5055
2 1 0 2 46 0 0 0 0 0.000 0 1 0 0 0 2
	1937 4988 1937 5055
4 0 64 0 0 12 8 0.000 4 9 192 2145 5250 BacBrevi, BACILLUS BREVIS, [], 9\001
4 0 40 0 0 12 8 0.000 4 9 18 1665 4976 87%\001
2 1 0 2 46 0 0 0 0 0.000 0 1 0 0 0 2
	1520 4988 1937 4988
2 1 0 2 46 0 0 0 0 0.000 0 1 0 0 0 2
	1520 5123 1520 4988
2 1 0 2 64 0 0 0 0 0.000 0 1 0 0 0 2
	1520 5190 2048 5190
2 1 0 2 64 0 0 0 0 0.000 0 1 0 0 0 2
	1520 5123 1520 5190
4 0 64 0 0 12 8 0.000 4 9 240 2010 5385 BacAcido, BACILLUS ACIDOCALDARIUS, [], 9\001
4 0 40 0 0 12 8 0.000 4 9 18 1245 5111 49%\001
2 1 0 2 46 0 0 0 0 0.000 0 1 0 0 0 2
	1411 5123 1520 5123
2 1 0 2 46 0 0 0 0 0.000 0 1 0 0 0 2
	1411 5258 1411 5123
2 1 0 2 64 0 0 0 0 0.000 0 1 0 0 0 2
	1411 5325 1906 5325
2 1 0 2 64 0 0 0 0 0.000 0 1 0 0 0 2
	1411 5258 1411 5325
4 0 40 0 0 12 8 0.000 4 9 18 975 4706 53%\001
2 1 0 2 45 0 0 0 0 0.000 0 1 0 0 0 2
	1124 4718 1245 4718
2 1 0 2 45 0 0 0 0 0.000 0 1 0 0 0 2
	1124 4853 1124 4718
4 0 40 0 0 12 8 0.000 4 9 18 1140 5246 97%\001
2 1 0 2 46 0 0 0 0 0.000 0 1 0 0 0 2
	1124 5258 1411 5258
2 1 0 2 46 0 0 0 0 0.000 0 1 0 0 0 2
	1124 4853 1124 5258
4 0 64 0 0 12 8 0.000 4 9 264 1800 5520 BacStea2, BACILLUS STEAROTHERMOPHILUS, [], 9\001
4 0 64 0 0 12 8 0.000 4 9 264 1635 5655 BacStear, BACILLUS STEAROTHERMOPHILUS, [], 9\001
2 1 0 2 64 0 0 0 0 0.000 0 1 0 0 0 2
	1505 5460 1703 5460
2 1 0 2 64 0 0 0 0 0.000 0 1 0 0 0 2
	1505 5528 1505 5460
2 1 0 2 64 0 0 0 0 0.000 0 1 0 0 0 2
	1505 5595 1538 5595
2 1 0 2 64 0 0 0 0 0.000 0 1 0 0 0 2
	1505 5528 1505 5595
4 0 56 0 0 12 8 0.000 4 9 228 1965 5790 AmpXylan, AMPHIBACILLUS XYLANUS, [], 1\001
4 0 40 0 0 12 8 0.000 4 9 18 1230 5516 86%\001
2 1 0 2 64 0 0 0 0 0.000 0 1 0 0 0 2
	1268 5528 1505 5528
2 1 0 2 64 0 0 0 0 0.000 0 1 0 0 0 2
	1268 5663 1268 5528
2 1 0 2 56 0 0 0 0 0.000 0 1 0 0 0 2
	1268 5730 1867 5730
2 1 0 2 56 0 0 0 0 0.000 0 1 0 0 0 2
	1268 5663 1268 5730
4 0 40 0 0 12 8 0.000 4 9 18 855 4841 <1%\001
2 1 0 2 45 0 0 0 0 0.000 0 1 0 0 0 2
	977 4853 1124 4853
2 1 0 2 45 0 0 0 0 0.000 0 1 0 0 0 2
	977 5393 977 4853
4 0 40 0 0 12 8 0.000 4 9 18 1005 5651 97%\001
2 1 0 2 46 0 0 0 0 0.000 0 1 0 0 0 2
	977 5663 1268 5663
2 1 0 2 46 0 0 0 0 0.000 0 1 0 0 0 2
	977 5393 977 5663
4 0 57 0 0 12 8 0.000 4 9 228 3615 5925 CloButy2, CLOSTRIDIUM BUTYRICUM, [], 2\001
4 0 57 0 0 12 8 0.000 4 9 228 3585 6060 CloButyr, CLOSTRIDIUM BUTYRICUM, [], 2\001
2 1 0 2 57 0 0 0 0 0.000 0 1 0 0 0 2
	3488 5865 3522 5865
2 1 0 2 57 0 0 0 0 0.000 0 1 0 0 0 2
	3488 5933 3488 5865
2 1 0 2 57 0 0 0 0 0.000 0 1 0 0 0 2
	3488 6000 3488 6000
2 1 0 2 57 0 0 0 0 0.000 0 1 0 0 0 2
	3488 5933 3488 6000
4 0 57 0 0 12 8 0.000 4 9 210 1875 6195 CloCarni, CLOSTRIDIUM CARNIS, [], 2\001
4 0 40 0 0 12 8 0.000 4 9 24 3135 5921 100%\001
2 1 0 2 57 0 0 0 0 0.000 0 1 0 0 0 2
	1308 5933 3488 5933
2 1 0 2 57 0 0 0 0 0.000 0 1 0 0 0 2
	1308 6068 1308 5933
2 1 0 2 57 0 0 0 0 0.000 0 1 0 0 0 2
	1308 6135 1771 6135
2 1 0 2 57 0 0 0 0 0.000 0 1 0 0 0 2
	1308 6068 1308 6135
4 0 57 0 0 12 8 0.000 4 9 246 2055 6330 CloPaste, CLOSTRIDIUM PASTEURIANUM, [], 2\001
4 0 40 0 0 12 8 0.000 4 9 18 1035 6056 33%\001
2 1 0 2 57 0 0 0 0 0.000 0 1 0 0 0 2
	1269 6068 1308 6068
2 1 0 2 57 0 0 0 0 0.000 0 1 0 0 0 2
	1269 6203 1269 6068
2 1 0 2 57 0 0 0 0 0.000 0 1 0 0 0 2
	1269 6270 1963 6270
2 1 0 2 57 0 0 0 0 0.000 0 1 0 0 0 2
	1269 6203 1269 6270
4 0 40 0 0 12 8 0.000 4 9 18 705 5381 72%\001
2 1 0 2 45 0 0 0 0 0.000 0 1 0 0 0 2
	763 5393 977 5393
2 1 0 2 45 0 0 0 0 0.000 0 1 0 0 0 2
	763 5798 763 5393
4 0 40 0 0 12 8 0.000 4 9 18 1005 6191 97%\001
2 1 0 2 57 0 0 0 0 0.000 0 1 0 0 0 2
	763 6203 1269 6203
2 1 0 2 57 0 0 0 0 0.000 0 1 0 0 0 2
	763 5798 763 6203
4 0 56 0 0 12 8 0.000 4 9 246 2520 6465 AurTesta, AUREOBACTERIUM TESTACEUM, [], 1\001
4 0 57 0 0 12 8 0.000 4 9 252 2595 6600 CorAquat, CORYNEBACTERIUM AQUATICUM, [], 2\001
2 1 0 2 56 0 0 0 0 0.000 0 1 0 0 0 2
	2429 6405 2429 6405
2 1 0 2 56 0 0 0 0 0.000 0 1 0 0 0 2
	2429 6473 2429 6405
2 1 0 2 57 0 0 0 0 0.000 0 1 0 0 0 2
	2429 6540 2493 6540
2 1 0 2 57 0 0 0 0 0.000 0 1 0 0 0 2
	2429 6473 2429 6540
4 0 63 0 0 12 8 0.000 4 9 222 2565 6735 StpGrise, STREPTOMYCES GRISEUS, [], 8\001
4 0 63 0 0 12 8 0.000 4 9 222 2625 6870 StpRimos, STREPTOMYCES RIMOSUS, [], 8\001
2 1 0 2 63 0 0 0 0 0.000 0 1 0 0 0 2
	2431 6675 2463 6675
2 1 0 2 63 0 0 0 0 0.000 0 1 0 0 0 2
	2431 6743 2431 6675
2 1 0 2 63 0 0 0 0 0.000 0 1 0 0 0 2
	2431 6810 2527 6810
2 1 0 2 63 0 0 0 0 0.000 0 1 0 0 0 2
	2431 6743 2431 6810
4 0 40 0 0 12 8 0.000 4 9 18 2160 6461 91%\001
2 1 0 2 46 0 0 0 0 0.000 0 1 0 0 0 2
	2234 6473 2429 6473
2 1 0 2 46 0 0 0 0 0.000 0 1 0 0 0 2
	2234 6608 2234 6473
4 0 40 0 0 12 8 0.000 4 9 18 2160 6731 91%\001
2 1 0 2 63 0 0 0 0 0.000 0 1 0 0 0 2
	2234 6743 2431 6743
2 1 0 2 63 0 0 0 0 0.000 0 1 0 0 0 2
	2234 6608 2234 6743
4 0 57 0 0 12 8 0.000 4 9 234 2490 7005 CurCitre, CURTOBACTERIUM CITREUM, [], 2\001
4 0 40 0 0 12 8 0.000 4 9 18 1965 6596 <1%\001
2 1 0 2 46 0 0 0 0 0.000 0 1 0 0 0 2
	2168 6608 2234 6608
2 1 0 2 46 0 0 0 0 0.000 0 1 0 0 0 2
	2168 6878 2168 6608
2 1 0 2 57 0 0 0 0 0.000 0 1 0 0 0 2
	2168 6945 2393 6945
2 1 0 2 57 0 0 0 0 0.000 0 1 0 0 0 2
	2168 6878 2168 6945
4 0 57 0 0 12 8 0.000 4 9 258 3885 7140 CorGluta, CORYNEBACTERIUM GLUTAMICUM, [], 2\001
4 0 63 0 0 12 8 0.000 4 9 210 2700 7275 SapGrand, SAPROSPIRA GRANDIS, [], 8\001
2 1 0 2 57 0 0 0 0 0.000 0 1 0 0 0 2
	2110 7080 3791 7080
2 1 0 2 57 0 0 0 0 0.000 0 1 0 0 0 2
	2110 7148 2110 7080
2 1 0 2 63 0 0 0 0 0.000 0 1 0 0 0 2
	2110 7215 2597 7215
2 1 0 2 63 0 0 0 0 0.000 0 1 0 0 0 2
	2110 7148 2110 7215
4 0 46 0 0 12 8 0.000 4 9 132 2340 7410 Jcm19710, JCM 1971, []\001
4 0 46 0 0 12 8 0.000 4 9 150 2370 7545 StraiCnf, #STRAIN CNF, []\001
2 1 0 2 46 0 0 0 0 0.000 0 1 0 0 0 2
	2044 7350 2238 7350
2 1 0 2 46 0 0 0 0 0.000 0 1 0 0 0 2
	2044 7418 2044 7350
2 1 0 2 46 0 0 0 0 0.000 0 1 0 0 0 2
	2044 7485 2270 7485
2 1 0 2 46 0 0 0 0 0.000 0 1 0 0 0 2
	2044 7418 2044 7485
4 0 40 0 0 12 8 0.000 4 9 18 1845 7136 56%\001
2 1 0 2 46 0 0 0 0 0.000 0 1 0 0 0 2
	1910 7148 2110 7148
2 1 0 2 46 0 0 0 0 0.000 0 1 0 0 0 2
	1910 7283 1910 7148
4 0 40 0 0 12 8 0.000 4 9 18 1770 7406 60%\001
2 1 0 2 46 0 0 0 0 0.000 0 1 0 0 0 2
	1910 7418 2044 7418
2 1 0 2 46 0 0 0 0 0.000 0 1 0 0 0 2
	1910 7283 1910 7418
4 0 40 0 0 12 8 0.000 4 9 24 1815 6866 100%\001
2 1 0 2 46 0 0 0 0 0.000 0 1 0 0 0 2
	1771 6878 2168 6878
2 1 0 2 46 0 0 0 0 0.000 0 1 0 0 0 2
	1771 7013 1771 6878
4 0 40 0 0 12 8 0.000 4 9 18 1635 7271 60%\001
2 1 0 2 46 0 0 0 0 0.000 0 1 0 0 0 2
	1771 7283 1910 7283
2 1 0 2 46 0 0 0 0 0.000 0 1 0 0 0 2
	1771 7013 1771 7283
4 0 64 0 0 12 8 0.000 4 9 228 2730 7680 BreLinen, BREVIBACTERIUM LINENS, [], 9\001
4 0 54 0 0 12 8 0.000 4 9 210 2415 7815 MicLuteu, MICROCOCCUS LUTEUS, [], 5\001
2 1 0 2 64 0 0 0 0 0.000 0 1 0 0 0 2
	2059 7620 2639 7620
2 1 0 2 64 0 0 0 0 0.000 0 1 0 0 0 2
	2059 7688 2059 7620
2 1 0 2 54 0 0 0 0 0.000 0 1 0 0 0 2
	2059 7755 2320 7755
2 1 0 2 54 0 0 0 0 0.000 0 1 0 0 0 2
	2059 7688 2059 7755
4 0 40 0 0 12 8 0.000 4 9 18 1500 7001 17%\001
2 1 0 2 46 0 0 0 0 0.000 0 1 0 0 0 2
	1701 7013 1771 7013
2 1 0 2 46 0 0 0 0 0.000 0 1 0 0 0 2
	1701 7553 1701 7013
4 0 40 0 0 12 8 0.000 4 9 18 1785 7676 99%\001
2 1 0 2 46 0 0 0 0 0.000 0 1 0 0 0 2
	1701 7688 2059 7688
2 1 0 2 46 0 0 0 0 0.000 0 1 0 0 0 2
	1701 7553 1701 7688
4 0 57 0 0 12 8 0.000 4 9 228 1890 7950 CelBiazo, CELLULOMONAS BIAZOTEA, [], 2\001
4 0 62 0 0 12 8 0.000 4 9 246 1860 8085 RhoEryth, RHODOCOCCUS ERYTHROPOLIS, [], 7\001
2 1 0 2 57 0 0 0 0 0.000 0 1 0 0 0 2
	1727 7890 1791 7890
2 1 0 2 57 0 0 0 0 0.000 0 1 0 0 0 2
	1727 7958 1727 7890
2 1 0 2 62 0 0 0 0 0.000 0 1 0 0 0 2
	1727 8025 1759 8025
2 1 0 2 62 0 0 0 0 0.000 0 1 0 0 0 2
	1727 7958 1727 8025
4 0 40 0 0 12 8 0.000 4 9 18 1425 7541 75%\001
2 1 0 2 46 0 0 0 0 0.000 0 1 0 0 0 2
	1564 7553 1701 7553
2 1 0 2 46 0 0 0 0 0.000 0 1 0 0 0 2
	1564 7823 1564 7553
4 0 40 0 0 12 8 0.000 4 9 18 1455 7946 74%\001
2 1 0 2 46 0 0 0 0 0.000 0 1 0 0 0 2
	1564 7958 1727 7958
2 1 0 2 46 0 0 0 0 0.000 0 1 0 0 0 2
	1564 7823 1564 7958
4 0 56 0 0 12 8 0.000 4 9 246 2085 8220 ArtGlob2, ARTHROBACTER GLOBIFORMIS, [], 1\001
4 0 56 0 0 12 8 0.000 4 9 270 2160 8355 ArtPolyc, ARTHROBACTER POLYCHROMOGENES, [], 1\001
2 1 0 2 56 0 0 0 0 0.000 0 1 0 0 0 2
	1991 8160 1991 8160
2 1 0 2 56 0 0 0 0 0.000 0 1 0 0 0 2
	1991 8228 1991 8160
2 1 0 2 56 0 0 0 0 0.000 0 1 0 0 0 2
	1991 8295 2055 8295
2 1 0 2 56 0 0 0 0 0.000 0 1 0 0 0 2
	1991 8228 1991 8295
4 0 56 0 0 12 8 0.000 4 9 246 2115 8490 ArtGlobi, ARTHROBACTER GLOBIFORMIS, [], 1\001
4 0 40 0 0 12 8 0.000 4 9 18 1725 8216 <1%\001
2 1 0 2 56 0 0 0 0 0.000 0 1 0 0 0 2
	1991 8228 1991 8228
2 1 0 2 56 0 0 0 0 0.000 0 1 0 0 0 2
	1991 8363 1991 8228
2 1 0 2 56 0 0 0 0 0.000 0 1 0 0 0 2
	1991 8430 2023 8430
2 1 0 2 56 0 0 0 0 0.000 0 1 0 0 0 2
	1991 8363 1991 8430
4 0 64 0 0 12 8 0.000 4 9 240 2085 8625 BreHelvo, BREVIBACTERIUM HELVOLUM, [], 9\001
4 0 40 0 0 12 8 0.000 4 9 18 1725 8351 <1%\001
2 1 0 2 56 0 0 0 0 0.000 0 1 0 0 0 2
	1926 8363 1991 8363
2 1 0 2 56 0 0 0 0 0.000 0 1 0 0 0 2
	1926 8498 1926 8363
2 1 0 2 64 0 0 0 0 0.000 0 1 0 0 0 2
	1926 8565 1991 8565
2 1 0 2 64 0 0 0 0 0.000 0 1 0 0 0 2
	1926 8498 1926 8565
4 0 46 0 0 12 8 0.000 4 9 156 2085 8760 StraNctc, #STRAIN NCTC, []\001
4 0 40 0 0 12 8 0.000 4 9 18 1650 8486 40%\001
2 1 0 2 46 0 0 0 0 0.000 0 1 0 0 0 2
	1862 8498 1926 8498
2 1 0 2 46 0 0 0 0 0.000 0 1 0 0 0 2
	1862 8633 1862 8498
2 1 0 2 46 0 0 0 0 0.000 0 1 0 0 0 2
	1862 8700 1990 8700
2 1 0 2 46 0 0 0 0 0.000 0 1 0 0 0 2
	1862 8633 1862 8700
4 0 54 0 0 12 8 0.000 4 9 252 2085 8895 MicLysod, MICROCOCCUS LYSODEIKTICUS, [], 5\001
4 0 40 0 0 12 8 0.000 4 9 18 1590 8621 <1%\001
2 1 0 2 46 0 0 0 0 0.000 0 1 0 0 0 2
	1729 8633 1862 8633
2 1 0 2 46 0 0 0 0 0.000 0 1 0 0 0 2
	1729 8768 1729 8633
2 1 0 2 54 0 0 0 0 0.000 0 1 0 0 0 2
	1729 8835 1989 8835
2 1 0 2 54 0 0 0 0 0.000 0 1 0 0 0 2
	1729 8768 1729 8835
4 0 58 0 0 12 8 0.000 4 9 192 1920 9030 FraStrai, FRANKIA #STRAIN, [], 3\001
4 0 62 0 0 12 8 0.000 4 9 222 1920 9165 RhoFasci, RHODOCOCCUS FASCIANS, [], 7\001
2 1 0 2 58 0 0 0 0 0.000 0 1 0 0 0 2
	1566 8970 1824 8970
2 1 0 2 58 0 0 0 0 0.000 0 1 0 0 0 2
	1566 9038 1566 8970
2 1 0 2 62 0 0 0 0 0.000 0 1 0 0 0 2
	1566 9105 1828 9105
2 1 0 2 62 0 0 0 0 0.000 0 1 0 0 0 2
	1566 9038 1566 9105
4 0 40 0 0 12 8 0.000 4 9 18 1455 8756 86%\001
2 1 0 2 46 0 0 0 0 0.000 0 1 0 0 0 2
	1497 8768 1729 8768
2 1 0 2 46 0 0 0 0 0.000 0 1 0 0 0 2
	1497 8903 1497 8768
4 0 40 0 0 12 8 0.000 4 9 18 1290 9026 40%\001
2 1 0 2 46 0 0 0 0 0.000 0 1 0 0 0 2
	1497 9038 1566 9038
2 1 0 2 46 0 0 0 0 0.000 0 1 0 0 0 2
	1497 8903 1497 9038
4 0 40 0 0 12 8 0.000 4 9 18 1290 7811 40%\001
2 1 0 2 46 0 0 0 0 0.000 0 1 0 0 0 2
	1497 7823 1564 7823
2 1 0 2 46 0 0 0 0 0.000 0 1 0 0 0 2
	1497 8093 1497 7823
4 0 40 0 0 12 8 0.000 4 9 18 1230 8891 <1%\001
2 1 0 2 46 0 0 0 0 0.000 0 1 0 0 0 2
	1497 8903 1497 8903
2 1 0 2 46 0 0 0 0 0.000 0 1 0 0 0 2
	1497 8093 1497 8903
4 0 54 0 0 12 8 0.000 4 9 216 2355 9300 MycBovis, MYCOBACTERIUM BOVIS, [], 5\001
4 0 54 0 0 12 8 0.000 4 9 222 2550 9435 MycLepra, MYCOBACTERIUM LEPRAE, [], 5\001
2 1 0 2 54 0 0 0 0 0.000 0 1 0 0 0 2
	2185 9240 2251 9240
2 1 0 2 54 0 0 0 0 0.000 0 1 0 0 0 2
	2185 9308 2185 9240
2 1 0 2 54 0 0 0 0 0.000 0 1 0 0 0 2
	2185 9375 2452 9375
2 1 0 2 54 0 0 0 0 0.000 0 1 0 0 0 2
	2185 9308 2185 9375
4 0 54 0 0 12 8 0.000 4 9 216 2385 9570 MycPhlei, MYCOBACTERIUM PHLEI, [], 5\001
4 0 54 0 0 12 8 0.000 4 9 240 2355 9705 MycSmegm, MYCOBACTERIUM SMEGMATIS, [], 5\001
2 1 0 2 54 0 0 0 0 0.000 0 1 0 0 0 2
	2250 9510 2284 9510
2 1 0 2 54 0 0 0 0 0.000 0 1 0 0 0 2
	2250 9578 2250 9510
2 1 0 2 54 0 0 0 0 0.000 0 1 0 0 0 2
	2250 9645 2250 9645
2 1 0 2 54 0 0 0 0 0.000 0 1 0 0 0 2
	2250 9578 2250 9645
4 0 40 0 0 12 8 0.000 4 9 18 1920 9296 40%\001
2 1 0 2 54 0 0 0 0 0.000 0 1 0 0 0 2
	2117 9308 2185 9308
2 1 0 2 54 0 0 0 0 0.000 0 1 0 0 0 2
	2117 9443 2117 9308
4 0 40 0 0 12 8 0.000 4 9 18 1980 9566 75%\001
2 1 0 2 54 0 0 0 0 0.000 0 1 0 0 0 2
	2117 9578 2250 9578
2 1 0 2 54 0 0 0 0 0.000 0 1 0 0 0 2
	2117 9443 2117 9578
4 0 63 0 0 12 8 0.000 4 9 174 2340 9840 SpecName, SPECIES NAME, [], 8\001
4 0 40 0 0 12 8 0.000 4 9 18 1845 9431 36%\001
2 1 0 2 54 0 0 0 0 0.000 0 1 0 0 0 2
	2083 9443 2117 9443
2 1 0 2 54 0 0 0 0 0.000 0 1 0 0 0 2
	2083 9713 2083 9443
2 1 0 2 63 0 0 0 0 0.000 0 1 0 0 0 2
	2083 9780 2249 9780
2 1 0 2 63 0 0 0 0 0.000 0 1 0 0 0 2
	2083 9713 2083 9780
4 0 54 0 0 12 8 0.000 4 9 246 2340 9975 MycFlave, MYCOBACTERIUM FLAVESCENS, [], 5\001
4 0 40 0 0 12 8 0.000 4 9 18 1815 9701 60%\001
2 1 0 2 46 0 0 0 0 0.000 0 1 0 0 0 2
	1948 9713 2083 9713
2 1 0 2 46 0 0 0 0 0.000 0 1 0 0 0 2
	1948 9848 1948 9713
2 1 0 2 54 0 0 0 0 0.000 0 1 0 0 0 2
	1948 9915 2245 9915
2 1 0 2 54 0 0 0 0 0.000 0 1 0 0 0 2
	1948 9848 1948 9915
4 0 56 0 0 12 8 0.000 4 9 216 1920 10110 ArtLuteu, ARTHROBACTER LUTEUS, [], 1\001
4 0 40 0 0 12 8 0.000 4 9 18 1680 9836 98%\001
2 1 0 2 46 0 0 0 0 0.000 0 1 0 0 0 2
	1501 9848 1948 9848
2 1 0 2 46 0 0 0 0 0.000 0 1 0 0 0 2
	1501 9983 1501 9848
2 1 0 2 56 0 0 0 0 0.000 0 1 0 0 0 2
	1501 10050 1823 10050
2 1 0 2 56 0 0 0 0 0.000 0 1 0 0 0 2
	1501 9983 1501 10050
4 0 40 0 0 12 8 0.000 4 9 18 1230 8081 <1%\001
2 1 0 2 46 0 0 0 0 0.000 0 1 0 0 0 2
	1431 8093 1497 8093
2 1 0 2 46 0 0 0 0 0.000 0 1 0 0 0 2
	1431 9173 1431 8093
4 0 40 0 0 12 8 0.000 4 9 18 1230 9971 50%\001
2 1 0 2 46 0 0 0 0 0.000 0 1 0 0 0 2
	1431 9983 1501 9983
2 1 0 2 46 0 0 0 0 0.000 0 1 0 0 0 2
	1431 9173 1431 9983
4 0 61 0 0 12 8 0.000 4 9 222 1590 10245 PimSimpl, PIMELOBACTER SIMPLEX, [], 6\001
4 0 40 0 0 12 8 0.000 4 9 18 1155 9161 75%\001
2 1 0 2 46 0 0 0 0 0.000 0 1 0 0 0 2
	1299 9173 1431 9173
2 1 0 2 46 0 0 0 0 0.000 0 1 0 0 0 2
	1299 10118 1299 9173
2 1 0 2 61 0 0 0 0 0.000 0 1 0 0 0 2
	1299 10185 1492 10185
2 1 0 2 61 0 0 0 0 0.000 0 1 0 0 0 2
	1299 10118 1299 10185
4 0 64 0 0 12 8 0.000 4 9 222 2490 10380 BctFragi, BACTEROIDES FRAGILIS, [], 9\001
4 0 64 0 0 12 8 0.000 4 9 270 2595 10515 BctTheta, BACTEROIDES THETAIOTAOMICRON, [], 9\001
2 1 0 2 64 0 0 0 0 0.000 0 1 0 0 0 2
	2329 10320 2399 10320
2 1 0 2 64 0 0 0 0 0.000 0 1 0 0 0 2
	2329 10388 2329 10320
2 1 0 2 64 0 0 0 0 0.000 0 1 0 0 0 2
	2329 10455 2503 10455
2 1 0 2 64 0 0 0 0 0.000 0 1 0 0 0 2
	2329 10388 2329 10455
4 0 54 0 0 12 8 0.000 4 9 246 3690 10650 McpHyopn, MYCOPLASMA HYOPNEUMONIAE, [], 5\001
4 0 40 0 0 12 8 0.000 4 9 18 2055 10376 53%\001
2 1 0 2 64 0 0 0 0 0.000 0 1 0 0 0 2
	2222 10388 2329 10388
2 1 0 2 64 0 0 0 0 0.000 0 1 0 0 0 2
	2222 10523 2222 10388
2 1 0 2 54 0 0 0 0 0.000 0 1 0 0 0 2
	2222 10590 3595 10590
2 1 0 2 54 0 0 0 0 0.000 0 1 0 0 0 2
	2222 10523 2222 10590
4 0 64 0 0 12 8 0.000 4 9 234 2835 10785 BctCapil, BACTEROIDES CAPILLOSUS, [], 9\001
4 0 40 0 0 12 8 0.000 4 9 18 1950 10511 70%\001
2 1 0 2 46 0 0 0 0 0.000 0 1 0 0 0 2
	1929 10523 2222 10523
2 1 0 2 46 0 0 0 0 0.000 0 1 0 0 0 2
	1929 10658 1929 10523
2 1 0 2 64 0 0 0 0 0.000 0 1 0 0 0 2
	1929 10725 2736 10725
2 1 0 2 64 0 0 0 0 0.000 0 1 0 0 0 2
	1929 10658 1929 10725
4 0 64 0 0 12 8 0.000 4 9 228 2520 10920 BctVeror, BACTEROIDES VERORALIS, [], 9\001
4 0 57 0 0 12 8 0.000 4 9 216 3615 11055 CytAquat, CYTOPHAGA AQUATILIS, [], 2\001
2 1 0 2 64 0 0 0 0 0.000 0 1 0 0 0 2
	1974 10860 2423 10860
2 1 0 2 64 0 0 0 0 0.000 0 1 0 0 0 2
	1974 10928 1974 10860
2 1 0 2 57 0 0 0 0 0.000 0 1 0 0 0 2
	1974 10995 3513 10995
2 1 0 2 57 0 0 0 0 0.000 0 1 0 0 0 2
	1974 10928 1974 10995
4 0 61 0 0 12 8 0.000 4 9 246 2505 11190 PorGingi, PORPHYROMONAS GINGIVALIS, [], 6\001
4 0 40 0 0 12 8 0.000 4 9 18 1710 10916 54%\001
2 1 0 2 46 0 0 0 0 0.000 0 1 0 0 0 2
	1854 10928 1974 10928
2 1 0 2 46 0 0 0 0 0.000 0 1 0 0 0 2
	1854 11063 1854 10928
2 1 0 2 61 0 0 0 0 0.000 0 1 0 0 0 2
	1854 11130 2411 11130
2 1 0 2 61 0 0 0 0 0.000 0 1 0 0 0 2
	1854 11063 1854 11130
4 0 40 0 0 12 8 0.000 4 9 18 1665 10646 53%\001
2 1 0 2 46 0 0 0 0 0.000 0 1 0 0 0 2
	1816 10658 1929 10658
2 1 0 2 46 0 0 0 0 0.000 0 1 0 0 0 2
	1816 10793 1816 10658
4 0 40 0 0 12 8 0.000 4 9 18 1590 11051 35%\001
2 1 0 2 46 0 0 0 0 0.000 0 1 0 0 0 2
	1816 11063 1854 11063
2 1 0 2 46 0 0 0 0 0.000 0 1 0 0 0 2
	1816 10793 1816 11063
4 0 61 0 0 12 8 0.000 4 9 198 3105 11325 PirMarin, PIRELLULA MARINA, [], 6\001
4 0 61 0 0 12 8 0.000 4 9 192 4605 11460 PirSpeci, PIRELLULA SPEC., [], 6\001
2 1 0 2 61 0 0 0 0 0.000 0 1 0 0 0 2
	2521 11265 3013 11265
2 1 0 2 61 0 0 0 0 0.000 0 1 0 0 0 2
	2521 11333 2521 11265
2 1 0 2 61 0 0 0 0 0.000 0 1 0 0 0 2
	2521 11400 4508 11400
2 1 0 2 61 0 0 0 0 0.000 0 1 0 0 0 2
	2521 11333 2521 11400
4 0 46 0 0 12 8 0.000 4 9 192 2760 11595 IsoPalli, ISOSPHAERA PALLIDA, []\001
4 0 40 0 0 12 8 0.000 4 9 18 2250 11321 89%\001
2 1 0 2 61 0 0 0 0 0.000 0 1 0 0 0 2
	2098 11333 2521 11333
2 1 0 2 61 0 0 0 0 0.000 0 1 0 0 0 2
	2098 11468 2098 11333
2 1 0 2 46 0 0 0 0 0.000 0 1 0 0 0 2
	2098 11535 2660 11535
2 1 0 2 46 0 0 0 0 0.000 0 1 0 0 0 2
	2098 11468 2098 11535
4 0 61 0 0 12 8 0.000 4 9 252 2850 11730 PlnBrasi, PLANCTOMYCES BRASILIENSIS, [], 6\001
4 0 61 0 0 12 8 0.000 4 9 246 2715 11865 PlnLimno, PLANCTOMYCES LIMNOPHILUS, [], 6\001
2 1 0 2 61 0 0 0 0 0.000 0 1 0 0 0 2
	2265 11670 2757 11670
2 1 0 2 61 0 0 0 0 0.000 0 1 0 0 0 2
	2265 11738 2265 11670
2 1 0 2 61 0 0 0 0 0.000 0 1 0 0 0 2
	2265 11805 2613 11805
2 1 0 2 61 0 0 0 0 0.000 0 1 0 0 0 2
	2265 11738 2265 11805
4 0 61 0 0 12 8 0.000 4 9 192 4380 12000 PirSpec2, PIRELLULA SPEC., [], 6\001
4 0 40 0 0 12 8 0.000 4 9 18 1995 11726 74%\001
2 1 0 2 61 0 0 0 0 0.000 0 1 0 0 0 2
	2076 11738 2265 11738
2 1 0 2 61 0 0 0 0 0.000 0 1 0 0 0 2
	2076 11873 2076 11738
2 1 0 2 61 0 0 0 0 0.000 0 1 0 0 0 2
	2076 11940 4280 11940
2 1 0 2 61 0 0 0 0 0.000 0 1 0 0 0 2
	2076 11873 2076 11940
4 0 40 0 0 12 8 0.000 4 9 18 1830 11456 47%\001
2 1 0 2 46 0 0 0 0 0.000 0 1 0 0 0 2
	1944 11468 2098 11468
2 1 0 2 46 0 0 0 0 0.000 0 1 0 0 0 2
	1944 11603 1944 11468
4 0 40 0 0 12 8 0.000 4 9 18 1800 11861 19%\001
2 1 0 2 61 0 0 0 0 0.000 0 1 0 0 0 2
	1944 11873 2076 11873
2 1 0 2 61 0 0 0 0 0.000 0 1 0 0 0 2
	1944 11603 1944 11873
4 0 46 0 0 12 8 0.000 4 9 210 2565 12135 GemObscu, GEMMATA OBSCURIGLOBUS, []\001
4 0 40 0 0 12 8 0.000 4 9 18 1680 11591 21%\001
2 1 0 2 46 0 0 0 0 0.000 0 1 0 0 0 2
	1866 11603 1944 11603
2 1 0 2 46 0 0 0 0 0.000 0 1 0 0 0 2
	1866 12008 1866 11603
2 1 0 2 46 0 0 0 0 0.000 0 1 0 0 0 2
	1866 12075 2469 12075
2 1 0 2 46 0 0 0 0 0.000 0 1 0 0 0 2
	1866 12008 1866 12075
4 0 40 0 0 12 8 0.000 4 9 18 1545 10781 98%\001
2 1 0 2 46 0 0 0 0 0.000 0 1 0 0 0 2
	1335 10793 1816 10793
2 1 0 2 46 0 0 0 0 0.000 0 1 0 0 0 2
	1335 11198 1335 10793
4 0 40 0 0 12 8 0.000 4 9 18 1590 11996 97%\001
2 1 0 2 46 0 0 0 0 0.000 0 1 0 0 0 2
	1335 12008 1866 12008
2 1 0 2 46 0 0 0 0 0.000 0 1 0 0 0 2
	1335 11198 1335 12008
4 0 63 0 0 12 8 0.000 4 9 282 2775 12270 SulTherm, SULFOBACILLUS THERMOSULFIDOOXI, [], 8\001
4 0 40 0 0 12 8 0.000 4 9 18 1065 11186 89%\001
2 1 0 2 46 0 0 0 0 0.000 0 1 0 0 0 2
	892 11198 1335 11198
2 1 0 2 46 0 0 0 0 0.000 0 1 0 0 0 2
	892 12143 892 11198
2 1 0 2 63 0 0 0 0 0.000 0 1 0 0 0 2
	892 12210 2682 12210
2 1 0 2 63 0 0 0 0 0.000 0 1 0 0 0 2
	892 12143 892 12210
4 0 40 0 0 12 8 0.000 4 9 18 1035 10106 98%\001
2 1 0 2 46 0 0 0 0 0.000 0 1 0 0 0 2
	763 10118 1299 10118
2 1 0 2 46 0 0 0 0 0.000 0 1 0 0 0 2
	763 10253 763 10118
4 0 40 0 0 12 8 0.000 4 9 18 615 12131 19%\001
2 1 0 2 46 0 0 0 0 0.000 0 1 0 0 0 2
	763 12143 892 12143
2 1 0 2 46 0 0 0 0 0.000 0 1 0 0 0 2
	763 10253 763 12143
4 0 40 0 0 12 8 0.000 4 9 24 405 5786 100%\001
2 1 0 2 45 0 0 0 0 0.000 0 1 0 0 0 2
	450 5798 763 5798
2 1 0 2 45 0 0 0 0 0.000 0 1 0 0 0 2
	450 6338 450 5798
4 0 40 0 0 12 8 0.000 4 9 24 405 10241 100%\001
2 1 0 2 46 0 0 0 0 0.000 0 1 0 0 0 2
	450 10253 763 10253
2 1 0 2 46 0 0 0 0 0.000 0 1 0 0 0 2
	450 6338 450 10253
2 1 0 1 39 0 0 0 0 0.000 0 1 0 0 0 2
	2377 4980 2527 4980
2 1 0 1 39 0 0 0 0 0.000 0 1 0 0 0 2
	2527 5130 2377 5130
2 1 0 1 39 0 0 0 0 0.000 0 1 0 0 0 2
	2377 4980 2377 5130
2 1 0 1 39 0 0 0 0 0.000 0 1 0 0 0 2
	2527 5130 2527 4980
2 1 0 2 39 0 0 0 0 0.000 0 1 0 0 0 2
	450 12615 837 12615
4 0 39 0 0 12 8 0.000 4 9 24 465 12615 0.10\001
2 1 0 2 39 0 0 0 0 0.000 0 1 0 0 0 2
	450 465 8565 465
2 1 0 2 39 0 0 0 0 0.000 0 1 0 0 0 2
	8565 12615 450 12615
2 1 0 2 39 0 0 0 0 0.000 0 1 0 0 0 2
	450 465 450 12615
2 1 0 2 39 0 0 0 0 0.000 0 1 0 0 0 2
	8565 12615 8565 465
2 1 0 1 43 0 0 0 0 0.000 0 1 0 0 0 2
	403 401 13727 401
2 1 0 1 43 0 0 0 0 0.000 0 1 0 0 0 2
	13727 12615 403 12615
2 1 0 1 43 0 0 0 0 0.000 0 1 0 0 0 2
	403 401 403 12615
2 1 0 1 43 0 0 0 0 0.000 0 1 0 0 0 2
	13727 12615 13727 401
