#FIG 3.2
Landscape
Center
Metric
A4
100.0
Single
-3
1200 2
0 38 #30b0e0
0 39 #ff8800
0 40 #a3b3cf
0 41 #53d3ff
0 42 #808080
0 43 #000000
0 44 #f0c000
0 45 #bb8833
0 46 #622300
0 47 #977a0e
0 48 #000000
0 49 #ffff00
0 50 #ff0000
0 51 #ff00ff
0 52 #00ff00
0 53 #00ffff
0 54 #0000ff
0 55 #808080
0 56 #d50000
0 57 #00c0a0
0 58 #00ff77
0 59 #c700c7
0 60 #0000ff
0 61 #ffce5b
0 62 #ab2323
0 63 #008888
0 64 #008800
0 65 #880088
0 66 #000088
0 67 #888800
2 1 2 1 43 0 0 0 0 2.000 0 1 0 0 0 2
	2493 518 8520 518
4 0 44 0 0 12 8 0.000 4 9 72 2535 683 [outer] (15)\001
2 1 0 2 44 0 0 0 0 0.000 0 1 0 0 0 2
	8475 765 8475 675
2 1 0 2 44 0 0 0 0 0.000 0 1 0 0 0 2
	8475 675 8565 675
2 1 0 2 44 0 0 0 0 0.000 0 1 0 0 0 2
	8565 675 8565 765
2 1 0 2 44 0 0 0 0 0.000 0 1 0 0 0 2
	8565 765 8475 765
2 3 0 2 44 -1 0 0 4 0.000 0 0 -1 0 0 5
   8475 675
   8565 675
   8565 765
   8475 765
   8475 675
4 0 44 0 0 12 8 0.000 4 9 288 8625 780 LacViri2, LACTOBACILLUS VIRIDESCENS, [outer], 12\001
2 1 0 2 44 0 0 0 0 0.000 0 1 0 0 0 2
	8475 900 8475 810
2 1 0 2 44 0 0 0 0 0.000 0 1 0 0 0 2
	8475 810 8565 810
2 1 0 2 44 0 0 0 0 0.000 0 1 0 0 0 2
	8565 810 8565 900
2 1 0 2 44 0 0 0 0 0.000 0 1 0 0 0 2
	8565 900 8475 900
2 3 0 2 44 -1 0 0 4 0.000 0 0 -1 0 0 5
   8475 810
   8565 810
   8565 900
   8475 900
   8475 810
4 0 44 0 0 12 8 0.000 4 9 288 8625 915 LacVirid, LACTOBACILLUS VIRIDESCENS, [outer], 12\001
2 1 0 2 44 0 0 0 0 0.000 0 1 0 0 0 2
	8450 720 8520 720
2 1 0 2 44 0 0 0 0 0.000 0 1 0 0 0 2
	8450 855 8520 855
2 1 0 2 44 0 0 0 0 0.000 0 1 0 0 0 2
	8450 788 8450 720
2 1 0 2 44 0 0 0 0 0.000 0 1 0 0 0 2
	8450 788 8450 855
2 1 0 2 44 0 0 0 0 0.000 0 1 0 0 0 2
	8293 1035 8293 945
2 1 0 2 44 0 0 0 0 0.000 0 1 0 0 0 2
	8293 945 8383 945
2 1 0 2 44 0 0 0 0 0.000 0 1 0 0 0 2
	8383 945 8383 1035
2 1 0 2 44 0 0 0 0 0.000 0 1 0 0 0 2
	8383 1035 8293 1035
2 3 0 2 44 -1 0 0 4 0.000 0 0 -1 0 0 5
   8293 945
   8383 945
   8383 1035
   8293 1035
   8293 945
4 0 44 0 0 12 8 0.000 4 9 282 8445 1050 LacBulga, LACTOBACILLUS BULGARICUS, [outer], 12\001
4 0 40 0 0 12 8 0.000 4 9 24 8085 788 100%\001
2 1 0 2 44 0 0 0 0 0.000 0 1 0 0 0 2
	7811 788 8450 788
2 1 0 2 44 0 0 0 0 0.000 0 1 0 0 0 2
	7811 990 8338 990
2 1 0 2 44 0 0 0 0 0.000 0 1 0 0 0 2
	7811 889 7811 788
2 1 0 2 44 0 0 0 0 0.000 0 1 0 0 0 2
	7811 889 7811 990
2 1 0 2 44 0 0 0 0 0.000 0 1 0 0 0 2
	7857 1170 7857 1080
2 1 0 2 44 0 0 0 0 0.000 0 1 0 0 0 2
	7857 1080 7947 1080
2 1 0 2 44 0 0 0 0 0.000 0 1 0 0 0 2
	7947 1080 7947 1170
2 1 0 2 44 0 0 0 0 0.000 0 1 0 0 0 2
	7947 1170 7857 1170
2 3 0 2 44 -1 0 0 4 0.000 0 0 -1 0 0 5
   7857 1080
   7947 1080
   7947 1170
   7857 1170
   7857 1080
4 0 44 0 0 12 8 0.000 4 9 276 8010 1185 LacPlant, LACTOBACILLUS PLANTARUM, [outer], 12\001
4 0 40 0 0 12 8 0.000 4 9 18 7545 889 19%\001
2 1 0 2 44 0 0 0 0 0.000 0 1 0 0 0 2
	7691 889 7811 889
2 1 0 2 44 0 0 0 0 0.000 0 1 0 0 0 2
	7691 1125 7902 1125
2 1 0 2 44 0 0 0 0 0.000 0 1 0 0 0 2
	7691 1007 7691 889
2 1 0 2 44 0 0 0 0 0.000 0 1 0 0 0 2
	7691 1007 7691 1125
2 1 0 2 44 0 0 0 0 0.000 0 1 0 0 0 2
	7855 1305 7855 1215
2 1 0 2 44 0 0 0 0 0.000 0 1 0 0 0 2
	7855 1215 7945 1215
2 1 0 2 44 0 0 0 0 0.000 0 1 0 0 0 2
	7945 1215 7945 1305
2 1 0 2 44 0 0 0 0 0.000 0 1 0 0 0 2
	7945 1305 7855 1305
2 3 0 2 44 -1 0 0 4 0.000 0 0 -1 0 0 5
   7855 1215
   7945 1215
   7945 1305
   7855 1305
   7855 1215
4 0 44 0 0 12 8 0.000 4 9 258 8010 1320 LacBrevi, LACTOBACILLUS BREVIS, [outer], 12\001
4 0 40 0 0 12 8 0.000 4 9 18 7425 1007 36%\001
2 1 0 2 44 0 0 0 0 0.000 0 1 0 0 0 2
	7654 1007 7691 1007
2 1 0 2 44 0 0 0 0 0.000 0 1 0 0 0 2
	7654 1260 7900 1260
2 1 0 2 44 0 0 0 0 0.000 0 1 0 0 0 2
	7654 1133 7654 1007
2 1 0 2 44 0 0 0 0 0.000 0 1 0 0 0 2
	7654 1133 7654 1260
2 1 0 2 44 0 0 0 0 0.000 0 1 0 0 0 2
	7851 1440 7851 1350
2 1 0 2 44 0 0 0 0 0.000 0 1 0 0 0 2
	7851 1350 7941 1350
2 1 0 2 44 0 0 0 0 0.000 0 1 0 0 0 2
	7941 1350 7941 1440
2 1 0 2 44 0 0 0 0 0.000 0 1 0 0 0 2
	7941 1440 7851 1440
2 3 0 2 44 -1 0 0 4 0.000 0 0 -1 0 0 5
   7851 1350
   7941 1350
   7941 1440
   7851 1440
   7851 1350
4 0 44 0 0 12 8 0.000 4 9 240 7995 1455 EntFaeca, ENTEROCOCCUS FAECALIS, [outer]\001
4 0 40 0 0 12 8 0.000 4 9 18 7380 1133 19%\001
2 1 0 2 44 0 0 0 0 0.000 0 1 0 0 0 2
	7544 1133 7654 1133
2 1 0 2 44 0 0 0 0 0.000 0 1 0 0 0 2
	7544 1395 7896 1395
2 1 0 2 44 0 0 0 0 0.000 0 1 0 0 0 2
	7544 1264 7544 1133
2 1 0 2 44 0 0 0 0 0.000 0 1 0 0 0 2
	7544 1264 7544 1395
2 1 0 1 43 0 0 0 0 0.000 0 1 0 0 0 2
	2622 1508 3177 1508
2 1 0 1 43 0 0 0 0 0.000 0 1 0 0 0 2
	2622 1508 2622 1778
2 1 0 1 43 0 0 0 0 0.000 0 1 0 0 0 2
	3177 1778 2622 1778
2 1 0 2 44 0 0 0 0 0.000 0 1 0 0 0 2
	2607 1523 2607 1493
2 1 0 2 44 0 0 0 0 0.000 0 1 0 0 0 2
	2607 1493 2637 1493
2 1 0 2 44 0 0 0 0 0.000 0 1 0 0 0 2
	2637 1493 2637 1523
2 1 0 2 44 0 0 0 0 0.000 0 1 0 0 0 2
	2637 1523 2607 1523
2 3 0 2 44 -1 0 0 4 0.000 0 0 -1 0 0 5
   2607 1493
   2637 1493
   2637 1523
   2607 1523
   2607 1493
2 1 0 2 44 0 0 0 0 0.000 0 1 0 0 0 2
	2667 1733 2667 1553
2 1 0 2 44 0 0 0 0 0.000 0 1 0 0 0 2
	2667 1553 2944 1553
2 1 0 2 44 0 0 0 0 0.000 0 1 0 0 0 2
	2944 1553 2944 1733
2 1 0 2 44 0 0 0 0 0.000 0 1 0 0 0 2
	2944 1733 2667 1733
2 3 0 2 44 -1 0 0 4 0.000 0 0 -1 0 0 5
   2667 1553
   2944 1553
   2944 1733
   2667 1733
   2667 1553
4 0 44 0 0 12 8 0.000 4 9 48 3045 1703 [xx] (3)\001
4 0 40 0 0 12 8 0.000 4 9 24 7185 1264 100%\001
2 1 0 2 44 0 0 0 0 0.000 0 1 0 0 0 2
	2551 1264 7544 1264
4 0 40 0 0 12 8 0.000 4 9 18 2355 1643 21%\001
2 1 0 2 44 0 0 0 0 0.000 0 1 0 0 0 2
	2551 1643 2622 1643
2 1 0 2 44 0 0 0 0 0.000 0 1 0 0 0 2
	2551 1453 2551 1264
2 1 0 2 44 0 0 0 0 0.000 0 1 0 0 0 2
	2551 1453 2551 1643
2 1 0 1 43 0 0 0 0 0.000 0 1 0 0 0 2
	2753 1868 6770 1868
2 1 0 1 43 0 0 0 0 0.000 0 1 0 0 0 2
	2753 1868 2753 2138
2 1 0 1 43 0 0 0 0 0.000 0 1 0 0 0 2
	6770 2138 2753 2138
2 1 0 2 44 0 0 0 0 0.000 0 1 0 0 0 2
	2738 1883 2738 1853
2 1 0 2 44 0 0 0 0 0.000 0 1 0 0 0 2
	2738 1853 2768 1853
2 1 0 2 44 0 0 0 0 0.000 0 1 0 0 0 2
	2768 1853 2768 1883
2 1 0 2 44 0 0 0 0 0.000 0 1 0 0 0 2
	2768 1883 2738 1883
2 3 0 2 44 -1 0 0 4 0.000 0 0 -1 0 0 5
   2738 1853
   2768 1853
   2768 1883
   2738 1883
   2738 1853
2 1 0 2 44 0 0 0 0 0.000 0 1 0 0 0 2
	2798 2093 2798 1913
2 1 0 2 44 0 0 0 0 0.000 0 1 0 0 0 2
	2798 1913 4806 1913
2 1 0 2 44 0 0 0 0 0.000 0 1 0 0 0 2
	4806 1913 4806 2093
2 1 0 2 44 0 0 0 0 0.000 0 1 0 0 0 2
	4806 2093 2798 2093
2 3 0 2 44 -1 0 0 4 0.000 0 0 -1 0 0 5
   2798 1913
   4806 1913
   4806 2093
   2798 2093
   2798 1913
4 0 44 0 0 12 8 0.000 4 9 60 4905 2063 [test] (4)\001
4 0 40 0 0 12 8 0.000 4 9 18 2280 1453 35%\001
2 1 0 2 44 0 0 0 0 0.000 0 1 0 0 0 2
	2508 1453 2551 1453
4 0 40 0 0 12 8 0.000 4 9 18 2490 2003 97%\001
2 1 0 2 44 0 0 0 0 0.000 0 1 0 0 0 2
	2508 2003 2753 2003
2 1 0 2 44 0 0 0 0 0.000 0 1 0 0 0 2
	2508 1728 2508 1453
2 1 0 2 44 0 0 0 0 0.000 0 1 0 0 0 2
	2508 1728 2508 2003
2 1 0 2 44 0 0 0 0 0.000 0 1 0 0 0 2
	2723 2295 2723 2205
2 1 0 2 44 0 0 0 0 0.000 0 1 0 0 0 2
	2723 2205 2813 2205
2 1 0 2 44 0 0 0 0 0.000 0 1 0 0 0 2
	2813 2205 2813 2295
2 1 0 2 44 0 0 0 0 0.000 0 1 0 0 0 2
	2813 2295 2723 2295
2 3 0 2 44 -1 0 0 4 0.000 0 0 -1 0 0 5
   2723 2205
   2813 2205
   2813 2295
   2723 2295
   2723 2205
4 0 44 0 0 12 8 0.000 4 9 246 2880 2310 BacMegat, BACILLUS MEGATERIUM, [outer], 9\001
2 1 0 2 44 0 0 0 0 0.000 0 1 0 0 0 2
	2722 2430 2722 2340
2 1 0 2 44 0 0 0 0 0.000 0 1 0 0 0 2
	2722 2340 2812 2340
2 1 0 2 44 0 0 0 0 0.000 0 1 0 0 0 2
	2812 2340 2812 2430
2 1 0 2 44 0 0 0 0 0.000 0 1 0 0 0 2
	2812 2430 2722 2430
2 3 0 2 44 -1 0 0 4 0.000 0 0 -1 0 0 5
   2722 2340
   2812 2340
   2812 2430
   2722 2430
   2722 2340
4 0 44 0 0 12 8 0.000 4 9 240 2865 2445 BacPaste, BACILLUS PASTEURII, [outer], 9\001
2 1 0 2 44 0 0 0 0 0.000 0 1 0 0 0 2
	2606 2250 2768 2250
2 1 0 2 44 0 0 0 0 0.000 0 1 0 0 0 2
	2606 2385 2767 2385
2 1 0 2 44 0 0 0 0 0.000 0 1 0 0 0 2
	2606 2318 2606 2250
2 1 0 2 44 0 0 0 0 0.000 0 1 0 0 0 2
	2606 2318 2606 2385
4 0 40 0 0 12 8 0.000 4 9 18 2235 1728 <1%\001
2 1 0 2 44 0 0 0 0 0.000 0 1 0 0 0 2
	2508 1728 2508 1728
4 0 40 0 0 12 8 0.000 4 9 18 2340 2318 53%\001
2 1 0 2 44 0 0 0 0 0.000 0 1 0 0 0 2
	2508 2318 2606 2318
2 1 0 2 44 0 0 0 0 0.000 0 1 0 0 0 2
	2508 2023 2508 1728
2 1 0 2 44 0 0 0 0 0.000 0 1 0 0 0 2
	2508 2023 2508 2318
2 1 2 1 43 0 0 0 0 2.000 0 1 0 0 0 2
	2493 2498 8520 2498
2 1 2 1 43 0 0 0 0 2.000 0 1 0 0 0 2
	2493 518 2493 2498
2 1 0 2 44 0 0 0 0 0.000 0 1 0 0 0 2
	2478 533 2478 503
2 1 0 2 44 0 0 0 0 0.000 0 1 0 0 0 2
	2478 503 2508 503
2 1 0 2 44 0 0 0 0 0.000 0 1 0 0 0 2
	2508 503 2508 533
2 1 0 2 44 0 0 0 0 0.000 0 1 0 0 0 2
	2508 533 2478 533
2 3 0 2 44 -1 0 0 4 0.000 0 0 -1 0 0 5
   2478 503
   2508 503
   2508 533
   2478 533
   2478 503
2 1 0 2 44 0 0 0 0 0.000 0 1 0 0 0 2
	2470 2678 2470 2588
2 1 0 2 44 0 0 0 0 0.000 0 1 0 0 0 2
	2470 2588 2560 2588
2 1 0 2 44 0 0 0 0 0.000 0 1 0 0 0 2
	2560 2588 2560 2678
2 1 0 2 44 0 0 0 0 0.000 0 1 0 0 0 2
	2560 2678 2470 2678
2 3 0 2 44 -1 0 0 4 0.000 0 0 -1 0 0 5
   2470 2588
   2560 2588
   2560 2678
   2470 2678
   2470 2588
4 0 44 0 0 12 8 0.000 4 9 216 2625 2693 PlaCitre, PLANOCOCCUS CITREUS, [], 6\001
2 1 0 2 44 0 0 0 0 0.000 0 1 0 0 0 2
	2501 2813 2501 2723
2 1 0 2 44 0 0 0 0 0.000 0 1 0 0 0 2
	2501 2723 2591 2723
2 1 0 2 44 0 0 0 0 0.000 0 1 0 0 0 2
	2591 2723 2591 2813
2 1 0 2 44 0 0 0 0 0.000 0 1 0 0 0 2
	2591 2813 2501 2813
2 3 0 2 44 -1 0 0 4 0.000 0 0 -1 0 0 5
   2501 2723
   2591 2723
   2591 2813
   2501 2813
   2501 2723
4 0 44 0 0 12 8 0.000 4 9 216 2655 2828 PlaKocur, PLANOCOCCUS KOCURII, [], 6\001
2 1 0 2 44 0 0 0 0 0.000 0 1 0 0 0 2
	2483 2633 2515 2633
2 1 0 2 44 0 0 0 0 0.000 0 1 0 0 0 2
	2483 2768 2546 2768
2 1 0 2 44 0 0 0 0 0.000 0 1 0 0 0 2
	2483 2700 2483 2633
2 1 0 2 44 0 0 0 0 0.000 0 1 0 0 0 2
	2483 2700 2483 2768
4 0 40 0 0 12 8 0.000 4 9 24 2145 2023 100%\001
2 1 0 2 44 0 0 0 0 0.000 0 1 0 0 0 2
	1969 2023 2508 2023
4 0 40 0 0 12 8 0.000 4 9 24 2130 2700 100%\001
2 1 0 2 44 0 0 0 0 0.000 0 1 0 0 0 2
	1969 2700 2483 2700
2 1 0 2 44 0 0 0 0 0.000 0 1 0 0 0 2
	1969 2361 1969 2023
2 1 0 2 44 0 0 0 0 0.000 0 1 0 0 0 2
	1969 2361 1969 2700
2 1 0 2 44 0 0 0 0 0.000 0 1 0 0 0 2
	6768 2948 6768 2858
2 1 0 2 44 0 0 0 0 0.000 0 1 0 0 0 2
	6768 2858 6858 2858
2 1 0 2 44 0 0 0 0 0.000 0 1 0 0 0 2
	6858 2858 6858 2948
2 1 0 2 44 0 0 0 0 0.000 0 1 0 0 0 2
	6858 2948 6768 2948
2 3 0 2 44 -1 0 0 4 0.000 0 0 -1 0 0 5
   6768 2858
   6858 2858
   6858 2948
   6768 2948
   6768 2858
4 0 44 0 0 12 8 0.000 4 9 186 6915 2963 BacSpec2, BACILLUS SPEC., [], 9\001
2 1 0 2 44 0 0 0 0 0.000 0 1 0 0 0 2
	7507 3083 7507 2993
2 1 0 2 44 0 0 0 0 0.000 0 1 0 0 0 2
	7507 2993 7597 2993
2 1 0 2 44 0 0 0 0 0.000 0 1 0 0 0 2
	7597 2993 7597 3083
2 1 0 2 44 0 0 0 0 0.000 0 1 0 0 0 2
	7597 3083 7507 3083
2 3 0 2 44 -1 0 0 4 0.000 0 0 -1 0 0 5
   7507 2993
   7597 2993
   7597 3083
   7507 3083
   7507 2993
4 0 44 0 0 12 8 0.000 4 9 204 7650 3098 BacSubt2, BACILLUS SUBTILIS, [], 9\001
2 1 0 2 44 0 0 0 0 0.000 0 1 0 0 0 2
	6602 2903 6813 2903
2 1 0 2 44 0 0 0 0 0.000 0 1 0 0 0 2
	6602 3038 7552 3038
2 1 0 2 44 0 0 0 0 0.000 0 1 0 0 0 2
	6602 2970 6602 2903
2 1 0 2 44 0 0 0 0 0.000 0 1 0 0 0 2
	6602 2970 6602 3038
2 1 0 2 44 0 0 0 0 0.000 0 1 0 0 0 2
	2638 3218 2638 3128
2 1 0 2 44 0 0 0 0 0.000 0 1 0 0 0 2
	2638 3128 2728 3128
2 1 0 2 44 0 0 0 0 0.000 0 1 0 0 0 2
	2728 3128 2728 3218
2 1 0 2 44 0 0 0 0 0.000 0 1 0 0 0 2
	2728 3218 2638 3218
2 3 0 2 44 -1 0 0 4 0.000 0 0 -1 0 0 5
   2638 3128
   2728 3128
   2728 3218
   2638 3218
   2638 3128
4 0 44 0 0 12 8 0.000 4 9 234 2790 3233 BacLich2, BACILLUS LICHENIFORMIS, [], 9\001
4 0 40 0 0 12 8 0.000 4 9 24 6240 2970 100%\001
2 1 0 2 44 0 0 0 0 0.000 0 1 0 0 0 2
	2105 2970 6602 2970
2 1 0 2 44 0 0 0 0 0.000 0 1 0 0 0 2
	2105 3173 2683 3173
2 1 0 2 44 0 0 0 0 0.000 0 1 0 0 0 2
	2105 3071 2105 2970
2 1 0 2 44 0 0 0 0 0.000 0 1 0 0 0 2
	2105 3071 2105 3173
4 0 40 0 0 12 8 0.000 4 9 18 1695 2361 <1%\001
2 1 0 2 44 0 0 0 0 0.000 0 1 0 0 0 2
	1937 2361 1969 2361
4 0 40 0 0 12 8 0.000 4 9 18 1830 3071 <1%\001
2 1 0 2 44 0 0 0 0 0.000 0 1 0 0 0 2
	1937 3071 2105 3071
2 1 0 2 44 0 0 0 0 0.000 0 1 0 0 0 2
	1937 2716 1937 2361
2 1 0 2 44 0 0 0 0 0.000 0 1 0 0 0 2
	1937 2716 1937 3071
2 1 0 1 43 0 0 0 0 0.000 0 1 0 0 0 2
	2457 3285 3255 3285
2 1 0 1 43 0 0 0 0 0.000 0 1 0 0 0 2
	2457 3285 2457 3555
2 1 0 1 43 0 0 0 0 0.000 0 1 0 0 0 2
	3255 3555 2457 3555
2 1 0 2 44 0 0 0 0 0.000 0 1 0 0 0 2
	2442 3300 2442 3270
2 1 0 2 44 0 0 0 0 0.000 0 1 0 0 0 2
	2442 3270 2472 3270
2 1 0 2 44 0 0 0 0 0.000 0 1 0 0 0 2
	2472 3270 2472 3300
2 1 0 2 44 0 0 0 0 0.000 0 1 0 0 0 2
	2472 3300 2442 3300
2 3 0 2 44 -1 0 0 4 0.000 0 0 -1 0 0 5
   2442 3270
   2472 3270
   2472 3300
   2442 3300
   2442 3270
2 1 0 2 44 0 0 0 0 0.000 0 1 0 0 0 2
	2502 3510 2502 3330
2 1 0 2 44 0 0 0 0 0.000 0 1 0 0 0 2
	2502 3330 2901 3330
2 1 0 2 44 0 0 0 0 0.000 0 1 0 0 0 2
	2901 3330 2901 3510
2 1 0 2 44 0 0 0 0 0.000 0 1 0 0 0 2
	2901 3510 2502 3510
2 3 0 2 44 -1 0 0 4 0.000 0 0 -1 0 0 5
   2502 3330
   2901 3330
   2901 3510
   2502 3510
   2502 3330
4 0 44 0 0 12 8 0.000 4 9 60 3000 3480 [test] (7)\001
2 1 0 2 44 0 0 0 0 0.000 0 1 0 0 0 2
	2242 3713 2242 3623
2 1 0 2 44 0 0 0 0 0.000 0 1 0 0 0 2
	2242 3623 2332 3623
2 1 0 2 44 0 0 0 0 0.000 0 1 0 0 0 2
	2332 3623 2332 3713
2 1 0 2 44 0 0 0 0 0.000 0 1 0 0 0 2
	2332 3713 2242 3713
2 3 0 2 44 -1 0 0 4 0.000 0 0 -1 0 0 5
   2242 3623
   2332 3623
   2332 3713
   2242 3713
   2242 3623
4 0 44 0 0 12 8 0.000 4 9 210 2385 3728 SprUreae, SPOROSARCINA UREAE, [], 8\001
4 0 40 0 0 12 8 0.000 4 9 24 2100 3420 100%\001
2 1 0 2 44 0 0 0 0 0.000 0 1 0 0 0 2
	1937 3420 2457 3420
2 1 0 2 44 0 0 0 0 0.000 0 1 0 0 0 2
	1937 3668 2287 3668
2 1 0 2 44 0 0 0 0 0.000 0 1 0 0 0 2
	1937 3544 1937 3420
2 1 0 2 44 0 0 0 0 0.000 0 1 0 0 0 2
	1937 3544 1937 3668
4 0 40 0 0 12 8 0.000 4 9 18 1665 2716 36%\001
2 1 0 2 44 0 0 0 0 0.000 0 1 0 0 0 2
	1904 2716 1937 2716
4 0 40 0 0 12 8 0.000 4 9 18 1665 3544 <1%\001
2 1 0 2 44 0 0 0 0 0.000 0 1 0 0 0 2
	1904 3544 1937 3544
2 1 0 2 44 0 0 0 0 0.000 0 1 0 0 0 2
	1904 3130 1904 2716
2 1 0 2 44 0 0 0 0 0.000 0 1 0 0 0 2
	1904 3130 1904 3544
2 1 2 1 43 0 0 0 0 2.000 0 1 0 0 0 2
	2233 3780 5045 3780
4 0 46 0 0 12 8 0.000 4 9 72 2280 3945 [outer] (11)\001
2 1 0 1 43 0 0 0 0 0.000 0 1 0 0 0 2
	3193 3960 4473 3960
2 1 0 1 43 0 0 0 0 0.000 0 1 0 0 0 2
	3193 3960 3193 4230
2 1 0 1 43 0 0 0 0 0.000 0 1 0 0 0 2
	4473 4230 3193 4230
2 1 0 2 46 0 0 0 0 0.000 0 1 0 0 0 2
	3178 3975 3178 3945
2 1 0 2 46 0 0 0 0 0.000 0 1 0 0 0 2
	3178 3945 3208 3945
2 1 0 2 46 0 0 0 0 0.000 0 1 0 0 0 2
	3208 3945 3208 3975
2 1 0 2 46 0 0 0 0 0.000 0 1 0 0 0 2
	3208 3975 3178 3975
2 3 0 2 46 -1 0 0 4 0.000 0 0 -1 0 0 5
   3178 3945
   3208 3945
   3208 3975
   3178 3975
   3178 3945
2 1 0 2 46 0 0 0 0 0.000 0 1 0 0 0 2
	3238 4185 3238 4005
2 1 0 2 46 0 0 0 0 0.000 0 1 0 0 0 2
	3238 4005 3878 4005
2 1 0 2 46 0 0 0 0 0.000 0 1 0 0 0 2
	3878 4005 3878 4185
2 1 0 2 46 0 0 0 0 0.000 0 1 0 0 0 2
	3878 4185 3238 4185
2 3 0 2 46 -1 0 0 4 0.000 0 0 -1 0 0 5
   3238 4005
   3878 4005
   3878 4185
   3238 4185
   3238 4005
4 0 46 0 0 12 8 0.000 4 9 66 3990 4155 [inner] (5)\001
4 0 57 0 0 12 8 0.000 4 9 252 3225 4403 CloInnoc, CLOSTRIDIUM INNOCUUM, [outer], 2\001
4 0 40 0 0 12 8 0.000 4 9 18 2925 4095 99%\001
2 1 0 2 46 0 0 0 0 0.000 0 1 0 0 0 2
	2467 4095 3193 4095
2 1 0 2 57 0 0 0 0 0.000 0 1 0 0 0 2
	2467 4343 3114 4343
2 1 0 2 46 0 0 0 0 0.000 0 1 0 0 0 2
	2467 4219 2467 4095
2 1 0 2 57 0 0 0 0 0.000 0 1 0 0 0 2
	2467 4219 2467 4343
4 0 56 0 0 12 8 0.000 4 9 264 3315 4538 AnrFurco, ANAERORHABDUS FURCOSUS, [outer], 1\001
4 0 40 0 0 12 8 0.000 4 9 18 2190 4219 33%\001
2 1 0 2 46 0 0 0 0 0.000 0 1 0 0 0 2
	2467 4219 2467 4219
2 1 0 2 56 0 0 0 0 0.000 0 1 0 0 0 2
	2467 4478 3211 4478
2 1 0 2 46 0 0 0 0 0.000 0 1 0 0 0 2
	2467 4348 2467 4219
2 1 0 2 56 0 0 0 0 0.000 0 1 0 0 0 2
	2467 4348 2467 4478
4 0 56 0 0 12 8 0.000 4 9 252 3045 4673 AchModic, ACHOLEPLASMA MODICUM, [outer], 1\001
4 0 40 0 0 12 8 0.000 4 9 18 2190 4348 37%\001
2 1 0 2 46 0 0 0 0 0.000 0 1 0 0 0 2
	2394 4348 2467 4348
2 1 0 2 56 0 0 0 0 0.000 0 1 0 0 0 2
	2394 4613 2943 4613
2 1 0 2 46 0 0 0 0 0.000 0 1 0 0 0 2
	2394 4480 2394 4348
2 1 0 2 56 0 0 0 0 0.000 0 1 0 0 0 2
	2394 4480 2394 4613
4 0 54 0 0 12 8 0.000 4 9 276 4080 4808 McpGalli, MYCOPLASMA GALLISEPTICUM, [outer], 5\001
4 0 46 0 0 12 8 0.000 4 9 246 5145 4943 UreUreal, UREAPLASMA UREALYTICUM, [outer]\001
2 1 0 2 54 0 0 0 0 0.000 0 1 0 0 0 2
	2962 4748 3972 4748
2 1 0 2 46 0 0 0 0 0.000 0 1 0 0 0 2
	2962 4883 5045 4883
2 1 0 2 54 0 0 0 0 0.000 0 1 0 0 0 2
	2962 4815 2962 4748
2 1 0 2 46 0 0 0 0 0.000 0 1 0 0 0 2
	2962 4815 2962 4883
4 0 54 0 0 12 8 0.000 4 9 258 3510 5078 McpPneum, MYCOPLASMA PNEUMONIAE, [outer], 5\001
4 0 40 0 0 12 8 0.000 4 9 12 2775 4815 6%\001
2 1 0 2 46 0 0 0 0 0.000 0 1 0 0 0 2
	2552 4815 2962 4815
2 1 0 2 54 0 0 0 0 0.000 0 1 0 0 0 2
	2552 5018 3407 5018
2 1 0 2 46 0 0 0 0 0.000 0 1 0 0 0 2
	2552 4916 2552 4815
2 1 0 2 54 0 0 0 0 0.000 0 1 0 0 0 2
	2552 4916 2552 5018
4 0 40 0 0 12 8 0.000 4 9 18 2130 4480 60%\001
2 1 0 2 46 0 0 0 0 0.000 0 1 0 0 0 2
	2248 4480 2394 4480
4 0 40 0 0 12 8 0.000 4 9 18 2280 4916 83%\001
2 1 0 2 46 0 0 0 0 0.000 0 1 0 0 0 2
	2248 4916 2552 4916
2 1 0 2 46 0 0 0 0 0.000 0 1 0 0 0 2
	2248 4698 2248 4480
2 1 0 2 46 0 0 0 0 0.000 0 1 0 0 0 2
	2248 4698 2248 4916
2 1 2 1 43 0 0 0 0 2.000 0 1 0 0 0 2
	2233 5130 5045 5130
2 1 2 1 43 0 0 0 0 2.000 0 1 0 0 0 2
	2233 3780 2233 5130
2 1 0 2 46 0 0 0 0 0.000 0 1 0 0 0 2
	2218 3795 2218 3765
2 1 0 2 46 0 0 0 0 0.000 0 1 0 0 0 2
	2218 3765 2248 3765
2 1 0 2 46 0 0 0 0 0.000 0 1 0 0 0 2
	2248 3765 2248 3795
2 1 0 2 46 0 0 0 0 0.000 0 1 0 0 0 2
	2248 3795 2218 3795
2 3 0 2 46 -1 0 0 4 0.000 0 0 -1 0 0 5
   2218 3765
   2248 3765
   2248 3795
   2218 3795
   2218 3765
4 0 58 0 0 12 8 0.000 4 9 240 4905 5325 FusNucle, FUSOBACTERIUM NUCLEATUM, [], 3\001
4 0 46 0 0 12 8 0.000 4 9 174 6210 5460 SubCremo, #SUBSP CREMORIS, []\001
2 1 0 2 58 0 0 0 0 0.000 0 1 0 0 0 2
	4282 5265 4799 5265
2 1 0 2 46 0 0 0 0 0.000 0 1 0 0 0 2
	4282 5400 6111 5400
2 1 0 2 58 0 0 0 0 0.000 0 1 0 0 0 2
	4282 5333 4282 5265
2 1 0 2 46 0 0 0 0 0.000 0 1 0 0 0 2
	4282 5333 4282 5400
4 0 58 0 0 12 8 0.000 4 9 246 4695 5595 FusMorti, FUSOBACTERIUM MORTIFERUM, [], 3\001
4 0 40 0 0 12 8 0.000 4 9 18 4005 5333 44%\001
2 1 0 2 46 0 0 0 0 0.000 0 1 0 0 0 2
	4201 5333 4282 5333
2 1 0 2 58 0 0 0 0 0.000 0 1 0 0 0 2
	4201 5535 4589 5535
2 1 0 2 46 0 0 0 0 0.000 0 1 0 0 0 2
	4201 5434 4201 5333
2 1 0 2 58 0 0 0 0 0.000 0 1 0 0 0 2
	4201 5434 4201 5535
4 0 58 0 0 12 8 0.000 4 9 222 4320 5730 FusVariu, FUSOBACTERIUM VARIUM, [], 3\001
4 0 40 0 0 12 8 0.000 4 9 12 4020 5434 2%\001
2 1 0 2 46 0 0 0 0 0.000 0 1 0 0 0 2
	3895 5434 4201 5434
2 1 0 2 58 0 0 0 0 0.000 0 1 0 0 0 2
	3895 5670 4219 5670
2 1 0 2 46 0 0 0 0 0.000 0 1 0 0 0 2
	3895 5552 3895 5434
2 1 0 2 58 0 0 0 0 0.000 0 1 0 0 0 2
	3895 5552 3895 5670
4 0 40 0 0 12 8 0.000 4 9 18 1980 4698 82%\001
2 1 0 2 46 0 0 0 0 0.000 0 1 0 0 0 2
	1900 4698 2248 4698
4 0 40 0 0 12 8 0.000 4 9 24 3540 5552 100%\001
2 1 0 2 46 0 0 0 0 0.000 0 1 0 0 0 2
	1900 5552 3895 5552
2 1 0 2 46 0 0 0 0 0.000 0 1 0 0 0 2
	1900 5125 1900 4698
2 1 0 2 46 0 0 0 0 0.000 0 1 0 0 0 2
	1900 5125 1900 5552
4 0 40 0 0 12 8 0.000 4 9 18 1635 3130 74%\001
2 1 0 2 44 0 0 0 0 0.000 0 1 0 0 0 2
	1743 3130 1904 3130
4 0 40 0 0 12 8 0.000 4 9 18 1635 5125 55%\001
2 1 0 2 46 0 0 0 0 0.000 0 1 0 0 0 2
	1743 5125 1900 5125
2 1 0 2 44 0 0 0 0 0.000 0 1 0 0 0 2
	1743 4128 1743 3130
2 1 0 2 46 0 0 0 0 0.000 0 1 0 0 0 2
	1743 4128 1743 5125
4 0 57 0 0 12 8 0.000 4 9 246 3075 5865 CloBifer, CLOSTRIDIUM BIFERMENTANS, [], 2\001
4 0 40 0 0 12 8 0.000 4 9 18 1470 4128 <1%\001
2 1 0 2 45 0 0 0 0 0.000 0 1 0 0 0 2
	1532 4128 1743 4128
2 1 0 2 57 0 0 0 0 0.000 0 1 0 0 0 2
	1532 5805 2963 5805
2 1 0 2 45 0 0 0 0 0.000 0 1 0 0 0 2
	1532 4966 1532 4128
2 1 0 2 57 0 0 0 0 0.000 0 1 0 0 0 2
	1532 4966 1532 5805
4 0 46 0 0 12 8 0.000 4 9 222 3240 6000 DeiRadio, DEINOCOCCUS RADIODURANS, []\001
4 0 46 0 0 12 8 0.000 4 9 168 2790 6135 OctSprin, OCTOPUS SPRING, []\001
2 1 0 2 46 0 0 0 0 0.000 0 1 0 0 0 2
	2193 5940 3131 5940
2 1 0 2 46 0 0 0 0 0.000 0 1 0 0 0 2
	2193 6075 2685 6075
2 1 0 2 46 0 0 0 0 0.000 0 1 0 0 0 2
	2193 6008 2193 5940
2 1 0 2 46 0 0 0 0 0.000 0 1 0 0 0 2
	2193 6008 2193 6075
4 0 64 0 0 12 8 0.000 4 9 192 2400 6270 BacBrevi, BACILLUS BREVIS, [], 9\001
4 0 40 0 0 12 8 0.000 4 9 18 1920 6008 87%\001
2 1 0 2 46 0 0 0 0 0.000 0 1 0 0 0 2
	1795 6008 2193 6008
2 1 0 2 64 0 0 0 0 0.000 0 1 0 0 0 2
	1795 6210 2300 6210
2 1 0 2 46 0 0 0 0 0.000 0 1 0 0 0 2
	1795 6109 1795 6008
2 1 0 2 64 0 0 0 0 0.000 0 1 0 0 0 2
	1795 6109 1795 6210
4 0 64 0 0 12 8 0.000 4 9 240 2265 6405 BacAcido, BACILLUS ACIDOCALDARIUS, [], 9\001
4 0 40 0 0 12 8 0.000 4 9 18 1530 6109 49%\001
2 1 0 2 46 0 0 0 0 0.000 0 1 0 0 0 2
	1691 6109 1795 6109
2 1 0 2 64 0 0 0 0 0.000 0 1 0 0 0 2
	1691 6345 2164 6345
2 1 0 2 46 0 0 0 0 0.000 0 1 0 0 0 2
	1691 6227 1691 6109
2 1 0 2 64 0 0 0 0 0.000 0 1 0 0 0 2
	1691 6227 1691 6345
4 0 40 0 0 12 8 0.000 4 9 18 1260 4966 53%\001
2 1 0 2 45 0 0 0 0 0.000 0 1 0 0 0 2
	1418 4966 1532 4966
4 0 40 0 0 12 8 0.000 4 9 18 1425 6227 97%\001
2 1 0 2 46 0 0 0 0 0.000 0 1 0 0 0 2
	1418 6227 1691 6227
2 1 0 2 45 0 0 0 0 0.000 0 1 0 0 0 2
	1418 5597 1418 4966
2 1 0 2 46 0 0 0 0 0.000 0 1 0 0 0 2
	1418 5597 1418 6227
4 0 64 0 0 12 8 0.000 4 9 264 2070 6540 BacStea2, BACILLUS STEAROTHERMOPHILUS, [], 9\001
4 0 64 0 0 12 8 0.000 4 9 264 1920 6675 BacStear, BACILLUS STEAROTHERMOPHILUS, [], 9\001
2 1 0 2 64 0 0 0 0 0.000 0 1 0 0 0 2
	1781 6480 1970 6480
2 1 0 2 64 0 0 0 0 0.000 0 1 0 0 0 2
	1781 6615 1812 6615
2 1 0 2 64 0 0 0 0 0.000 0 1 0 0 0 2
	1781 6548 1781 6480
2 1 0 2 64 0 0 0 0 0.000 0 1 0 0 0 2
	1781 6548 1781 6615
4 0 56 0 0 12 8 0.000 4 9 228 2235 6810 AmpXylan, AMPHIBACILLUS XYLANUS, [], 1\001
4 0 40 0 0 12 8 0.000 4 9 18 1515 6548 86%\001
2 1 0 2 64 0 0 0 0 0.000 0 1 0 0 0 2
	1554 6548 1781 6548
2 1 0 2 56 0 0 0 0 0.000 0 1 0 0 0 2
	1554 6750 2127 6750
2 1 0 2 64 0 0 0 0 0.000 0 1 0 0 0 2
	1554 6649 1554 6548
2 1 0 2 56 0 0 0 0 0.000 0 1 0 0 0 2
	1554 6649 1554 6750
4 0 40 0 0 12 8 0.000 4 9 18 1155 5597 <1%\001
2 1 0 2 45 0 0 0 0 0.000 0 1 0 0 0 2
	1277 5597 1418 5597
4 0 40 0 0 12 8 0.000 4 9 18 1290 6649 97%\001
2 1 0 2 46 0 0 0 0 0.000 0 1 0 0 0 2
	1277 6649 1554 6649
2 1 0 2 45 0 0 0 0 0.000 0 1 0 0 0 2
	1277 6123 1277 5597
2 1 0 2 46 0 0 0 0 0.000 0 1 0 0 0 2
	1277 6123 1277 6649
4 0 57 0 0 12 8 0.000 4 9 228 3810 6945 CloButy2, CLOSTRIDIUM BUTYRICUM, [], 2\001
4 0 57 0 0 12 8 0.000 4 9 228 3780 7080 CloButyr, CLOSTRIDIUM BUTYRICUM, [], 2\001
2 1 0 2 57 0 0 0 0 0.000 0 1 0 0 0 2
	3674 6885 3706 6885
2 1 0 2 57 0 0 0 0 0.000 0 1 0 0 0 2
	3674 7020 3674 7020
2 1 0 2 57 0 0 0 0 0.000 0 1 0 0 0 2
	3674 6953 3674 6885
2 1 0 2 57 0 0 0 0 0.000 0 1 0 0 0 2
	3674 6953 3674 7020
4 0 57 0 0 12 8 0.000 4 9 210 2145 7215 CloCarni, CLOSTRIDIUM CARNIS, [], 2\001
4 0 40 0 0 12 8 0.000 4 9 24 3315 6953 100%\001
2 1 0 2 57 0 0 0 0 0.000 0 1 0 0 0 2
	1593 6953 3674 6953
2 1 0 2 57 0 0 0 0 0.000 0 1 0 0 0 2
	1593 7155 2035 7155
2 1 0 2 57 0 0 0 0 0.000 0 1 0 0 0 2
	1593 7054 1593 6953
2 1 0 2 57 0 0 0 0 0.000 0 1 0 0 0 2
	1593 7054 1593 7155
4 0 57 0 0 12 8 0.000 4 9 246 2325 7350 CloPaste, CLOSTRIDIUM PASTEURIANUM, [], 2\001
4 0 40 0 0 12 8 0.000 4 9 18 1320 7054 33%\001
2 1 0 2 57 0 0 0 0 0.000 0 1 0 0 0 2
	1556 7054 1593 7054
2 1 0 2 57 0 0 0 0 0.000 0 1 0 0 0 2
	1556 7290 2218 7290
2 1 0 2 57 0 0 0 0 0.000 0 1 0 0 0 2
	1556 7172 1556 7054
2 1 0 2 57 0 0 0 0 0.000 0 1 0 0 0 2
	1556 7172 1556 7290
4 0 40 0 0 12 8 0.000 4 9 18 1005 6123 72%\001
2 1 0 2 45 0 0 0 0 0.000 0 1 0 0 0 2
	1073 6123 1277 6123
4 0 40 0 0 12 8 0.000 4 9 18 1290 7172 97%\001
2 1 0 2 57 0 0 0 0 0.000 0 1 0 0 0 2
	1073 7172 1556 7172
2 1 0 2 45 0 0 0 0 0.000 0 1 0 0 0 2
	1073 6647 1073 6123
2 1 0 2 57 0 0 0 0 0.000 0 1 0 0 0 2
	1073 6647 1073 7172
4 0 56 0 0 12 8 0.000 4 9 246 2775 7485 AurTesta, AUREOBACTERIUM TESTACEUM, [], 1\001
4 0 57 0 0 12 8 0.000 4 9 252 2835 7620 CorAquat, CORYNEBACTERIUM AQUATICUM, [], 2\001
2 1 0 2 56 0 0 0 0 0.000 0 1 0 0 0 2
	2663 7425 2663 7425
2 1 0 2 57 0 0 0 0 0.000 0 1 0 0 0 2
	2663 7560 2724 7560
2 1 0 2 56 0 0 0 0 0.000 0 1 0 0 0 2
	2663 7493 2663 7425
2 1 0 2 57 0 0 0 0 0.000 0 1 0 0 0 2
	2663 7493 2663 7560
4 0 63 0 0 12 8 0.000 4 9 222 2805 7755 StpGrise, STREPTOMYCES GRISEUS, [], 8\001
4 0 63 0 0 12 8 0.000 4 9 222 2865 7890 StpRimos, STREPTOMYCES RIMOSUS, [], 8\001
2 1 0 2 63 0 0 0 0 0.000 0 1 0 0 0 2
	2665 7695 2695 7695
2 1 0 2 63 0 0 0 0 0.000 0 1 0 0 0 2
	2665 7830 2757 7830
2 1 0 2 63 0 0 0 0 0.000 0 1 0 0 0 2
	2665 7763 2665 7695
2 1 0 2 63 0 0 0 0 0.000 0 1 0 0 0 2
	2665 7763 2665 7830
4 0 40 0 0 12 8 0.000 4 9 18 2400 7493 91%\001
2 1 0 2 46 0 0 0 0 0.000 0 1 0 0 0 2
	2477 7493 2663 7493
4 0 40 0 0 12 8 0.000 4 9 18 2400 7763 91%\001
2 1 0 2 63 0 0 0 0 0.000 0 1 0 0 0 2
	2477 7763 2665 7763
2 1 0 2 46 0 0 0 0 0.000 0 1 0 0 0 2
	2477 7628 2477 7493
2 1 0 2 63 0 0 0 0 0.000 0 1 0 0 0 2
	2477 7628 2477 7763
4 0 57 0 0 12 8 0.000 4 9 234 2730 8025 CurCitre, CURTOBACTERIUM CITREUM, [], 2\001
4 0 40 0 0 12 8 0.000 4 9 18 2205 7628 <1%\001
2 1 0 2 46 0 0 0 0 0.000 0 1 0 0 0 2
	2414 7628 2477 7628
2 1 0 2 57 0 0 0 0 0.000 0 1 0 0 0 2
	2414 7965 2629 7965
2 1 0 2 46 0 0 0 0 0.000 0 1 0 0 0 2
	2414 7796 2414 7628
2 1 0 2 57 0 0 0 0 0.000 0 1 0 0 0 2
	2414 7796 2414 7965
4 0 57 0 0 12 8 0.000 4 9 258 4065 8160 CorGluta, CORYNEBACTERIUM GLUTAMICUM, [], 2\001
4 0 63 0 0 12 8 0.000 4 9 210 2925 8295 SapGrand, SAPROSPIRA GRANDIS, [], 8\001
2 1 0 2 57 0 0 0 0 0.000 0 1 0 0 0 2
	2359 8100 3963 8100
2 1 0 2 63 0 0 0 0 0.000 0 1 0 0 0 2
	2359 8235 2824 8235
2 1 0 2 57 0 0 0 0 0.000 0 1 0 0 0 2
	2359 8168 2359 8100
2 1 0 2 63 0 0 0 0 0.000 0 1 0 0 0 2
	2359 8168 2359 8235
4 0 46 0 0 12 8 0.000 4 9 132 2580 8430 Jcm19710, JCM 1971, []\001
4 0 46 0 0 12 8 0.000 4 9 150 2610 8565 StraiCnf, #STRAIN CNF, []\001
2 1 0 2 46 0 0 0 0 0.000 0 1 0 0 0 2
	2296 8370 2480 8370
2 1 0 2 46 0 0 0 0 0.000 0 1 0 0 0 2
	2296 8505 2511 8505
2 1 0 2 46 0 0 0 0 0.000 0 1 0 0 0 2
	2296 8438 2296 8370
2 1 0 2 46 0 0 0 0 0.000 0 1 0 0 0 2
	2296 8438 2296 8505
4 0 40 0 0 12 8 0.000 4 9 18 2085 8168 56%\001
2 1 0 2 46 0 0 0 0 0.000 0 1 0 0 0 2
	2167 8168 2359 8168
4 0 40 0 0 12 8 0.000 4 9 18 2025 8438 60%\001
2 1 0 2 46 0 0 0 0 0.000 0 1 0 0 0 2
	2167 8438 2296 8438
2 1 0 2 46 0 0 0 0 0.000 0 1 0 0 0 2
	2167 8303 2167 8168
2 1 0 2 46 0 0 0 0 0.000 0 1 0 0 0 2
	2167 8303 2167 8438
4 0 40 0 0 12 8 0.000 4 9 24 2055 7796 100%\001
2 1 0 2 46 0 0 0 0 0.000 0 1 0 0 0 2
	2035 7796 2414 7796
4 0 40 0 0 12 8 0.000 4 9 18 1890 8303 60%\001
2 1 0 2 46 0 0 0 0 0.000 0 1 0 0 0 2
	2035 8303 2167 8303
2 1 0 2 46 0 0 0 0 0.000 0 1 0 0 0 2
	2035 8049 2035 7796
2 1 0 2 46 0 0 0 0 0.000 0 1 0 0 0 2
	2035 8049 2035 8303
4 0 64 0 0 12 8 0.000 4 9 228 2970 8700 BreLinen, BREVIBACTERIUM LINENS, [], 9\001
4 0 54 0 0 12 8 0.000 4 9 210 2670 8835 MicLuteu, MICROCOCCUS LUTEUS, [], 5\001
2 1 0 2 64 0 0 0 0 0.000 0 1 0 0 0 2
	2310 8640 2863 8640
2 1 0 2 54 0 0 0 0 0.000 0 1 0 0 0 2
	2310 8775 2559 8775
2 1 0 2 64 0 0 0 0 0.000 0 1 0 0 0 2
	2310 8708 2310 8640
2 1 0 2 54 0 0 0 0 0.000 0 1 0 0 0 2
	2310 8708 2310 8775
4 0 40 0 0 12 8 0.000 4 9 18 1770 8049 17%\001
2 1 0 2 46 0 0 0 0 0.000 0 1 0 0 0 2
	1968 8049 2035 8049
4 0 40 0 0 12 8 0.000 4 9 18 2040 8708 99%\001
2 1 0 2 46 0 0 0 0 0.000 0 1 0 0 0 2
	1968 8708 2310 8708
2 1 0 2 46 0 0 0 0 0.000 0 1 0 0 0 2
	1968 8378 1968 8049
2 1 0 2 46 0 0 0 0 0.000 0 1 0 0 0 2
	1968 8378 1968 8708
4 0 57 0 0 12 8 0.000 4 9 228 2160 8970 CelBiazo, CELLULOMONAS BIAZOTEA, [], 2\001
4 0 62 0 0 12 8 0.000 4 9 246 2130 9105 RhoEryth, RHODOCOCCUS ERYTHROPOLIS, [], 7\001
2 1 0 2 57 0 0 0 0 0.000 0 1 0 0 0 2
	1993 8910 2054 8910
2 1 0 2 62 0 0 0 0 0.000 0 1 0 0 0 2
	1993 9045 2023 9045
2 1 0 2 57 0 0 0 0 0.000 0 1 0 0 0 2
	1993 8978 1993 8910
2 1 0 2 62 0 0 0 0 0.000 0 1 0 0 0 2
	1993 8978 1993 9045
4 0 40 0 0 12 8 0.000 4 9 18 1695 8378 75%\001
2 1 0 2 46 0 0 0 0 0.000 0 1 0 0 0 2
	1838 8378 1968 8378
4 0 40 0 0 12 8 0.000 4 9 18 1725 8978 74%\001
2 1 0 2 46 0 0 0 0 0.000 0 1 0 0 0 2
	1838 8978 1993 8978
2 1 0 2 46 0 0 0 0 0.000 0 1 0 0 0 2
	1838 8678 1838 8378
2 1 0 2 46 0 0 0 0 0.000 0 1 0 0 0 2
	1838 8678 1838 8978
4 0 56 0 0 12 8 0.000 4 9 246 2355 9240 ArtGlob2, ARTHROBACTER GLOBIFORMIS, [], 1\001
4 0 56 0 0 12 8 0.000 4 9 270 2415 9375 ArtPolyc, ARTHROBACTER POLYCHROMOGENES, [], 1\001
2 1 0 2 56 0 0 0 0 0.000 0 1 0 0 0 2
	2245 9180 2245 9180
2 1 0 2 56 0 0 0 0 0.000 0 1 0 0 0 2
	2245 9315 2306 9315
2 1 0 2 56 0 0 0 0 0.000 0 1 0 0 0 2
	2245 9248 2245 9180
2 1 0 2 56 0 0 0 0 0.000 0 1 0 0 0 2
	2245 9248 2245 9315
4 0 56 0 0 12 8 0.000 4 9 246 2385 9510 ArtGlobi, ARTHROBACTER GLOBIFORMIS, [], 1\001
4 0 40 0 0 12 8 0.000 4 9 18 1980 9248 <1%\001
2 1 0 2 56 0 0 0 0 0.000 0 1 0 0 0 2
	2245 9248 2245 9248
2 1 0 2 56 0 0 0 0 0.000 0 1 0 0 0 2
	2245 9450 2276 9450
2 1 0 2 56 0 0 0 0 0.000 0 1 0 0 0 2
	2245 9349 2245 9248
2 1 0 2 56 0 0 0 0 0.000 0 1 0 0 0 2
	2245 9349 2245 9450
4 0 64 0 0 12 8 0.000 4 9 240 2355 9645 BreHelvo, BREVIBACTERIUM HELVOLUM, [], 9\001
4 0 40 0 0 12 8 0.000 4 9 18 1980 9349 <1%\001
2 1 0 2 56 0 0 0 0 0.000 0 1 0 0 0 2
	2183 9349 2245 9349
2 1 0 2 64 0 0 0 0 0.000 0 1 0 0 0 2
	2183 9585 2245 9585
2 1 0 2 56 0 0 0 0 0.000 0 1 0 0 0 2
	2183 9467 2183 9349
2 1 0 2 64 0 0 0 0 0.000 0 1 0 0 0 2
	2183 9467 2183 9585
4 0 46 0 0 12 8 0.000 4 9 156 2355 9780 StraNctc, #STRAIN NCTC, []\001
4 0 40 0 0 12 8 0.000 4 9 18 1920 9467 40%\001
2 1 0 2 46 0 0 0 0 0.000 0 1 0 0 0 2
	2121 9467 2183 9467
2 1 0 2 46 0 0 0 0 0.000 0 1 0 0 0 2
	2121 9720 2244 9720
2 1 0 2 46 0 0 0 0 0.000 0 1 0 0 0 2
	2121 9593 2121 9467
2 1 0 2 46 0 0 0 0 0.000 0 1 0 0 0 2
	2121 9593 2121 9720
4 0 54 0 0 12 8 0.000 4 9 252 2355 9915 MicLysod, MICROCOCCUS LYSODEIKTICUS, [], 5\001
4 0 40 0 0 12 8 0.000 4 9 18 1845 9593 <1%\001
2 1 0 2 46 0 0 0 0 0.000 0 1 0 0 0 2
	1995 9593 2121 9593
2 1 0 2 54 0 0 0 0 0.000 0 1 0 0 0 2
	1995 9855 2243 9855
2 1 0 2 46 0 0 0 0 0.000 0 1 0 0 0 2
	1995 9724 1995 9593
2 1 0 2 54 0 0 0 0 0.000 0 1 0 0 0 2
	1995 9724 1995 9855
4 0 58 0 0 12 8 0.000 4 9 192 2190 10050 FraStrai, FRANKIA #STRAIN, [], 3\001
4 0 62 0 0 12 8 0.000 4 9 222 2190 10185 RhoFasci, RHODOCOCCUS FASCIANS, [], 7\001
2 1 0 2 58 0 0 0 0 0.000 0 1 0 0 0 2
	1839 9990 2085 9990
2 1 0 2 62 0 0 0 0 0.000 0 1 0 0 0 2
	1839 10125 2089 10125
2 1 0 2 58 0 0 0 0 0.000 0 1 0 0 0 2
	1839 10058 1839 9990
2 1 0 2 62 0 0 0 0 0.000 0 1 0 0 0 2
	1839 10058 1839 10125
4 0 40 0 0 12 8 0.000 4 9 18 1725 9724 86%\001
2 1 0 2 46 0 0 0 0 0.000 0 1 0 0 0 2
	1774 9724 1995 9724
4 0 40 0 0 12 8 0.000 4 9 18 1575 10058 40%\001
2 1 0 2 46 0 0 0 0 0.000 0 1 0 0 0 2
	1774 10058 1839 10058
2 1 0 2 46 0 0 0 0 0.000 0 1 0 0 0 2
	1774 9891 1774 9724
2 1 0 2 46 0 0 0 0 0.000 0 1 0 0 0 2
	1774 9891 1774 10058
4 0 40 0 0 12 8 0.000 4 9 18 1575 8678 40%\001
2 1 0 2 46 0 0 0 0 0.000 0 1 0 0 0 2
	1774 8678 1838 8678
4 0 40 0 0 12 8 0.000 4 9 18 1500 9891 <1%\001
2 1 0 2 46 0 0 0 0 0.000 0 1 0 0 0 2
	1774 9891 1774 9891
2 1 0 2 46 0 0 0 0 0.000 0 1 0 0 0 2
	1774 9284 1774 8678
2 1 0 2 46 0 0 0 0 0.000 0 1 0 0 0 2
	1774 9284 1774 9891
4 0 54 0 0 12 8 0.000 4 9 216 2595 10320 MycBovis, MYCOBACTERIUM BOVIS, [], 5\001
4 0 54 0 0 12 8 0.000 4 9 222 2790 10455 MycLepra, MYCOBACTERIUM LEPRAE, [], 5\001
2 1 0 2 54 0 0 0 0 0.000 0 1 0 0 0 2
	2430 10260 2493 10260
2 1 0 2 54 0 0 0 0 0.000 0 1 0 0 0 2
	2430 10395 2685 10395
2 1 0 2 54 0 0 0 0 0.000 0 1 0 0 0 2
	2430 10328 2430 10260
2 1 0 2 54 0 0 0 0 0.000 0 1 0 0 0 2
	2430 10328 2430 10395
4 0 54 0 0 12 8 0.000 4 9 216 2625 10590 MycPhlei, MYCOBACTERIUM PHLEI, [], 5\001
4 0 54 0 0 12 8 0.000 4 9 240 2595 10725 MycSmegm, MYCOBACTERIUM SMEGMATIS, [], 5\001
2 1 0 2 54 0 0 0 0 0.000 0 1 0 0 0 2
	2493 10530 2524 10530
2 1 0 2 54 0 0 0 0 0.000 0 1 0 0 0 2
	2493 10665 2493 10665
2 1 0 2 54 0 0 0 0 0.000 0 1 0 0 0 2
	2493 10598 2493 10530
2 1 0 2 54 0 0 0 0 0.000 0 1 0 0 0 2
	2493 10598 2493 10665
4 0 40 0 0 12 8 0.000 4 9 18 2160 10328 40%\001
2 1 0 2 54 0 0 0 0 0.000 0 1 0 0 0 2
	2365 10328 2430 10328
4 0 40 0 0 12 8 0.000 4 9 18 2220 10598 75%\001
2 1 0 2 54 0 0 0 0 0.000 0 1 0 0 0 2
	2365 10598 2493 10598
2 1 0 2 54 0 0 0 0 0.000 0 1 0 0 0 2
	2365 10463 2365 10328
2 1 0 2 54 0 0 0 0 0.000 0 1 0 0 0 2
	2365 10463 2365 10598
4 0 63 0 0 12 8 0.000 4 9 174 2595 10860 SpecName, SPECIES NAME, [], 8\001
4 0 40 0 0 12 8 0.000 4 9 18 2100 10463 36%\001
2 1 0 2 54 0 0 0 0 0.000 0 1 0 0 0 2
	2333 10463 2365 10463
2 1 0 2 63 0 0 0 0 0.000 0 1 0 0 0 2
	2333 10800 2492 10800
2 1 0 2 54 0 0 0 0 0.000 0 1 0 0 0 2
	2333 10631 2333 10463
2 1 0 2 63 0 0 0 0 0.000 0 1 0 0 0 2
	2333 10631 2333 10800
4 0 54 0 0 12 8 0.000 4 9 246 2595 10995 MycFlave, MYCOBACTERIUM FLAVESCENS, [], 5\001
4 0 40 0 0 12 8 0.000 4 9 18 2070 10631 60%\001
2 1 0 2 46 0 0 0 0 0.000 0 1 0 0 0 2
	2204 10631 2333 10631
2 1 0 2 54 0 0 0 0 0.000 0 1 0 0 0 2
	2204 10935 2487 10935
2 1 0 2 46 0 0 0 0 0.000 0 1 0 0 0 2
	2204 10783 2204 10631
2 1 0 2 54 0 0 0 0 0.000 0 1 0 0 0 2
	2204 10783 2204 10935
4 0 56 0 0 12 8 0.000 4 9 216 2190 11130 ArtLuteu, ARTHROBACTER LUTEUS, [], 1\001
4 0 40 0 0 12 8 0.000 4 9 18 1935 10783 98%\001
2 1 0 2 46 0 0 0 0 0.000 0 1 0 0 0 2
	1777 10783 2204 10783
2 1 0 2 56 0 0 0 0 0.000 0 1 0 0 0 2
	1777 11070 2085 11070
2 1 0 2 46 0 0 0 0 0.000 0 1 0 0 0 2
	1777 10927 1777 10783
2 1 0 2 56 0 0 0 0 0.000 0 1 0 0 0 2
	1777 10927 1777 11070
4 0 40 0 0 12 8 0.000 4 9 18 1500 9284 <1%\001
2 1 0 2 46 0 0 0 0 0.000 0 1 0 0 0 2
	1710 9284 1774 9284
4 0 40 0 0 12 8 0.000 4 9 18 1500 10927 50%\001
2 1 0 2 46 0 0 0 0 0.000 0 1 0 0 0 2
	1710 10927 1777 10927
2 1 0 2 46 0 0 0 0 0.000 0 1 0 0 0 2
	1710 10105 1710 9284
2 1 0 2 46 0 0 0 0 0.000 0 1 0 0 0 2
	1710 10105 1710 10927
4 0 61 0 0 12 8 0.000 4 9 222 1875 11265 PimSimpl, PIMELOBACTER SIMPLEX, [], 6\001
4 0 40 0 0 12 8 0.000 4 9 18 1440 10105 75%\001
2 1 0 2 46 0 0 0 0 0.000 0 1 0 0 0 2
	1584 10105 1710 10105
2 1 0 2 61 0 0 0 0 0.000 0 1 0 0 0 2
	1584 11205 1769 11205
2 1 0 2 46 0 0 0 0 0.000 0 1 0 0 0 2
	1584 10655 1584 10105
2 1 0 2 61 0 0 0 0 0.000 0 1 0 0 0 2
	1584 10655 1584 11205
4 0 64 0 0 12 8 0.000 4 9 222 2745 11400 BctFragi, BACTEROIDES FRAGILIS, [], 9\001
4 0 64 0 0 12 8 0.000 4 9 270 2835 11535 BctTheta, BACTEROIDES THETAIOTAOMICRON, [], 9\001
2 1 0 2 64 0 0 0 0 0.000 0 1 0 0 0 2
	2567 11340 2634 11340
2 1 0 2 64 0 0 0 0 0.000 0 1 0 0 0 2
	2567 11475 2733 11475
2 1 0 2 64 0 0 0 0 0.000 0 1 0 0 0 2
	2567 11408 2567 11340
2 1 0 2 64 0 0 0 0 0.000 0 1 0 0 0 2
	2567 11408 2567 11475
4 0 54 0 0 12 8 0.000 4 9 246 3885 11670 McpHyopn, MYCOPLASMA HYOPNEUMONIAE, [], 5\001
4 0 40 0 0 12 8 0.000 4 9 18 2295 11408 53%\001
2 1 0 2 64 0 0 0 0 0.000 0 1 0 0 0 2
	2465 11408 2567 11408
2 1 0 2 54 0 0 0 0 0.000 0 1 0 0 0 2
	2465 11610 3776 11610
2 1 0 2 64 0 0 0 0 0.000 0 1 0 0 0 2
	2465 11509 2465 11408
2 1 0 2 54 0 0 0 0 0.000 0 1 0 0 0 2
	2465 11509 2465 11610
4 0 64 0 0 12 8 0.000 4 9 234 3060 11805 BctCapil, BACTEROIDES CAPILLOSUS, [], 9\001
4 0 40 0 0 12 8 0.000 4 9 18 2190 11509 70%\001
2 1 0 2 46 0 0 0 0 0.000 0 1 0 0 0 2
	2186 11509 2465 11509
2 1 0 2 64 0 0 0 0 0.000 0 1 0 0 0 2
	2186 11745 2956 11745
2 1 0 2 46 0 0 0 0 0.000 0 1 0 0 0 2
	2186 11627 2186 11509
2 1 0 2 64 0 0 0 0 0.000 0 1 0 0 0 2
	2186 11627 2186 11745
4 0 64 0 0 12 8 0.000 4 9 228 2760 11940 BctVeror, BACTEROIDES VERORALIS, [], 9\001
4 0 57 0 0 12 8 0.000 4 9 216 3810 12075 CytAquat, CYTOPHAGA AQUATILIS, [], 2\001
2 1 0 2 64 0 0 0 0 0.000 0 1 0 0 0 2
	2229 11880 2657 11880
2 1 0 2 57 0 0 0 0 0.000 0 1 0 0 0 2
	2229 12015 3698 12015
2 1 0 2 64 0 0 0 0 0.000 0 1 0 0 0 2
	2229 11948 2229 11880
2 1 0 2 57 0 0 0 0 0.000 0 1 0 0 0 2
	2229 11948 2229 12015
4 0 61 0 0 12 8 0.000 4 9 246 2745 12210 PorGingi, PORPHYROMONAS GINGIVALIS, [], 6\001
4 0 40 0 0 12 8 0.000 4 9 18 1965 11948 54%\001
2 1 0 2 46 0 0 0 0 0.000 0 1 0 0 0 2
	2114 11948 2229 11948
2 1 0 2 61 0 0 0 0 0.000 0 1 0 0 0 2
	2114 12150 2646 12150
2 1 0 2 46 0 0 0 0 0.000 0 1 0 0 0 2
	2114 12049 2114 11948
2 1 0 2 61 0 0 0 0 0.000 0 1 0 0 0 2
	2114 12049 2114 12150
4 0 40 0 0 12 8 0.000 4 9 18 1920 11627 53%\001
2 1 0 2 46 0 0 0 0 0.000 0 1 0 0 0 2
	2078 11627 2186 11627
4 0 40 0 0 12 8 0.000 4 9 18 1845 12049 35%\001
2 1 0 2 46 0 0 0 0 0.000 0 1 0 0 0 2
	2078 12049 2114 12049
2 1 0 2 46 0 0 0 0 0.000 0 1 0 0 0 2
	2078 11838 2078 11627
2 1 0 2 46 0 0 0 0 0.000 0 1 0 0 0 2
	2078 11838 2078 12049
4 0 61 0 0 12 8 0.000 4 9 198 3330 12345 PirMarin, PIRELLULA MARINA, [], 6\001
4 0 61 0 0 12 8 0.000 4 9 192 4755 12480 PirSpeci, PIRELLULA SPEC., [], 6\001
2 1 0 2 61 0 0 0 0 0.000 0 1 0 0 0 2
	2750 12285 3220 12285
2 1 0 2 61 0 0 0 0 0.000 0 1 0 0 0 2
	2750 12420 4647 12420
2 1 0 2 61 0 0 0 0 0.000 0 1 0 0 0 2
	2750 12353 2750 12285
2 1 0 2 61 0 0 0 0 0.000 0 1 0 0 0 2
	2750 12353 2750 12420
4 0 46 0 0 12 8 0.000 4 9 192 2985 12615 IsoPalli, ISOSPHAERA PALLIDA, []\001
4 0 40 0 0 12 8 0.000 4 9 18 2475 12353 89%\001
2 1 0 2 61 0 0 0 0 0.000 0 1 0 0 0 2
	2347 12353 2750 12353
2 1 0 2 46 0 0 0 0 0.000 0 1 0 0 0 2
	2347 12555 2884 12555
2 1 0 2 61 0 0 0 0 0.000 0 1 0 0 0 2
	2347 12454 2347 12353
2 1 0 2 46 0 0 0 0 0.000 0 1 0 0 0 2
	2347 12454 2347 12555
4 0 61 0 0 12 8 0.000 4 9 252 3075 12750 PlnBrasi, PLANCTOMYCES BRASILIENSIS, [], 6\001
4 0 61 0 0 12 8 0.000 4 9 246 2940 12885 PlnLimno, PLANCTOMYCES LIMNOPHILUS, [], 6\001
2 1 0 2 61 0 0 0 0 0.000 0 1 0 0 0 2
	2506 12690 2976 12690
2 1 0 2 61 0 0 0 0 0.000 0 1 0 0 0 2
	2506 12825 2839 12825
2 1 0 2 61 0 0 0 0 0.000 0 1 0 0 0 2
	2506 12758 2506 12690
2 1 0 2 61 0 0 0 0 0.000 0 1 0 0 0 2
	2506 12758 2506 12825
4 0 61 0 0 12 8 0.000 4 9 192 4530 13020 PirSpec2, PIRELLULA SPEC., [], 6\001
4 0 40 0 0 12 8 0.000 4 9 18 2235 12758 74%\001
2 1 0 2 61 0 0 0 0 0.000 0 1 0 0 0 2
	2326 12758 2506 12758
2 1 0 2 61 0 0 0 0 0.000 0 1 0 0 0 2
	2326 12960 4430 12960
2 1 0 2 61 0 0 0 0 0.000 0 1 0 0 0 2
	2326 12859 2326 12758
2 1 0 2 61 0 0 0 0 0.000 0 1 0 0 0 2
	2326 12859 2326 12960
4 0 40 0 0 12 8 0.000 4 9 18 2070 12454 47%\001
2 1 0 2 46 0 0 0 0 0.000 0 1 0 0 0 2
	2200 12454 2347 12454
4 0 40 0 0 12 8 0.000 4 9 18 2055 12859 19%\001
2 1 0 2 61 0 0 0 0 0.000 0 1 0 0 0 2
	2200 12859 2326 12859
2 1 0 2 46 0 0 0 0 0.000 0 1 0 0 0 2
	2200 12656 2200 12454
2 1 0 2 61 0 0 0 0 0.000 0 1 0 0 0 2
	2200 12656 2200 12859
4 0 46 0 0 12 8 0.000 4 9 210 2805 13155 GemObscu, GEMMATA OBSCURIGLOBUS, []\001
4 0 40 0 0 12 8 0.000 4 9 18 1935 12656 21%\001
2 1 0 2 46 0 0 0 0 0.000 0 1 0 0 0 2
	2125 12656 2200 12656
2 1 0 2 46 0 0 0 0 0.000 0 1 0 0 0 2
	2125 13095 2701 13095
2 1 0 2 46 0 0 0 0 0.000 0 1 0 0 0 2
	2125 12876 2125 12656
2 1 0 2 46 0 0 0 0 0.000 0 1 0 0 0 2
	2125 12876 2125 13095
4 0 40 0 0 12 8 0.000 4 9 18 1815 11838 98%\001
2 1 0 2 46 0 0 0 0 0.000 0 1 0 0 0 2
	1619 11838 2078 11838
4 0 40 0 0 12 8 0.000 4 9 18 1860 12876 97%\001
2 1 0 2 46 0 0 0 0 0.000 0 1 0 0 0 2
	1619 12876 2125 12876
2 1 0 2 46 0 0 0 0 0.000 0 1 0 0 0 2
	1619 12357 1619 11838
2 1 0 2 46 0 0 0 0 0.000 0 1 0 0 0 2
	1619 12357 1619 12876
4 0 63 0 0 12 8 0.000 4 9 282 3015 13290 SulTherm, SULFOBACILLUS THERMOSULFIDOOXI, [], 8\001
4 0 40 0 0 12 8 0.000 4 9 18 1350 12357 89%\001
2 1 0 2 46 0 0 0 0 0.000 0 1 0 0 0 2
	1196 12357 1619 12357
2 1 0 2 63 0 0 0 0 0.000 0 1 0 0 0 2
	1196 13230 2904 13230
2 1 0 2 46 0 0 0 0 0.000 0 1 0 0 0 2
	1196 12793 1196 12357
2 1 0 2 63 0 0 0 0 0.000 0 1 0 0 0 2
	1196 12793 1196 13230
4 0 40 0 0 12 8 0.000 4 9 18 1320 10655 98%\001
2 1 0 2 46 0 0 0 0 0.000 0 1 0 0 0 2
	1073 10655 1584 10655
4 0 40 0 0 12 8 0.000 4 9 18 930 12793 19%\001
2 1 0 2 46 0 0 0 0 0.000 0 1 0 0 0 2
	1073 12793 1196 12793
2 1 0 2 46 0 0 0 0 0.000 0 1 0 0 0 2
	1073 11724 1073 10655
2 1 0 2 46 0 0 0 0 0.000 0 1 0 0 0 2
	1073 11724 1073 12793
4 0 40 0 0 12 8 0.000 4 9 24 720 6647 100%\001
2 1 0 2 45 0 0 0 0 0.000 0 1 0 0 0 2
	774 6647 1073 6647
4 0 40 0 0 12 8 0.000 4 9 24 720 11724 100%\001
2 1 0 2 46 0 0 0 0 0.000 0 1 0 0 0 2
	774 11724 1073 11724
2 1 0 2 45 0 0 0 0 0.000 0 1 0 0 0 2
	774 9186 774 6647
2 1 0 2 46 0 0 0 0 0.000 0 1 0 0 0 2
	774 9186 774 11724
2 1 0 1 7 7 50 -1 -1 0.000 0 0 -1 0 0 1
	0 0
2 1 0 1 39 0 0 0 0 0.000 0 1 0 0 0 2
	2610 6000 2760 6000
2 1 0 1 39 0 0 0 0 0.000 0 1 0 0 0 2
	2760 6150 2610 6150
2 1 0 1 39 0 0 0 0 0.000 0 1 0 0 0 2
	2610 6000 2610 6150
2 1 0 1 39 0 0 0 0 0.000 0 1 0 0 0 2
	2760 6150 2760 6000
2 1 0 2 39 0 0 0 0 0.000 0 1 0 0 0 2
	405 9186 774 9186
4 0 39 0 0 12 8 0.000 4 9 24 405 9186 0.10\001
2 1 0 2 39 0 0 0 0 0.000 0 1 0 0 0 2
	405 405 8520 405
2 1 0 2 39 0 0 0 0 0.000 0 1 0 0 0 2
	8520 13230 405 13230
2 1 0 2 39 0 0 0 0 0.000 0 1 0 0 0 2
	405 405 405 13230
2 1 0 2 39 0 0 0 0 0.000 0 1 0 0 0 2
	8520 13230 8520 405
2 1 2 1 43 0 0 0 0 2.000 0 1 0 0 0 2
	405 405 12945 405
2 1 2 1 43 0 0 0 0 2.000 0 1 0 0 0 2
	12945 13290 405 13290
2 1 2 1 43 0 0 0 0 2.000 0 1 0 0 0 2
	405 405 405 13290
2 1 2 1 43 0 0 0 0 2.000 0 1 0 0 0 2
	12945 13290 12945 405
