#FIG 3.2
Landscape
Center
Metric
A4
100.0
Single
-3
1200 2
2 1 0 1 -1 0 0 0 0 0.000 0 1 0 0 0 2
	11428 2746 11548 2746
2 1 0 1 -1 0 0 0 0 0.000 0 1 0 0 0 2
	11548 2866 11428 2866
2 1 0 1 -1 0 0 0 0 0.000 0 1 0 0 0 2
	11428 2746 11428 2866
2 1 0 1 -1 0 0 0 0 0.000 0 1 0 0 0 2
	11548 2866 11548 2746
2 1 0 1 -1 0 0 0 0 0.000 0 1 0 0 0 2
	11488 2806 11488 2806
2 1 0 1 -1 0 0 0 0 0.000 0 1 0 0 0 2
	11488 2806 11488 2512
2 1 0 1 -1 0 0 0 0 0.000 0 1 0 0 0 2
	11488 2512 11384 2450
2 1 0 1 -1 0 0 0 0 0.000 0 1 0 0 0 2
	11384 2450 9709 2391
4 0 -1 0 0 12 8 0.000 4 9 282 5340 2426 SulTherm, SULFOBACILLUS THERMOSULFIDOOXI, [], 8\001
2 1 0 1 -1 0 0 0 0 0.000 0 1 0 0 0 2
	11384 2450 11035 2226
2 1 0 1 -1 0 0 0 0 0.000 0 1 0 0 0 2
	11035 2226 10564 2069
2 1 0 1 -1 0 0 0 0 0.000 0 1 0 0 0 2
	10564 2069 10002 2009
4 0 -1 0 0 12 8 0.000 4 9 210 6720 2035 GemObscu, GEMMATA OBSCURIGLOBUS, []\001
2 1 0 1 -1 0 0 0 0 0.000 0 1 0 0 0 2
	10564 2069 10495 2043
2 1 0 1 -1 0 0 0 0 0.000 0 1 0 0 0 2
	10495 2043 10375 2013
2 1 0 1 -1 0 0 0 0 0.000 0 1 0 0 0 2
	10375 2013 8344 1646
4 0 -1 0 0 12 8 0.000 4 9 192 5355 1663 PirSpec2, PIRELLULA SPEC., [], 6\001
2 1 0 1 -1 0 0 0 0 0.000 0 1 0 0 0 2
	10375 2013 10206 1963
2 1 0 1 -1 0 0 0 0 0.000 0 1 0 0 0 2
	10206 1963 9890 1882
4 0 -1 0 0 12 8 0.000 4 9 246 6120 1889 PlnLimno, PLANCTOMYCES LIMNOPHILUS, [], 6\001
2 1 0 1 -1 0 0 0 0 0.000 0 1 0 0 0 2
	10206 1963 9768 1818
4 0 -1 0 0 12 8 0.000 4 9 252 5955 1815 PlnBrasi, PLANCTOMYCES BRASILIENSIS, [], 6\001
1 3  0 1 -1 -1 0 0 -1 0.000 1 0.0000 10290 1988 75 75 10290 1988 10365 1988
2 1 0 1 -1 0 0 0 0 0.000 0 1 0 0 0 2
	10495 2043 10366 1979
2 1 0 1 -1 0 0 0 0 0.000 0 1 0 0 0 2
	10366 1979 10019 1789
2 1 0 1 -1 0 0 0 0 0.000 0 1 0 0 0 2
	10019 1789 8354 956
4 0 -1 0 0 12 8 0.000 4 9 192 5505 936 PirSpeci, PIRELLULA SPEC., [], 6\001
2 1 0 1 -1 0 0 0 0 0.000 0 1 0 0 0 2
	10019 1789 9622 1554
4 0 -1 0 0 12 8 0.000 4 9 198 6750 1526 PirMarin, PIRELLULA MARINA, [], 6\001
2 1 0 1 -1 0 0 0 0 0.000 0 1 0 0 0 2
	10366 1979 9879 1777
4 0 -1 0 0 12 8 0.000 4 9 192 6990 1766 IsoPalli, ISOSPHAERA PALLIDA, []\001
1 3  0 1 -1 -1 0 0 -1 0.000 1 0.0000 10192 1884 62 62 10192 1884 10254 1884
1 3  0 1 -1 -1 0 0 -1 0.000 1 0.0000 10430 2011 172 172 10430 2011 10602 2011
1 3  0 1 -1 -1 0 0 -1 0.000 1 0.0000 10435 2028 241 241 10435 2028 10676 2028
1 3  0 1 -1 -1 0 0 -1 0.000 1 0.0000 10529 2056 143 143 10529 2056 10673 2056
2 1 0 1 -1 0 0 0 0 0.000 0 1 0 0 0 2
	11035 2226 10728 1896
2 1 0 1 -1 0 0 0 0 0.000 0 1 0 0 0 2
	10728 1896 10701 1874
2 1 0 1 -1 0 0 0 0 0.000 0 1 0 0 0 2
	10701 1874 10272 1577
4 0 -1 0 0 12 8 0.000 4 9 246 6795 1540 PorGingi, PORPHYROMONAS GINGIVALIS, [], 6\001
2 1 0 1 -1 0 0 0 0 0.000 0 1 0 0 0 2
	10701 1874 10616 1801
2 1 0 1 -1 0 0 0 0 0.000 0 1 0 0 0 2
	10616 1801 10308 1514
4 0 -1 0 0 12 8 0.000 4 9 228 7245 1463 BctVeror, BACTEROIDES VERORALIS, [], 9\001
2 1 0 1 -1 0 0 0 0 0.000 0 1 0 0 0 2
	10616 1801 9493 896
4 0 -1 0 0 12 8 0.000 4 9 216 6510 852 CytAquat, CYTOPHAGA AQUATILIS, [], 2\001
1 3  0 1 -1 -1 0 0 -1 0.000 1 0.0000 10658 1837 106 106 10658 1837 10764 1837
2 1 0 1 -1 0 0 0 0 0.000 0 1 0 0 0 2
	10728 1896 10665 1811
2 1 0 1 -1 0 0 0 0 0.000 0 1 0 0 0 2
	10665 1811 10150 1258
4 0 -1 0 0 12 8 0.000 4 9 234 7110 1200 BctCapil, BACTEROIDES CAPILLOSUS, [], 9\001
2 1 0 1 -1 0 0 0 0 0.000 0 1 0 0 0 2
	10665 1811 10509 1586
2 1 0 1 -1 0 0 0 0 0.000 0 1 0 0 0 2
	10509 1586 10454 1502
2 1 0 1 -1 0 0 0 0 0.000 0 1 0 0 0 2
	10454 1502 10361 1368
4 0 -1 0 0 12 8 0.000 4 9 270 7110 1298 BctTheta, BACTEROIDES THETAIOTAOMICRON, [], 9\001
2 1 0 1 -1 0 0 0 0 0.000 0 1 0 0 0 2
	10454 1502 10421 1446
4 0 -1 0 0 12 8 0.000 4 9 222 7830 1370 BctFragi, BACTEROIDES FRAGILIS, [], 9\001
2 1 0 1 -1 0 0 0 0 0.000 0 1 0 0 0 2
	10509 1586 9702 585
4 0 -1 0 0 12 8 0.000 4 9 246 6615 520 McpHyopn, MYCOPLASMA HYOPNEUMONIAE, [], 5\001
1 3  0 1 -1 -1 0 0 -1 0.000 1 0.0000 10481 1544 97 97 10481 1544 10579 1544
1 3  0 1 -1 -1 0 0 -1 0.000 1 0.0000 10587 1699 139 139 10587 1699 10726 1699
1 3  0 1 -1 -1 0 0 -1 0.000 1 0.0000 10697 1854 103 103 10697 1854 10800 1854
1 3  0 1 -1 -1 0 0 -1 0.000 1 0.0000 10715 1885 63 63 10715 1885 10778 1885
1 3  0 1 -1 -1 0 0 -1 0.000 1 0.0000 10882 2061 12 12 10882 2061 10894 2061
1 3  0 1 -1 -1 0 0 -1 0.000 1 0.0000 10799 2148 20 20 10799 2148 10819 2148
1 3  0 1 -1 -1 0 0 -1 0.000 1 0.0000 11210 2338 65 65 11210 2338 11275 2338
2 1 0 1 -1 0 0 0 0 0.000 0 1 0 0 0 2
	11488 2512 11744 2081
2 1 0 1 -1 0 0 0 0 0.000 0 1 0 0 0 2
	11744 2081 11663 1919
4 0 -1 0 0 12 8 0.000 4 9 222 9195 1838 PimSimpl, PIMELOBACTER SIMPLEX, [], 6\001
2 1 0 1 -1 0 0 0 0 0.000 0 1 0 0 0 2
	11744 2081 11811 1976
2 1 0 1 -1 0 0 0 0 0.000 0 1 0 0 0 2
	11811 1976 11799 1912
2 1 0 1 -1 0 0 0 0 0.000 0 1 0 0 0 2
	11799 1912 11684 1633
4 0 -1 0 0 12 8 0.000 4 9 216 9390 1549 ArtLuteu, ARTHROBACTER LUTEUS, [], 1\001
2 1 0 1 -1 0 0 0 0 0.000 0 1 0 0 0 2
	11799 1912 11740 1498
2 1 0 1 -1 0 0 0 0 0.000 0 1 0 0 0 2
	11740 1498 11652 1233
4 0 -1 0 0 12 8 0.000 4 9 246 9180 1146 MycFlave, MYCOBACTERIUM FLAVESCENS, [], 5\001
2 1 0 1 -1 0 0 0 0 0.000 0 1 0 0 0 2
	11740 1498 11726 1372
2 1 0 1 -1 0 0 0 0 0.000 0 1 0 0 0 2
	11726 1372 11688 1221
4 0 -1 0 0 12 8 0.000 4 9 174 10020 1130 SpecName, SPECIES NAME, [], 8\001
2 1 0 1 -1 0 0 0 0 0.000 0 1 0 0 0 2
	11726 1372 11724 1340
2 1 0 1 -1 0 0 0 0 0.000 0 1 0 0 0 2
	11724 1340 11706 1216
2 1 0 1 -1 0 0 0 0 0.000 0 1 0 0 0 2
	11706 1216 11706 1216
4 0 -1 0 0 12 8 0.000 4 9 240 9570 1124 MycSmegm, MYCOBACTERIUM SMEGMATIS, [], 5\001
2 1 0 1 -1 0 0 0 0 0.000 0 1 0 0 0 2
	11706 1216 11703 1185
4 0 -1 0 0 12 8 0.000 4 9 216 9900 1091 MycPhlei, MYCOBACTERIUM PHLEI, [], 5\001
2 1 0 1 -1 0 0 0 0 0.000 0 1 0 0 0 2
	11724 1340 11724 1276
2 1 0 1 -1 0 0 0 0 0.000 0 1 0 0 0 2
	11724 1276 11715 1026
4 0 -1 0 0 12 8 0.000 4 9 222 9990 932 MycLepra, MYCOBACTERIUM LEPRAE, [], 5\001
2 1 0 1 -1 0 0 0 0 0.000 0 1 0 0 0 2
	11724 1276 11726 1214
4 0 -1 0 0 12 8 0.000 4 9 216 10170 1120 MycBovis, MYCOBACTERIUM BOVIS, [], 5\001
1 3  0 1 -1 -1 0 0 -1 0.000 1 0.0000 11724 1308 97 97 11724 1308 11821 1308
1 3  0 1 -1 -1 0 0 -1 0.000 1 0.0000 11715 1278 50 50 11715 1278 11766 1278
1 3  0 1 -1 -1 0 0 -1 0.000 1 0.0000 11725 1356 55 55 11725 1356 11780 1356
1 3  0 1 -1 -1 0 0 -1 0.000 1 0.0000 11733 1435 96 96 11733 1435 11829 1435
1 3  0 1 -1 -1 0 0 -1 0.000 1 0.0000 11770 1705 11 11 11770 1705 11781 1705
2 1 0 1 -1 0 0 0 0 0.000 0 1 0 0 0 2
	11811 1976 11856 1934
2 1 0 1 -1 0 0 0 0 0.000 0 1 0 0 0 2
	11856 1934 11856 1934
2 1 0 1 -1 0 0 0 0 0.000 0 1 0 0 0 2
	11856 1934 11866 1870
2 1 0 1 -1 0 0 0 0 0.000 0 1 0 0 0 2
	11866 1870 11892 1626
4 0 -1 0 0 12 8 0.000 4 9 222 10425 1533 RhoFasci, RHODOCOCCUS FASCIANS, [], 7\001
2 1 0 1 -1 0 0 0 0 0.000 0 1 0 0 0 2
	11866 1870 11908 1633
4 0 -1 0 0 12 8 0.000 4 9 192 10755 1541 FraStrai, FRANKIA #STRAIN, [], 3\001
2 1 0 1 -1 0 0 0 0 0.000 0 1 0 0 0 2
	11856 1934 11947 1736
2 1 0 1 -1 0 0 0 0 0.000 0 1 0 0 0 2
	11947 1736 12007 1500
4 0 -1 0 0 12 8 0.000 4 9 252 10620 1410 MicLysod, MICROCOCCUS LYSODEIKTICUS, [], 5\001
2 1 0 1 -1 0 0 0 0 0.000 0 1 0 0 0 2
	11947 1736 12002 1626
2 1 0 1 -1 0 0 0 0 0.000 0 1 0 0 0 2
	12002 1626 12040 1511
4 0 -1 0 0 12 8 0.000 4 9 156 11280 1423 StraNctc, #STRAIN NCTC, []\001
2 1 0 1 -1 0 0 0 0 0.000 0 1 0 0 0 2
	12002 1626 12031 1572
2 1 0 1 -1 0 0 0 0 0.000 0 1 0 0 0 2
	12031 1572 12054 1517
4 0 -1 0 0 12 8 0.000 4 9 240 10995 1432 BreHelvo, BREVIBACTERIUM HELVOLUM, [], 9\001
2 1 0 1 -1 0 0 0 0 0.000 0 1 0 0 0 2
	12031 1572 12062 1520
2 1 0 1 -1 0 0 0 0 0.000 0 1 0 0 0 2
	12062 1520 12076 1493
4 0 -1 0 0 12 8 0.000 4 9 246 11115 1413 ArtGlobi, ARTHROBACTER GLOBIFORMIS, [], 1\001
2 1 0 1 -1 0 0 0 0 0.000 0 1 0 0 0 2
	12062 1520 12062 1520
2 1 0 1 -1 0 0 0 0 0.000 0 1 0 0 0 2
	12062 1520 12093 1468
4 0 -1 0 0 12 8 0.000 4 9 270 11175 1393 ArtPolyc, ARTHROBACTER POLYCHROMOGENES, [], 1\001
2 1 0 1 -1 0 0 0 0 0.000 0 1 0 0 0 2
	12062 1520 12062 1520
4 0 -1 0 0 12 8 0.000 4 9 246 11340 1450 ArtGlob2, ARTHROBACTER GLOBIFORMIS, [], 1\001
1 3  0 1 -1 -1 0 0 -1 0.000 1 0.0000 12047 1546 118 118 12047 1546 12165 1546
1 3  0 1 -1 -1 0 0 -1 0.000 1 0.0000 12017 1599 92 92 12017 1599 12108 1599
1 3  0 1 -1 -1 0 0 -1 0.000 1 0.0000 11974 1681 241 241 11974 1681 12216 1681
1 3  0 1 -1 -1 0 0 -1 0.000 1 0.0000 11902 1835 44 44 11902 1835 11946 1835
1 3  0 1 -1 -1 0 0 -1 0.000 1 0.0000 11861 1902 97 97 11861 1902 11958 1902
2 1 0 1 -1 0 0 0 0 0.000 0 1 0 0 0 2
	11856 1934 11913 1906
2 1 0 1 -1 0 0 0 0 0.000 0 1 0 0 0 2
	11913 1906 12012 1791
2 1 0 1 -1 0 0 0 0 0.000 0 1 0 0 0 2
	12012 1791 12031 1768
4 0 -1 0 0 12 8 0.000 4 9 246 11430 1703 RhoEryth, RHODOCOCCUS ERYTHROPOLIS, [], 7\001
2 1 0 1 -1 0 0 0 0 0.000 0 1 0 0 0 2
	12012 1791 12053 1747
4 0 -1 0 0 12 8 0.000 4 9 228 11595 1689 CelBiazo, CELLULOMONAS BIAZOTEA, [], 2\001
2 1 0 1 -1 0 0 0 0 0.000 0 1 0 0 0 2
	11913 1906 12031 1857
2 1 0 1 -1 0 0 0 0 0.000 0 1 0 0 0 2
	12031 1857 12285 1637
2 1 0 1 -1 0 0 0 0 0.000 0 1 0 0 0 2
	12285 1637 12707 1297
4 0 -1 0 0 12 8 0.000 4 9 228 12435 1252 BreLinen, BREVIBACTERIUM LINENS, [], 9\001
2 1 0 1 -1 0 0 0 0 0.000 0 1 0 0 0 2
	12285 1637 12463 1471
4 0 -1 0 0 12 8 0.000 4 9 210 12135 1419 MicLuteu, MICROCOCCUS LUTEUS, [], 5\001
2 1 0 1 -1 0 0 0 0 0.000 0 1 0 0 0 2
	12031 1857 12093 1836
2 1 0 1 -1 0 0 0 0 0.000 0 1 0 0 0 2
	12093 1836 12207 1774
2 1 0 1 -1 0 0 0 0 0.000 0 1 0 0 0 2
	12207 1774 12313 1706
2 1 0 1 -1 0 0 0 0 0.000 0 1 0 0 0 2
	12313 1706 12487 1585
4 0 -1 0 0 12 8 0.000 4 9 150 12390 1549 StraiCnf, #STRAIN CNF, []\001
2 1 0 1 -1 0 0 0 0 0.000 0 1 0 0 0 2
	12313 1706 12469 1614
4 0 -1 0 0 12 8 0.000 4 9 132 12450 1585 Jcm19710, JCM 1971, []\001
2 1 0 1 -1 0 0 0 0 0.000 0 1 0 0 0 2
	12207 1774 12378 1696
2 1 0 1 -1 0 0 0 0 0.000 0 1 0 0 0 2
	12378 1696 12786 1492
4 0 -1 0 0 12 8 0.000 4 9 210 12735 1472 SapGrand, SAPROSPIRA GRANDIS, [], 8\001
2 1 0 1 -1 0 0 0 0 0.000 0 1 0 0 0 2
	12378 1696 13833 1094
4 0 -1 0 0 12 8 0.000 4 9 258 13815 1082 CorGluta, CORYNEBACTERIUM GLUTAMICUM, [], 2\001
1 3  0 1 -1 -1 0 0 -1 0.000 1 0.0000 12293 1735 164 164 12293 1735 12457 1735
1 3  0 1 -1 -1 0 0 -1 0.000 1 0.0000 12260 1740 95 95 12260 1740 12356 1740
2 1 0 1 -1 0 0 0 0 0.000 0 1 0 0 0 2
	12093 1836 12459 1770
2 1 0 1 -1 0 0 0 0 0.000 0 1 0 0 0 2
	12459 1770 12659 1704
4 0 -1 0 0 12 8 0.000 4 9 234 12705 1701 CurCitre, CURTOBACTERIUM CITREUM, [], 2\001
2 1 0 1 -1 0 0 0 0 0.000 0 1 0 0 0 2
	12459 1770 12520 1761
2 1 0 1 -1 0 0 0 0 0.000 0 1 0 0 0 2
	12520 1761 12700 1722
2 1 0 1 -1 0 0 0 0 0.000 0 1 0 0 0 2
	12700 1722 12788 1700
4 0 -1 0 0 12 8 0.000 4 9 222 12870 1707 StpRimos, STREPTOMYCES RIMOSUS, [], 8\001
2 1 0 1 -1 0 0 0 0 0.000 0 1 0 0 0 2
	12700 1722 12730 1717
4 0 -1 0 0 12 8 0.000 4 9 222 12840 1733 StpGrise, STREPTOMYCES GRISEUS, [], 8\001
2 1 0 1 -1 0 0 0 0 0.000 0 1 0 0 0 2
	12520 1761 12702 1748
2 1 0 1 -1 0 0 0 0 0.000 0 1 0 0 0 2
	12702 1748 12762 1742
4 0 -1 0 0 12 8 0.000 4 9 252 12885 1768 CorAquat, CORYNEBACTERIUM AQUATICUM, [], 2\001
2 1 0 1 -1 0 0 0 0 0.000 0 1 0 0 0 2
	12702 1748 12702 1748
4 0 -1 0 0 12 8 0.000 4 9 246 12840 1784 AurTesta, AUREOBACTERIUM TESTACEUM, [], 1\001
1 3  0 1 -1 -1 0 0 -1 0.000 1 0.0000 12611 1755 23 23 12611 1755 12634 1755
1 3  0 1 -1 -1 0 0 -1 0.000 1 0.0000 12610 1742 23 23 12610 1742 12633 1742
1 3  0 1 -1 -1 0 0 -1 0.000 1 0.0000 12490 1766 121 121 12490 1766 12611 1766
1 3  0 1 -1 -1 0 0 -1 0.000 1 0.0000 12150 1805 98 98 12150 1805 12249 1805
1 3  0 1 -1 -1 0 0 -1 0.000 1 0.0000 12062 1847 128 128 12062 1847 12190 1847
1 3  0 1 -1 -1 0 0 -1 0.000 1 0.0000 12158 1747 4 4 12158 1747 12162 1747
1 3  0 1 -1 -1 0 0 -1 0.000 1 0.0000 11972 1881 52 52 11972 1881 12023 1881
1 3  0 1 -1 -1 0 0 -1 0.000 1 0.0000 11963 1849 64 64 11963 1849 12027 1849
1 3  0 1 -1 -1 0 0 -1 0.000 1 0.0000 11885 1920 95 95 11885 1920 11980 1920
1 3  0 1 -1 -1 0 0 -1 0.000 1 0.0000 11834 1955 121 121 11834 1955 11954 1955
1 3  0 1 -1 -1 0 0 -1 0.000 1 0.0000 11805 1944 71 71 11805 1944 11876 1944
1 3  0 1 -1 -1 0 0 -1 0.000 1 0.0000 11778 2028 50 50 11778 2028 11827 2028
1 3  0 1 -1 -1 0 0 -1 0.000 1 0.0000 11616 2296 13 13 11616 2296 11629 2296
1 3  0 1 -1 -1 0 0 -1 0.000 1 0.0000 11436 2481 235 235 11436 2481 11672 2481
2 1 0 1 -1 0 0 0 0 0.000 0 1 0 0 0 2
	11488 2806 11488 3099
2 1 0 1 -1 0 0 0 0 0.000 0 1 0 0 0 2
	11488 3099 11957 3167
2 1 0 1 -1 0 0 0 0 0.000 0 1 0 0 0 2
	11957 3167 12607 3190
4 0 -1 0 0 12 8 0.000 4 9 246 12735 3235 CloPaste, CLOSTRIDIUM PASTEURIANUM, [], 2\001
2 1 0 1 -1 0 0 0 0 0.000 0 1 0 0 0 2
	11957 3167 11993 3173
2 1 0 1 -1 0 0 0 0 0.000 0 1 0 0 0 2
	11993 3173 12424 3219
4 0 -1 0 0 12 8 0.000 4 9 210 12555 3274 CloCarni, CLOSTRIDIUM CARNIS, [], 2\001
2 1 0 1 -1 0 0 0 0 0.000 0 1 0 0 0 2
	11993 3173 13988 3607
2 1 0 1 -1 0 0 0 0 0.000 0 1 0 0 0 2
	13988 3607 13988 3607
4 0 -1 0 0 12 8 0.000 4 9 228 14100 3672 CloButyr, CLOSTRIDIUM BUTYRICUM, [], 2\001
2 1 0 1 -1 0 0 0 0 0.000 0 1 0 0 0 2
	13988 3607 14019 3615
4 0 -1 0 0 12 8 0.000 4 9 228 14100 3689 CloButy2, CLOSTRIDIUM BUTYRICUM, [], 2\001
1 3  0 1 -1 -1 0 0 -1 0.000 1 0.0000 11975 3170 70 70 11975 3170 12046 3170
2 1 0 1 -1 0 0 0 0 0.000 0 1 0 0 0 2
	11488 3099 11460 3297
2 1 0 1 -1 0 0 0 0 0.000 0 1 0 0 0 2
	11460 3297 11711 3401
2 1 0 1 -1 0 0 0 0 0.000 0 1 0 0 0 2
	11711 3401 11913 3494
2 1 0 1 -1 0 0 0 0 0.000 0 1 0 0 0 2
	11913 3494 11942 3506
4 0 -1 0 0 12 8 0.000 4 9 264 11910 3598 BacStear, BACILLUS STEAROTHERMOPHILUS, [], 9\001
2 1 0 1 -1 0 0 0 0 0.000 0 1 0 0 0 2
	11913 3494 12079 3577
4 0 -1 0 0 12 8 0.000 4 9 264 11985 3678 BacStea2, BACILLUS STEAROTHERMOPHILUS, [], 9\001
2 1 0 1 -1 0 0 0 0 0.000 0 1 0 0 0 2
	11711 3401 12244 3579
4 0 -1 0 0 12 8 0.000 4 9 228 12285 3662 AmpXylan, AMPHIBACILLUS XYLANUS, [], 1\001
1 3  0 1 -1 -1 0 0 -1 0.000 1 0.0000 11812 3448 45 45 11812 3448 11857 3448
2 1 0 1 -1 0 0 0 0 0.000 0 1 0 0 0 2
	11460 3297 11426 3431
2 1 0 1 -1 0 0 0 0 0.000 0 1 0 0 0 2
	11426 3431 11640 3592
2 1 0 1 -1 0 0 0 0 0.000 0 1 0 0 0 2
	11640 3592 12040 3829
4 0 -1 0 0 12 8 0.000 4 9 240 11910 3938 BacAcido, BACILLUS ACIDOCALDARIUS, [], 9\001
2 1 0 1 -1 0 0 0 0 0.000 0 1 0 0 0 2
	11640 3592 11720 3656
2 1 0 1 -1 0 0 0 0 0.000 0 1 0 0 0 2
	11720 3656 12126 3938
4 0 -1 0 0 12 8 0.000 4 9 192 11985 4056 BacBrevi, BACILLUS BREVIS, [], 9\001
2 1 0 1 -1 0 0 0 0 0.000 0 1 0 0 0 2
	11720 3656 12015 3912
2 1 0 1 -1 0 0 0 0 0.000 0 1 0 0 0 2
	12015 3912 12391 4214
4 0 -1 0 0 12 8 0.000 4 9 168 12210 4340 OctSprin, OCTOPUS SPRING, []\001
2 1 0 1 -1 0 0 0 0 0.000 0 1 0 0 0 2
	12015 3912 12689 4539
4 0 -1 0 0 12 8 0.000 4 9 222 12345 4671 DeiRadio, DEINOCOCCUS RADIODURANS, []\001
1 3  0 1 -1 -1 0 0 -1 0.000 1 0.0000 11867 3784 73 73 11867 3784 11941 3784
1 3  0 1 -1 -1 0 0 -1 0.000 1 0.0000 11680 3624 114 114 11680 3624 11794 3624
2 1 0 1 -1 0 0 0 0 0.000 0 1 0 0 0 2
	11426 3431 11382 3535
2 1 0 1 -1 0 0 0 0 0.000 0 1 0 0 0 2
	11382 3535 12339 4562
4 0 -1 0 0 12 8 0.000 4 9 246 11850 4702 CloBifer, CLOSTRIDIUM BIFERMENTANS, [], 2\001
2 1 0 1 -1 0 0 0 0 0.000 0 1 0 0 0 2
	11382 3535 11297 3723
2 1 0 1 -1 0 0 0 0 0.000 0 1 0 0 0 2
	11297 3723 11340 3871
2 1 0 1 -1 0 0 0 0 0.000 0 1 0 0 0 2
	11340 3871 12398 5518
2 1 0 1 -1 0 0 0 0 0.000 0 1 0 0 0 2
	12398 5518 12597 5765
4 0 -1 0 0 12 8 0.000 4 9 222 12060 5911 FusVariu, FUSOBACTERIUM VARIUM, [], 3\001
2 1 0 1 -1 0 0 0 0 0.000 0 1 0 0 0 2
	12398 5518 12551 5776
2 1 0 1 -1 0 0 0 0 0.000 0 1 0 0 0 2
	12551 5776 12769 6089
4 0 -1 0 0 12 8 0.000 4 9 246 12060 6241 FusMorti, FUSOBACTERIUM MORTIFERUM, [], 3\001
2 1 0 1 -1 0 0 0 0 0.000 0 1 0 0 0 2
	12551 5776 12589 5846
2 1 0 1 -1 0 0 0 0 0.000 0 1 0 0 0 2
	12589 5846 12817 6300
4 0 -1 0 0 12 8 0.000 4 9 240 11880 6461 FusNucle, FUSOBACTERIUM NUCLEATUM, [], 3\001
2 1 0 1 -1 0 0 0 0 0.000 0 1 0 0 0 2
	12589 5846 13505 7389
4 0 -1 0 0 12 8 0.000 4 9 174 12930 7546 SubCremo, #SUBSP CREMORIS, []\001
1 3  0 1 -1 -1 0 0 -1 0.000 1 0.0000 12570 5811 104 104 12570 5811 12675 5811
1 3  0 1 -1 -1 0 0 -1 0.000 1 0.0000 12475 5647 586 586 12475 5647 13061 5647
2 1 0 1 -1 0 0 0 0 0.000 0 1 0 0 0 2
	11340 3871 11388 4209
2 1 0 1 -1 0 0 0 0 0.000 0 1 0 0 0 2
	11388 4209 11483 4492
2 1 0 1 -1 0 0 0 0 0.000 0 1 0 0 0 2
	11483 4492 11804 5267
4 0 -1 0 0 12 8 0.000 4 9 258 10665 5432 McpPneum, MYCOPLASMA PNEUMONIAE, [outer], 5\001
2 1 0 1 -1 0 0 0 0 0.000 0 1 0 0 0 2
	11483 4492 11596 4878
2 1 0 1 -1 0 0 0 0 0.000 0 1 0 0 0 2
	11596 4878 11841 5838
4 0 -1 0 0 12 8 0.000 4 9 276 10320 6010 McpGalli, MYCOPLASMA GALLISEPTICUM, [outer], 5\001
2 1 0 1 -1 0 0 0 0 0.000 0 1 0 0 0 2
	11596 4878 12242 6817
4 0 -1 0 0 12 8 0.000 4 9 246 11025 6986 UreUreal, UREAPLASMA UREALYTICUM, [outer]\001
1 3  0 1 -1 -1 0 0 -1 0.000 1 0.0000 11539 4685 785 785 11539 4685 12324 4685
2 1 0 1 -1 0 0 0 0 0.000 0 1 0 0 0 2
	11388 4209 11394 4352
2 1 0 1 -1 0 0 0 0 0.000 0 1 0 0 0 2
	11394 4352 11489 4883
4 0 -1 0 0 12 8 0.000 4 9 252 9960 5056 AchModic, ACHOLEPLASMA MODICUM, [outer], 1\001
2 1 0 1 -1 0 0 0 0 0.000 0 1 0 0 0 2
	11394 4352 11394 4423
2 1 0 1 -1 0 0 0 0 0.000 0 1 0 0 0 2
	11394 4423 11472 5150
4 0 -1 0 0 12 8 0.000 4 9 264 9720 5324 AnrFurco, ANAERORHABDUS FURCOSUS, [outer], 1\001
2 1 0 1 -1 0 0 0 0 0.000 0 1 0 0 0 2
	11394 4423 11394 4423
2 1 0 1 -1 0 0 0 0 0.000 0 1 0 0 0 2
	11394 4423 11416 5058
4 0 -1 0 0 12 8 0.000 4 9 252 9600 5234 CloInnoc, CLOSTRIDIUM INNOCUUM, [outer], 2\001
2 1 0 1 -1 0 0 0 0 0.000 0 1 0 0 0 2
	11394 4423 11343 5134
2 1 0 1 -1 0 0 0 0 0.000 0 1 0 0 0 2
	11298 6389 11343 5134
2 1 0 1 -1 0 0 0 0 0.000 0 1 0 0 0 2
	11343 5134 11256 5942
2 1 0 1 -1 0 0 0 0 0.000 0 1 0 0 0 2
	11256 5942 11298 6389
2 3 0 1 -1 -1 0 0 4 0.000 0 0 -1 0 0 4
   11343 5134
   11256 5942
   11298 6389
   11343 5134
4 0 -1 0 0 12 8 0.000 4 9 42 10920 6341 [inner]\001
1 3  0 1 -1 -1 0 0 -1 0.000 1 0.0000 11368 4779 9 9 11368 4779 11378 4779
1 3  0 1 -1 -1 0 0 -1 0.000 1 0.0000 11394 4388 119 119 11394 4388 11512 4388
1 3  0 1 -1 -1 0 0 -1 0.000 1 0.0000 11391 4281 109 109 11391 4281 11500 4281
1 3  0 1 -1 -1 0 0 -1 0.000 1 0.0000 11436 4351 76 76 11436 4351 11511 4351
1 3  0 1 -1 -1 0 0 -1 0.000 1 0.0000 11364 4040 93 93 11364 4040 11457 4040
2 1 0 1 -1 0 0 0 0 0.000 0 1 0 0 0 2
	11297 3723 11177 3827
2 1 0 1 -1 0 0 0 0 0.000 0 1 0 0 0 2
	11177 3827 11169 3857
2 1 0 1 -1 0 0 0 0 0.000 0 1 0 0 0 2
	11169 3857 11108 4195
2 1 0 1 -1 0 0 0 0 0.000 0 1 0 0 0 2
	11063 4240 11063 4150
2 1 0 1 -1 0 0 0 0 0.000 0 1 0 0 0 2
	11063 4150 11153 4150
2 1 0 1 -1 0 0 0 0 0.000 0 1 0 0 0 2
	11153 4150 11153 4240
2 1 0 1 -1 0 0 0 0 0.000 0 1 0 0 0 2
	11153 4240 11063 4240
2 3 0 1 -1 -1 0 0 4 0.000 0 0 -1 0 0 5
   11063 4150
   11153 4150
   11153 4240
   11063 4240
   11063 4150
4 0 -1 0 0 12 8 0.000 4 9 210 9225 4369 SprUreae, SPOROSARCINA UREAE, [], 8\001
2 1 0 1 -1 0 0 0 0 0.000 0 1 0 0 0 2
	11169 3857 11025 4347
2 1 0 1 -1 0 0 0 0 0.000 0 1 0 0 0 2
	10832 5107 11025 4347
2 1 0 1 -1 0 0 0 0 0.000 0 1 0 0 0 2
	11025 4347 10996 4437
2 1 0 1 -1 0 0 0 0 0.000 0 1 0 0 0 2
	10996 4437 10832 5107
2 3 0 1 -1 -1 0 0 4 0.000 0 0 -1 0 0 4
   11025 4347
   10996 4437
   10832 5107
   11025 4347
4 0 -1 0 0 12 8 0.000 4 9 36 10515 4939 [test]\001
2 1 0 1 -1 0 0 0 0 0.000 0 1 0 0 0 2
	11177 3827 11151 3845
2 1 0 1 -1 0 0 0 0 0.000 0 1 0 0 0 2
	11151 3845 11077 3993
2 1 0 1 -1 0 0 0 0 0.000 0 1 0 0 0 2
	11077 3993 10860 4517
2 1 0 1 -1 0 0 0 0 0.000 0 1 0 0 0 2
	10815 4562 10815 4472
2 1 0 1 -1 0 0 0 0 0.000 0 1 0 0 0 2
	10815 4472 10905 4472
2 1 0 1 -1 0 0 0 0 0.000 0 1 0 0 0 2
	10905 4472 10905 4562
2 1 0 1 -1 0 0 0 0 0.000 0 1 0 0 0 2
	10905 4562 10815 4562
2 3 0 1 -1 -1 0 0 4 0.000 0 0 -1 0 0 5
   10815 4472
   10905 4472
   10905 4562
   10815 4562
   10815 4472
4 0 -1 0 0 12 8 0.000 4 9 234 8385 4682 BacLich2, BACILLUS LICHENIFORMIS, [], 9\001
2 1 0 1 -1 0 0 0 0 0.000 0 1 0 0 0 2
	11077 3993 8962 7866
2 1 0 1 -1 0 0 0 0 0.000 0 1 0 0 0 2
	8962 7866 8545 8700
2 1 0 1 -1 0 0 0 0 0.000 0 1 0 0 0 2
	8500 8745 8500 8655
2 1 0 1 -1 0 0 0 0 0.000 0 1 0 0 0 2
	8500 8655 8590 8655
2 1 0 1 -1 0 0 0 0 0.000 0 1 0 0 0 2
	8590 8655 8590 8745
2 1 0 1 -1 0 0 0 0 0.000 0 1 0 0 0 2
	8590 8745 8500 8745
2 3 0 1 -1 -1 0 0 4 0.000 0 0 -1 0 0 5
   8500 8655
   8590 8655
   8590 8745
   8500 8745
   8500 8655
4 0 -1 0 0 12 8 0.000 4 9 204 6270 8861 BacSubt2, BACILLUS SUBTILIS, [], 9\001
2 1 0 1 -1 0 0 0 0 0.000 0 1 0 0 0 2
	8962 7866 8856 8044
2 1 0 1 -1 0 0 0 0 0.000 0 1 0 0 0 2
	8811 8089 8811 7999
2 1 0 1 -1 0 0 0 0 0.000 0 1 0 0 0 2
	8811 7999 8901 7999
2 1 0 1 -1 0 0 0 0 0.000 0 1 0 0 0 2
	8901 7999 8901 8089
2 1 0 1 -1 0 0 0 0 0.000 0 1 0 0 0 2
	8901 8089 8811 8089
2 3 0 1 -1 -1 0 0 4 0.000 0 0 -1 0 0 5
   8811 7999
   8901 7999
   8901 8089
   8811 8089
   8811 7999
4 0 -1 0 0 12 8 0.000 4 9 186 6675 8201 BacSpec2, BACILLUS SPEC., [], 9\001
2 1 0 1 -1 0 0 0 0 0.000 0 1 0 0 0 2
	11151 3845 11123 3860
2 1 0 1 -1 0 0 0 0 0.000 0 1 0 0 0 2
	11123 3860 10821 4264
2 1 0 1 -1 0 0 0 0 0.000 0 1 0 0 0 2
	10821 4264 10785 4315
2 1 0 1 -1 0 0 0 0 0.000 0 1 0 0 0 2
	10740 4360 10740 4270
2 1 0 1 -1 0 0 0 0 0.000 0 1 0 0 0 2
	10740 4270 10830 4270
2 1 0 1 -1 0 0 0 0 0.000 0 1 0 0 0 2
	10830 4270 10830 4360
2 1 0 1 -1 0 0 0 0 0.000 0 1 0 0 0 2
	10830 4360 10740 4360
2 3 0 1 -1 -1 0 0 4 0.000 0 0 -1 0 0 5
   10740 4270
   10830 4270
   10830 4360
   10740 4360
   10740 4270
4 0 -1 0 0 12 8 0.000 4 9 216 8160 4466 PlaKocur, PLANOCOCCUS KOCURII, [], 6\001
2 1 0 1 -1 0 0 0 0 0.000 0 1 0 0 0 2
	10821 4264 10801 4288
2 1 0 1 -1 0 0 0 0 0.000 0 1 0 0 0 2
	10756 4333 10756 4243
2 1 0 1 -1 0 0 0 0 0.000 0 1 0 0 0 2
	10756 4243 10846 4243
2 1 0 1 -1 0 0 0 0 0.000 0 1 0 0 0 2
	10846 4243 10846 4333
2 1 0 1 -1 0 0 0 0 0.000 0 1 0 0 0 2
	10846 4333 10756 4333
2 3 0 1 -1 -1 0 0 4 0.000 0 0 -1 0 0 5
   10756 4243
   10846 4243
   10846 4333
   10756 4333
   10756 4243
4 0 -1 0 0 12 8 0.000 4 9 216 8085 4434 PlaCitre, PLANOCOCCUS CITREUS, [], 6\001
2 1 0 1 -1 0 0 0 0 0.000 0 1 0 0 0 2
	11123 3860 10642 4080
2 1 0 1 -1 0 0 0 0 0.000 0 1 0 0 0 2
	10642 4080 10574 4148
2 1 0 1 -1 0 0 0 0 0.000 0 1 0 0 0 2
	10574 4148 10467 4263
2 1 0 1 -1 0 0 0 0 0.000 0 1 0 0 0 2
	10422 4308 10422 4218
2 1 0 1 -1 0 0 0 0 0.000 0 1 0 0 0 2
	10422 4218 10512 4218
2 1 0 1 -1 0 0 0 0 0.000 0 1 0 0 0 2
	10512 4218 10512 4308
2 1 0 1 -1 0 0 0 0 0.000 0 1 0 0 0 2
	10512 4308 10422 4308
2 3 0 1 -1 -1 0 0 4 0.000 0 0 -1 0 0 5
   10422 4218
   10512 4218
   10512 4308
   10422 4308
   10422 4218
4 0 -1 0 0 12 8 0.000 4 9 240 7350 4403 BacPaste, BACILLUS PASTEURII, [outer], 9\001
2 1 0 1 -1 0 0 0 0 0.000 0 1 0 0 0 2
	10574 4148 10458 4256
2 1 0 1 -1 0 0 0 0 0.000 0 1 0 0 0 2
	10413 4301 10413 4211
2 1 0 1 -1 0 0 0 0 0.000 0 1 0 0 0 2
	10413 4211 10503 4211
2 1 0 1 -1 0 0 0 0 0.000 0 1 0 0 0 2
	10503 4211 10503 4301
2 1 0 1 -1 0 0 0 0 0.000 0 1 0 0 0 2
	10503 4301 10413 4301
2 3 0 1 -1 -1 0 0 4 0.000 0 0 -1 0 0 5
   10413 4211
   10503 4211
   10503 4301
   10413 4301
   10413 4211
4 0 -1 0 0 12 8 0.000 4 9 246 7170 4389 BacMegat, BACILLUS MEGATERIUM, [outer], 9\001
2 1 0 1 -1 0 0 0 0 0.000 0 1 0 0 0 2
	10642 4080 10642 4080
2 1 0 1 -1 0 0 0 0 0.000 0 1 0 0 0 2
	10642 4080 10450 4224
2 1 0 1 -1 0 0 0 0 0.000 0 1 0 0 0 2
	7380 6698 10450 4224
2 1 0 1 -1 0 0 0 0 0.000 0 1 0 0 0 2
	10450 4224 10424 4242
2 1 0 1 -1 0 0 0 0 0.000 0 1 0 0 0 2
	10424 4242 7380 6698
2 3 0 1 -1 -1 0 0 4 0.000 0 0 -1 0 0 4
   10450 4224
   10424 4242
   7380 6698
   10450 4224
4 0 -1 0 0 12 8 0.000 4 9 36 8265 5536 [test]\001
2 1 0 1 -1 0 0 0 0 0.000 0 1 0 0 0 2
	10642 4080 10602 4092
2 1 0 1 -1 0 0 0 0 0.000 0 1 0 0 0 2
	10602 4092 10541 4125
2 1 0 1 -1 0 0 0 0 0.000 0 1 0 0 0 2
	10072 4403 10541 4125
2 1 0 1 -1 0 0 0 0 0.000 0 1 0 0 0 2
	10541 4125 10111 4340
2 1 0 1 -1 0 0 0 0 0.000 0 1 0 0 0 2
	10111 4340 10072 4403
2 3 0 1 -1 -1 0 0 4 0.000 0 0 -1 0 0 4
   10541 4125
   10111 4340
   10072 4403
   10541 4125
4 0 -1 0 0 12 8 0.000 4 9 24 9630 4476 [xx]\001
2 1 0 1 -1 0 0 0 0 0.000 0 1 0 0 0 2
	10602 4092 5813 5133
2 1 0 1 -1 0 0 0 0 0.000 0 1 0 0 0 2
	5813 5133 5495 5265
2 1 0 1 -1 0 0 0 0 0.000 0 1 0 0 0 2
	5450 5310 5450 5220
2 1 0 1 -1 0 0 0 0 0.000 0 1 0 0 0 2
	5450 5220 5540 5220
2 1 0 1 -1 0 0 0 0 0.000 0 1 0 0 0 2
	5540 5220 5540 5310
2 1 0 1 -1 0 0 0 0 0.000 0 1 0 0 0 2
	5540 5310 5450 5310
2 3 0 1 -1 -1 0 0 4 0.000 0 0 -1 0 0 5
   5450 5220
   5540 5220
   5540 5310
   5450 5310
   5450 5220
4 0 -1 0 0 12 8 0.000 4 9 240 1905 5357 EntFaeca, ENTEROCOCCUS FAECALIS, [outer]\001
2 1 0 1 -1 0 0 0 0 0.000 0 1 0 0 0 2
	5813 5133 5707 5153
2 1 0 1 -1 0 0 0 0 0.000 0 1 0 0 0 2
	5707 5153 5478 5229
2 1 0 1 -1 0 0 0 0 0.000 0 1 0 0 0 2
	5433 5274 5433 5184
2 1 0 1 -1 0 0 0 0 0.000 0 1 0 0 0 2
	5433 5184 5523 5184
2 1 0 1 -1 0 0 0 0 0.000 0 1 0 0 0 2
	5523 5184 5523 5274
2 1 0 1 -1 0 0 0 0 0.000 0 1 0 0 0 2
	5523 5274 5433 5274
2 3 0 1 -1 -1 0 0 4 0.000 0 0 -1 0 0 5
   5433 5184
   5523 5184
   5523 5274
   5433 5274
   5433 5184
4 0 -1 0 0 12 8 0.000 4 9 258 1575 5312 LacBrevi, LACTOBACILLUS BREVIS, [outer], 12\001
2 1 0 1 -1 0 0 0 0 0.000 0 1 0 0 0 2
	5707 5153 5671 5158
2 1 0 1 -1 0 0 0 0 0.000 0 1 0 0 0 2
	5671 5158 5471 5209
2 1 0 1 -1 0 0 0 0 0.000 0 1 0 0 0 2
	5426 5254 5426 5164
2 1 0 1 -1 0 0 0 0 0.000 0 1 0 0 0 2
	5426 5164 5516 5164
2 1 0 1 -1 0 0 0 0 0.000 0 1 0 0 0 2
	5516 5164 5516 5254
2 1 0 1 -1 0 0 0 0 0.000 0 1 0 0 0 2
	5516 5254 5426 5254
2 3 0 1 -1 -1 0 0 4 0.000 0 0 -1 0 0 5
   5426 5164
   5516 5164
   5516 5254
   5426 5254
   5426 5164
4 0 -1 0 0 12 8 0.000 4 9 276 1260 5283 LacPlant, LACTOBACILLUS PLANTARUM, [outer], 12\001
2 1 0 1 -1 0 0 0 0 0.000 0 1 0 0 0 2
	5671 5158 5554 5170
2 1 0 1 -1 0 0 0 0 0.000 0 1 0 0 0 2
	5554 5170 5045 5262
2 1 0 1 -1 0 0 0 0 0.000 0 1 0 0 0 2
	5000 5307 5000 5217
2 1 0 1 -1 0 0 0 0 0.000 0 1 0 0 0 2
	5000 5217 5090 5217
2 1 0 1 -1 0 0 0 0 0.000 0 1 0 0 0 2
	5090 5217 5090 5307
2 1 0 1 -1 0 0 0 0 0.000 0 1 0 0 0 2
	5090 5307 5000 5307
2 3 0 1 -1 -1 0 0 4 0.000 0 0 -1 0 0 5
   5000 5217
   5090 5217
   5090 5307
   5000 5307
   5000 5217
4 0 -1 0 0 12 8 0.000 4 9 282 720 5327 LacBulga, LACTOBACILLUS BULGARICUS, [outer], 12\001
2 1 0 1 -1 0 0 0 0 0.000 0 1 0 0 0 2
	5554 5170 4929 5215
2 1 0 1 -1 0 0 0 0 0.000 0 1 0 0 0 2
	4929 5215 4860 5222
2 1 0 1 -1 0 0 0 0 0.000 0 1 0 0 0 2
	4815 5267 4815 5177
2 1 0 1 -1 0 0 0 0 0.000 0 1 0 0 0 2
	4815 5177 4905 5177
2 1 0 1 -1 0 0 0 0 0.000 0 1 0 0 0 2
	4905 5177 4905 5267
2 1 0 1 -1 0 0 0 0 0.000 0 1 0 0 0 2
	4905 5267 4815 5267
2 3 0 1 -1 -1 0 0 4 0.000 0 0 -1 0 0 5
   4815 5177
   4905 5177
   4905 5267
   4815 5267
   4815 5177
4 0 -1 0 0 12 8 0.000 4 9 288 420 5277 LacVirid, LACTOBACILLUS VIRIDESCENS, [outer], 12\001
2 1 0 1 -1 0 0 0 0 0.000 0 1 0 0 0 2
	4929 5215 4860 5217
2 1 0 1 -1 0 0 0 0 0.000 0 1 0 0 0 2
	4815 5262 4815 5172
2 1 0 1 -1 0 0 0 0 0.000 0 1 0 0 0 2
	4815 5172 4905 5172
2 1 0 1 -1 0 0 0 0 0.000 0 1 0 0 0 2
	4905 5172 4905 5262
2 1 0 1 -1 0 0 0 0 0.000 0 1 0 0 0 2
	4905 5262 4815 5262
2 3 0 1 -1 -1 0 0 4 0.000 0 0 -1 0 0 5
   4815 5172
   4905 5172
   4905 5262
   4815 5262
   4815 5172
4 0 -1 0 0 12 8 0.000 4 9 288 405 5263 LacViri2, LACTOBACILLUS VIRIDESCENS, [outer], 12\001
1 3  0 1 -1 -1 0 0 -1 0.000 1 0.0000 5613 5164 230 230 5613 5164 5843 5164
1 3  0 1 -1 -1 0 0 -1 0.000 1 0.0000 5689 5155 62 62 5689 5155 5751 5155
1 3  0 1 -1 -1 0 0 -1 0.000 1 0.0000 5760 5143 211 211 5760 5143 5971 5143
1 3  0 1 -1 -1 0 0 -1 0.000 1 0.0000 10571 4108 136 136 10571 4108 10707 4108
1 3  0 1 -1 -1 0 0 -1 0.000 1 0.0000 10622 4086 76 76 10622 4086 10697 4086
1 3  0 1 -1 -1 0 0 -1 0.000 1 0.0000 10546 4152 10 10 10546 4152 10555 4152
1 3  0 1 -1 -1 0 0 -1 0.000 1 0.0000 10608 4114 94 94 10608 4114 10702 4114
1 3  0 1 -1 -1 0 0 -1 0.000 1 0.0000 11137 3853 63 63 11137 3853 11200 3853
1 3  0 1 -1 -1 0 0 -1 0.000 1 0.0000 11114 3919 323 323 11114 3919 11437 3919
1 3  0 1 -1 -1 0 0 -1 0.000 1 0.0000 11164 3836 55 55 11164 3836 11219 3836
1 3  0 1 -1 -1 0 0 -1 0.000 1 0.0000 11173 3842 62 62 11173 3842 11235 3842
1 3  0 1 -1 -1 0 0 -1 0.000 1 0.0000 11237 3775 67 67 11237 3775 11304 3775
1 3  0 1 -1 -1 0 0 -1 0.000 1 0.0000 11318 3797 140 140 11318 3797 11458 3797
1 3  0 1 -1 -1 0 0 -1 0.000 1 0.0000 11339 3629 404 404 11339 3629 11743 3629
1 3  0 1 -1 -1 0 0 -1 0.000 1 0.0000 11404 3483 109 109 11404 3483 11513 3483
1 3  0 1 -1 -1 0 0 -1 0.000 1 0.0000 11533 3511 11 11 11533 3511 11544 3511
1 3  0 1 -1 -1 0 0 -1 0.000 1 0.0000 11443 3364 269 269 11443 3364 11712 3364
1 3  0 1 -1 -1 0 0 -1 0.000 1 0.0000 11585 3349 11 11 11585 3349 11596 3349
1 3  0 1 -1 -1 0 0 -1 0.000 1 0.0000 11474 3198 93 93 11474 3198 11567 3198
1 3  0 1 -1 -1 0 0 -1 0.000 1 0.0000 11723 3133 19 19 11723 3133 11742 3133
2 1 0 1 -1 0 0 0 0 0.000 0 1 0 0 0 2
	12316 4139 12466 4139
2 1 0 1 -1 0 0 0 0 0.000 0 1 0 0 0 2
	12466 4289 12316 4289
2 1 0 1 -1 0 0 0 0 0.000 0 1 0 0 0 2
	12316 4139 12316 4289
2 1 0 1 -1 0 0 0 0 0.000 0 1 0 0 0 2
	12466 4289 12466 4139
2 1 0 1 -1 0 0 0 0 0.000 0 1 0 0 0 2
	11307 7229 11669 7229
4 0 -1 0 0 12 8 0.000 4 9 24 11310 7229 0.10\001
2 1 0 1 -1 0 0 0 0 0.000 0 1 0 0 0 2
	4860 585 14019 585
2 1 0 1 -1 0 0 0 0 0.000 0 1 0 0 0 2
	14019 8700 4860 8700
2 1 0 1 -1 0 0 0 0 0.000 0 1 0 0 0 2
	4860 585 4860 8700
2 1 0 1 -1 0 0 0 0 0.000 0 1 0 0 0 2
	14019 8700 14019 585
2 1 0 1 -1 0 0 0 0 0.000 0 1 0 0 0 2
	406 400 17680 400
2 1 0 1 -1 0 0 0 0 0.000 0 1 0 0 0 2
	17680 8861 406 8861
2 1 0 1 -1 0 0 0 0 0.000 0 1 0 0 0 2
	406 400 406 8861
2 1 0 1 -1 0 0 0 0 0.000 0 1 0 0 0 2
	17680 8861 17680 400
