#FIG 2.1
80 2
2 1 0 1 -1 0 0 0 0.000 -1 0 0
	 99 179 99 279 9999 9999
2 1 0 1 -1 0 0 0 0.000 -1 0 0
	 79 219 459 219 9999 9999
2 1 0 1 -1 0 0 0 0.000 -1 0 0
	 79 199 459 199 9999 9999
2 2 0 1 -1 0 0 0 0.000 0 0 0
	 479 299 479 79 59 79 59 299 479 299 9999 9999
4 0 18 13 0 -1 0 0.00000 4 17 72 99 219 $button_l_1
4 0 18 13 0 -1 0 0.00000 4 17 73 99 159 left justified
4 0 18 13 0 -1 0 0.00000 4 17 40 79 119 $close
4 2 18 13 0 -1 0 0.00000 4 17 46 459 119 $reload
